Division,WeightClassKg,Place,Name,Team,BodyweightKg,Best3SquatKg,Best3BenchKg,Best3DeadliftKg,TotalKg,Equipment,Event,Sex
Boys,51.71,1,Brandon Fernandez,Poteet,48.08,142.88,77.11,140.61,360.61,Single-ply,SBD,M
Boys,51.71,2,Rudy Sanchez,Somerset,50.8,124.74,65.77,154.22,344.73,Single-ply,SBD,M
Boys,51.71,3,Hutch Rabenhaldt,Marion,49.9,104.33,68.04,102.06,274.42,Single-ply,SBD,M
Boys,51.71,4,Edward Fonseca,San Antonio Memorial,48.99,54.43,45.36,108.86,208.65,Single-ply,SBD,M
Boys,55.79,1,Cristian Martinez,Hondo,55.34,122.47,63.5,129.27,315.25,Single-ply,SBD,M
Boys,55.79,2,Carlos García,San Antonio Southwest Legacy,53.52,74.84,47.63,97.52,219.99,Single-ply,SBD,M
Boys,59.87,1,Joel Huerta,San Antonio East Central,59.42,181.44,104.33,163.29,449.06,Single-ply,SBD,M
Boys,59.87,2,Fabian Bazan,Castroville Medina Valley,59.42,156.49,95.25,183.7,435.45,Single-ply,SBD,M
Boys,59.87,3,Isaiah Riojas,San Antonio Southwest,58.97,158.76,88.45,174.63,421.84,Single-ply,SBD,M
Boys,59.87,4,Eli Luna,Somerset,58.97,163.29,88.45,154.22,405.97,Single-ply,SBD,M
Boys,59.87,5,Kaleb Zertuche,Devine,57.61,124.74,90.72,170.1,385.55,Single-ply,SBD,M
Boys,59.87,6,Jacob Sarabia,San Antonio East Central,58.06,136.08,79.38,151.95,367.41,Single-ply,SBD,M
Boys,59.87,7,Fabian Apaez,Somerset,59.42,136.08,74.84,136.08,347,Single-ply,SBD,M
Boys,59.87,8,Ernesto Rangel,San Antonio Southwest Legacy,58.51,117.93,74.84,142.88,335.66,Single-ply,SBD,M
Boys,59.87,9,Lorenzo Barfield,San Antonio Southwest Legacy,56.88,124.74,72.57,136.08,333.39,Single-ply,SBD,M
Boys,59.87,10,Deray Davis,Pettus,59.87,111.13,61.23,120.2,292.57,Single-ply,SBD,M
Boys,59.87,11,Estrada Fernando,San Antonio Brooks Academy,57.61,92.99,49.9,106.59,249.48,Single-ply,SBD,M
Boys,67.13,1,Roman Ornelaz,San Antonio Holy Cross,66.09,179.17,108.86,195.04,483.08,Single-ply,SBD,M
Boys,67.13,2,Antonio Garcia,Somerset,63.96,185.97,104.33,190.51,480.81,Single-ply,SBD,M
Boys,67.13,3,Nicholas Seth Garcia,San Antonio Southside,63.5,179.17,99.79,188.24,467.2,Single-ply,SBD,M
Boys,67.13,4,Justin Guevara,San Antonio Kennedy,65.77,167.83,86.18,204.12,458.13,Single-ply,SBD,M
Boys,67.13,5,Michael Rodriguez #6,Stockdale,66.22,165.56,115.67,172.37,453.59,Single-ply,SBD,M
Boys,67.13,6,John Gamez,San Antonio Brooks Academy,65.77,172.37,99.79,176.9,449.06,Single-ply,SBD,M
Boys,67.13,7,Derrick Rodriguez,San Antonio East Central,63.96,170.1,108.86,161.03,439.98,Single-ply,SBD,M
Boys,67.13,8,Julian Rico,Somerset,67.13,190.51,104.33,142.88,437.72,Single-ply,SBD,M
Boys,67.13,9,Michael Martinez,San Antonio East Central,66.22,158.76,92.99,167.83,419.57,Single-ply,SBD,M
Boys,67.13,10,Joe Villanueva,Castroville Medina Valley,63.96,142.88,102.06,165.56,410.5,Single-ply,SBD,M
Boys,67.13,11,Dean Jimenez,San Antonio East Central,63.05,161.03,90.72,151.95,403.7,Single-ply,SBD,M
Boys,67.13,12,Oscar Ledesma,San Antonio Southwest Legacy,66.68,133.81,88.45,174.63,396.89,Single-ply,SBD,M
Boys,67.13,13,Justin Cardenas,Pettus,63.96,129.27,72.57,161.03,362.87,Single-ply,SBD,M
Boys,67.13,14,Ron Resendiz,San Antonio Memorial,66.22,106.59,74.84,161.03,342.46,Single-ply,SBD,M
Boys,67.13,15,Hunter Young #1,Marion,64.41,113.4,68.04,154.22,335.66,Single-ply,SBD,M
Boys,67.13,16,Rylan Wagner,Lytle,64.86,124.74,70.31,136.08,331.12,Single-ply,SBD,M
Boys,67.13,17,Marvin Andrade,San Antonio Southwest Legacy,64.41,120.2,65.77,124.74,310.71,Single-ply,SBD,M
Boys,67.13,18,Ismael Perez,San Antonio Kennedy,60.55,106.59,61.23,129.27,297.1,Single-ply,SBD,M
Boys,67.13,19,Nicholas Aponte,San Antonio Memorial,64.86,102.06,56.7,117.93,276.69,Single-ply,SBD,M
Boys,67.13,20,Deigo Flores,Marion,66.22,102.06,47.63,106.59,256.28,Single-ply,SBD,M
Boys,67.13,DQ,David Ortega,Lytle,66.18,142.88,,,,Single-ply,SBD,M
Boys,67.13,DQ,Eric Guillen,San Antonio Southwest Legacy,63.5,,,,,Single-ply,SBD,M
Boys,74.84,1,Richard Villarreal,San Antonio East Central,74.39,222.26,120.2,258.55,601.01,Single-ply,SBD,M
Boys,74.84,2,Roy DeLeon,Somerset,74.39,226.8,142.88,231.33,601.01,Single-ply,SBD,M
Boys,74.84,3,Gilibaldo Garcia,San Antonio Brooks Academy,72.57,226.8,136.08,233.6,596.47,Single-ply,SBD,M
Boys,74.84,4,Steven Ramirez,Devine,72.57,231.33,136.08,215.46,582.87,Single-ply,SBD,M
Boys,74.84,5,Cesar Gonzalez,Somerset,73.03,226.8,102.06,213.19,542.04,Single-ply,SBD,M
Boys,74.84,6,Leif Griffin,San Antonio Southwest,74.84,204.12,113.4,199.58,517.1,Single-ply,SBD,M
Boys,74.84,7,Garrett Ralph,Lytle,74.34,176.9,120.2,188.24,485.34,Single-ply,SBD,M
Boys,74.84,8,Neil Vallego,San Antonio Southside,73.03,163.29,102.06,215.46,480.81,Single-ply,SBD,M
Boys,74.84,9,Marcus Almeida,Stockdale,74.39,167.83,120.2,183.7,471.74,Single-ply,SBD,M
Boys,74.84,10,Marco Burkman-Flaig,San Antonio Cole,72.12,183.7,104.33,174.63,462.66,Single-ply,SBD,M
Boys,74.84,11,Kaden Crouch,Stockdale,71.67,163.29,120.2,172.37,455.86,Single-ply,SBD,M
Boys,74.84,12,Guilermo Campos,San Antonio Southwest,70.76,167.83,111.13,167.83,446.79,Single-ply,SBD,M
Boys,74.84,13,Da'Tray Allen,San Antonio Southwest Legacy,73.48,140.61,106.59,179.17,426.38,Single-ply,SBD,M
Boys,74.84,14,Diego Martinez,Stockdale,72.57,158.76,102.06,161.03,421.84,Single-ply,SBD,M
Boys,74.84,15,David Elizondo,Castroville Medina Valley,68.49,161.03,83.91,174.63,419.57,Single-ply,SBD,M
Boys,74.84,16,Matt Reyes,Castroville Medina Valley,73.94,161.03,92.99,149.69,403.7,Single-ply,SBD,M
Boys,74.84,17,Jimmy Garza,San Antonio Memorial,71.67,156.49,88.45,156.49,401.43,Single-ply,SBD,M
Boys,74.84,18,Paul Patina,San Antonio Southwest,74.39,147.42,92.99,158.76,399.16,Single-ply,SBD,M
Boys,74.84,19,Ray Rayos,Marion,73.03,133.81,88.45,174.63,396.89,Single-ply,SBD,M
Boys,74.84,20,Waylon Ramzinski,Stockdale,68.95,147.42,83.91,154.22,385.55,Single-ply,SBD,M
Boys,74.84,21,Devin Ornelas,Devine,74.39,113.4,83.91,136.08,333.39,Single-ply,SBD,M
Boys,74.84,22,Tilman Golderer,Marion,71.21,117.93,83.91,129.27,331.12,Single-ply,SBD,M
Boys,74.84,23,Chris Orta,Poteet,74.84,111.13,58.97,140.61,310.71,Single-ply,SBD,M
Boys,74.84,24,Cayden Diez,Lytle,69.85,108.86,58.97,136.08,303.91,Single-ply,SBD,M
Boys,74.84,25,R Tavius Gonzales,San Antonio Southwest Legacy,70.76,104.33,58.97,129.27,292.57,Single-ply,SBD,M
Boys,74.84,DQ,Johnathan Mabs,Marion,72.57,136.08,79.38,,,Single-ply,SBD,M
Boys,82.1,1,Lucas Byrd,Devine,80.29,226.8,136.08,226.8,589.67,Single-ply,SBD,M
Boys,82.1,2,Steban Mireles,Castroville Medina Valley,80.29,224.53,129.27,201.85,555.65,Single-ply,SBD,M
Boys,82.1,3,John Hodge,Pettus,79.38,204.12,120.2,204.12,528.44,Single-ply,SBD,M
Boys,82.1,4,Jacob Ledesma,San Antonio East Central,76.66,183.7,97.52,192.78,474,Single-ply,SBD,M
Boys,82.1,5,Johnny Paredes,Lytle,82.1,183.7,88.45,181.44,453.59,Single-ply,SBD,M
Boys,82.1,6,Nathanial Onofre,San Antonio Holy Cross,80.74,165.56,106.59,170.1,442.25,Single-ply,SBD,M
Boys,82.1,7,Enrique Perez,San Antonio Kennedy,80.74,156.49,106.59,165.56,428.64,Single-ply,SBD,M
Boys,82.1,8,Isaiah Forman,San Antonio Southside,81.65,151.95,102.06,161.03,415.04,Single-ply,SBD,M
Boys,82.1,9,Matthew Villanueva,San Antonio Brooks Academy,81.65,149.69,74.84,188.24,412.77,Single-ply,SBD,M
Boys,82.1,10,Lupe Rodriguez #2,Devine,78.02,154.22,95.25,156.49,405.97,Single-ply,SBD,M
Boys,82.1,11,Tyler Talley,Stockdale,80.29,133.81,115.67,151.95,401.43,Single-ply,SBD,M
Boys,82.1,12,Manuel Ortiz,San Antonio Kennedy,81.19,113.4,113.4,172.37,399.16,Single-ply,SBD,M
Boys,82.1,13,Jeremy Voelkel,Stockdale,77.56,145.15,97.52,149.69,392.36,Single-ply,SBD,M
Boys,82.1,14,Isaiah Alvarado,San Antonio Southwest Legacy,78.93,133.81,83.91,165.56,383.29,Single-ply,SBD,M
Boys,89.81,1,Joseph Bueno,Somerset,89.81,258.55,133.81,249.48,641.83,Single-ply,SBD,M
Boys,89.81,2,Michael Gonzalez,Somerset,83.91,226.8,145.15,199.58,571.53,Single-ply,SBD,M
Boys,89.81,3,Edward Kierstead,San Antonio Southwest,86.18,226.8,136.08,185.97,548.85,Single-ply,SBD,M
Boys,89.81,4,Michael Gomez #1,Poteet,87.54,199.58,117.93,181.44,498.95,Single-ply,SBD,M
Boys,89.81,5,Tucker Walters,Marion,83.42,179.17,102.06,204.12,485.34,Single-ply,SBD,M
Boys,89.81,6,Jose Herrera,Somerset,89.81,158.76,113.4,208.65,480.81,Single-ply,SBD,M
Boys,89.81,7,Daniel Jiminez Guzman,San Antonio Southside,83.46,172.37,102.06,167.83,442.25,Single-ply,SBD,M
Boys,89.81,8,Naythen Cardenas,San Antonio Southwest Legacy,86.18,149.69,108.86,165.56,424.11,Single-ply,SBD,M
Boys,89.81,9,Geronimo Flores,Somerset,88.9,158.76,92.99,170.1,421.84,Single-ply,SBD,M
Boys,89.81,10,Andrew Quijano,San Antonio Southside,88,151.95,95.25,149.69,396.89,Single-ply,SBD,M
Boys,89.81,DQ,Juan Calmenero,Lytle,86.64,163.29,,,,Single-ply,SBD,M
Boys,89.81,DQ,Christopher Beltran,San Antonio East Central,87.54,195.04,,,,Single-ply,SBD,M
Boys,99.79,1,Mateo Garcia,San Antonio Memorial,97.52,306.17,124.74,249.48,680.39,Single-ply,SBD,M
Boys,99.79,2,Manuel Garcia,Somerset,92.08,272.16,127.01,224.53,623.69,Single-ply,SBD,M
Boys,99.79,3,Manuel Valverde,San Antonio Memorial,94.8,208.65,142.88,195.04,546.58,Single-ply,SBD,M
Boys,99.79,4,Francisco Duran,Marion,94.66,192.78,131.54,219.99,544.31,Single-ply,SBD,M
Boys,99.79,5,Nick Propst,San Antonio Southwest,90.72,204.12,124.74,195.04,523.9,Single-ply,SBD,M
Boys,99.79,6,Tim Carrasco,Poteet,90.26,204.12,111.13,181.44,496.68,Single-ply,SBD,M
Boys,99.79,7,Edward Zaragoza,San Antonio Memorial,92.67,185.97,108.86,188.24,483.08,Single-ply,SBD,M
Boys,99.79,8,Adriel Tovar,Poteet,99.34,183.7,90.72,190.51,464.93,Single-ply,SBD,M
Boys,99.79,9,Daylin Weiderstein,San Antonio East Central,98.43,183.7,99.79,176.9,460.4,Single-ply,SBD,M
Boys,99.79,10,Garret Carver,Devine,97.52,156.49,138.35,163.29,458.13,Single-ply,SBD,M
Boys,99.79,11,Diego Hernandez,Devine,95.25,181.44,102.06,158.76,442.25,Single-ply,SBD,M
Boys,99.79,12,Logan Hebert,Stockdale,97.52,165.56,106.59,156.49,428.64,Single-ply,SBD,M
Boys,99.79,13,Max Eguia,San Antonio Kennedy,99.34,142.88,102.06,183.7,428.64,Single-ply,SBD,M
Boys,99.79,14,Diego Rubio,Stockdale,92.53,158.76,90.72,149.69,399.16,Single-ply,SBD,M
Boys,99.79,15,Frank Alvarez,San Antonio Southwest Legacy,93.89,145.15,90.72,154.22,390.09,Single-ply,SBD,M
Boys,99.79,16,Justin Ruiz,Poteet,92.08,136.08,74.84,142.88,353.8,Single-ply,SBD,M
Boys,99.79,17,Isaac Benitez,San Antonio Southwest Legacy,96.16,92.99,47.63,92.99,233.6,Single-ply,SBD,M
Boys,99.79,DQ,Moses Carrasco,Poteet,96.16,226.8,,,,Single-ply,SBD,M
Boys,109.77,1,Eddie Moreno,Somerset,109.32,306.17,195.04,249.48,750.7,Single-ply,SBD,M
Boys,109.77,2,Phillip Herrera,San Antonio Southwest,100.33,249.48,136.08,229.06,614.62,Single-ply,SBD,M
Boys,109.77,3,Trace Ferguson,Castroville Medina Valley,109.32,217.72,124.74,188.24,530.7,Single-ply,SBD,M
Boys,109.77,4,Richard Villarreal,Kenedy,102.97,222.26,111.13,185.97,519.36,Single-ply,SBD,M
Boys,109.77,5,Joey Murillo,San Antonio Southwest,109.32,197.31,111.13,199.58,508.02,Single-ply,SBD,M
Boys,109.77,6,Spencer Panyne,Castroville Medina Valley,106.59,188.24,124.74,192.78,505.76,Single-ply,SBD,M
Boys,109.77,7,Nathan Cauazos,San Antonio Holy Cross,107.5,204.12,102.06,183.7,489.88,Single-ply,SBD,M
Boys,109.77,8,Daniel Ramos,Somerset,108.86,195.04,113.4,163.29,471.74,Single-ply,SBD,M
Boys,109.77,9,Elias Rios,Hondo,108.86,183.7,104.33,165.56,453.59,Single-ply,SBD,M
Boys,109.77,10,Nathan Palacio,San Antonio Memorial,101.15,161.03,81.65,188.24,430.91,Single-ply,SBD,M
Boys,109.77,11,Gabriel Heimer,San Antonio Brooks Academy,103.42,113.4,79.38,106.59,299.37,Single-ply,SBD,M
Boys,109.77,DQ,Josh Pereida,San Antonio Southwest Legacy,105.23,,,,,Single-ply,SBD,M
Boys,124.74,1,Jorge Flores,San Antonio Memorial,119.75,263.08,136.08,226.8,625.96,Single-ply,SBD,M
Boys,124.74,2,Christian Arredondo,Devine,115.21,249.48,149.69,204.12,603.28,Single-ply,SBD,M
Boys,124.74,3,Marcus Luna,San Antonio Southwest,120.66,204.12,158.76,226.8,589.67,Single-ply,SBD,M
Boys,124.74,4,Francisco Uhl,San Antonio Southwest,115.21,204.12,165.56,215.46,585.13,Single-ply,SBD,M
Boys,124.74,5,Seth Ritchey,Poteet,119.75,229.06,115.67,195.04,539.77,Single-ply,SBD,M
Boys,124.74,6,Sebastian Ramirez,Castroville Medina Valley,122.02,217.72,120.2,197.31,535.24,Single-ply,SBD,M
Boys,124.74,7,Jacob Hernandez,Stockdale,114.31,174.63,140.61,192.78,508.02,Single-ply,SBD,M
Boys,124.74,8,Robert Pena-Valdez,San Antonio Kennedy,116.12,204.12,106.59,197.31,508.02,Single-ply,SBD,M
Boys,124.74,9,Vicent Tello,San Antonio Brooks Academy,122.47,190.51,104.33,190.51,485.34,Single-ply,SBD,M
Boys,124.74,10,Joel Ortiz,Castroville Medina Valley,113.4,174.63,102.06,170.1,446.79,Single-ply,SBD,M
Boys,124.74,11,Alec Alvarado,San Antonio Southwest Legacy,120.66,149.69,102.06,176.9,428.64,Single-ply,SBD,M
Boys,124.74,12,Isaiah Ibarra,San Antonio Southwest Legacy,120.66,138.35,88.45,181.44,408.23,Single-ply,SBD,M
Boys,124.74,13,Daniel Ornelas,San Antonio Southwest Legacy,111.58,142.88,111.13,151.95,405.97,Single-ply,SBD,M
Boys,124.74,14,Fernando Martinez #4,San Antonio Southwest Legacy,111.58,151.95,95.25,156.49,403.7,Single-ply,SBD,M
Boys,124.74,15,Angel Banderas,San Antonio Memorial,117.48,142.88,79.38,181.44,403.7,Single-ply,SBD,M
Boys,124.74,16,Mark Flores,Somerset,124.74,136.08,113.4,136.08,385.55,Single-ply,SBD,M
Boys,124.74,17,Juan Huizar,San Antonio Southwest Legacy,110.22,147.42,88.45,142.88,378.75,Single-ply,SBD,M
Boys,124.74,18,Joe Oyervides,San Antonio Southwest Legacy,120.66,149.69,70.31,147.42,367.41,Single-ply,SBD,M
Boys,124.74,DQ,Fermin Cruz,San Antonio Memorial,123.83,226.8,106.59,,,Single-ply,SBD,M
Boys,124.74,DQ,Sam Ritchey,Poteet,111.58,219.99,124.74,,,Single-ply,SBD,M
Boys,124.74+,1,Eli Amaro,San Antonio Southwest,127.46,249.48,170.1,210.92,630.49,Single-ply,SBD,M
Boys,124.74+,2,Jonah Barrow,Castroville Medina Valley,131.09,226.8,145.15,192.78,564.72,Single-ply,SBD,M
Boys,124.74+,3,Sebastian Ramirez,Somerset,134.26,204.12,129.27,204.12,537.51,Single-ply,SBD,M
Boys,124.74+,4,Ernesto Moreno,Castroville Medina Valley,145.15,204.12,151.95,181.44,537.51,Single-ply,SBD,M
Boys,124.74+,5,Kevin Del Toro,San Antonio Kennedy,127.91,215.46,102.06,217.72,535.24,Single-ply,SBD,M
Boys,124.74+,6,Arturo Lopez,San Antonio Southwest,135.62,204.12,131.54,195.04,530.7,Single-ply,SBD,M
Boys,124.74+,7,Isaiah Reyna,Somerset,142.43,226.8,102.06,183.7,512.56,Single-ply,SBD,M
Boys,124.74+,8,Andrew Romero,San Antonio Kennedy,130.18,192.78,151.95,142.88,487.61,Single-ply,SBD,M
Boys,124.74+,9,Caleb Calamaco,San Antonio Southwest,135.62,154.22,104.33,172.37,430.91,Single-ply,SBD,M
Boys,124.74+,10,Roy Cantu,San Antonio Memorial,127.91,163.29,81.65,154.22,399.16,Single-ply,SBD,M
Boys,124.74+,11,Anthony Suttels,San Antonio Kennedy,131.09,133.81,92.99,142.88,369.68,Single-ply,SBD,M
