Event,Division,Sex,WeightClassKg,Best3BenchKg,Bench4Kg,Best3DeadliftKg,Deadlift4Kg,TotalKg,Name,State,Country,Equipment,Place
BD,Class 1,M,67.5,125,,215,,340,Dave Constantineau,,USA,Single-ply,1
BD,Class 1,M,82.5,152.5,,235,,387.5,Scott Jividen,,USA,Single-ply,1
BD,Class 1,M,90,227.5,,242.5,,470,Ryan Marble,,USA,Single-ply,1
BD,Class 1,M,110,187.5,,262.5,,450,David Palmer,,USA,Single-ply,1
BD,Disabled 2 13-19,M,110,120,,195,,315,Austin Burgoyne,,USA,Single-ply,1
BD,Disabled 2 20-39,M,75,105,,182.5,,287.5,Chad McFarland,,USA,Single-ply,1
BD,Disabled 2 40-59,M,82.5,162.5,,200,,362.5,Mark Lo,,USA,Single-ply,1
BD,Disabled 2 40-59,M,100,140,,250,,390,Duane Burlingame,,USA,Single-ply,1
BD,Disabled 2 40-59,M,110,237.5,,228.5,,466,Steve Peña #1,,USA,Single-ply,1
BD,Disabled 2 40-59,M,110,155,,228.5,,383.5,Cody Colchado,,USA,Single-ply,2
BD,Disabled 2 60,M,82.5,110,,237.5,,347.5,Richard Hagedorn,,USA,Single-ply,1
BD,Juniors 20-25,M,75,197.5,,230,,427.5,Judd Sato III,,USA,Single-ply,1
BD,Juniors 20-25,M,75,142.5,,240,,382.5,Dylan Price,,USA,Single-ply,2
BD,Juniors 20-25,M,82.5,152.5,,235,,387.5,Scott Jividen,,USA,Single-ply,1
BD,Juniors 20-25,M,82.5,152.5,,210,,362.5,Ryne Golesh,,USA,Single-ply,2
BD,Juniors 20-25,M,90,200,,235,,435,Kamalei Benjamin-Maielua,,USA,Single-ply,1
BD,Juniors 20-25,M,100,242.5,,272.5,,515,Tyler Carlson,,USA,Single-ply,1
BD,Law-Fire 40-47,M,125,175,,210,,385,Bobby Gray,,USA,Single-ply,1
BD,Law-Fire 56-63,M,110,250,,275.5,,525.5,Mike Frizzell,,USA,Single-ply,1
BD,Law-Fire Open,M,82.5,167.5,,237.5,,405,Jeffrey Short,,USA,Single-ply,1
BD,Law-Fire Open,M,140,220,,232.5,,452.5,Brian Vickers,,USA,Single-ply,1
BD,Law-Fire Submasters,M,90,145.5,,192.5,,338,Dave Claroni,,USA,Single-ply,1
BD,Law-Fire Submasters,M,140,220,,232.5,,452.5,Brian Vickers,,USA,Single-ply,1
BD,Masters 40-46,M,90,267.5,,280,,547.5,Matt LaMarque,,USA,Single-ply,1
BD,Masters 40-46,M,90,172.5,,287.5,,460,Robert Miller #6,,USA,Single-ply,2
BD,Masters 40-46,M,117.5,162.5,,275,,437.5,Chris Johnson #4,,USA,Single-ply,1
BD,Masters 40-46,M,125,222.5,,245,,467.5,Guy Powell,,USA,Single-ply,1
BD,Masters 40-46,M,125,175,,210,,385,Bobby Gray,,USA,Single-ply,2
BD,Masters 40-46,M,140,292.5,,320,,612.5,Dave Forstner,,USA,Single-ply,1
BD,Masters 40-46,M,140,150,,237.5,,387.5,Kevin Krauss,,USA,Single-ply,2
BD,Masters 40-46,M,140+,282.5,,337.5,343,620,Keoni Reich,,USA,Single-ply,1
BD,Masters 40-46,M,140+,280,,240,,520,Scott Bromeisl,,USA,Single-ply,2
BD,Masters 47-53,M,82.5,177.5,,300,,477.5,Ron Garofalo,,USA,Single-ply,1
BD,Masters 47-53,M,90,207.5,,292.5,,500,Russ Clark,,USA,Single-ply,1
BD,Masters 47-53,M,100,205,,205,,410,Gary Gulseth,,USA,Single-ply,1
BD,Masters 47-53,M,110,187.5,,262.5,,450,David Palmer,,USA,Single-ply,1
BD,Masters 47-53,M,110,155,,228.5,,383.5,Cody Colchado,,USA,Single-ply,2
BD,Masters 47-53,M,110,147.5,,200,,347.5,Ron Garcia,,USA,Single-ply,3
BD,Masters 54-60,M,67.5,125,,215,,340,Dave Constantineau,,USA,Single-ply,1
BD,Masters 54-60,M,75,157.5,,257.5,,415,Fulton White,,USA,Single-ply,1
BD,Masters 54-60,M,90,217.5,,297.5,,515,Jody Woods,,USA,Single-ply,1
BD,Masters 54-60,M,100,140,,250,,390,Duane Burlingame,,USA,Single-ply,1
BD,Masters 54-60,M,110,250,,275.5,,525.5,Mike Frizzell,,USA,Single-ply,1
BD,Masters 54-60,M,110,207.5,,240,,447.5,Jason Julian,,USA,Single-ply,2
BD,Masters 54-60,M,125,137.5,,230,,367.5,Ted Stewart,,USA,Single-ply,1
BD,Masters 54-60,M,140,237.5,,245,,482.5,Joe Mickelson,,USA,Single-ply,1
BD,Masters 61-67,M,67.5,150,,165,,315,Gary Miller #2,,USA,Single-ply,1
BD,Masters 61-67,M,82.5,110,,237.5,,347.5,Richard Hagedorn,,USA,Single-ply,1
BD,Masters 61-67,M,100,150,,202.5,,352.5,Charles Folinus,,USA,Single-ply,1
BD,Masters 80-84,M,75,95,,150,161,245,Bill Tinkler,,USA,Single-ply,1
BD,Masters 85-89,M,90,70,,92.5,102.5,162.5,James Weiss,,USA,Single-ply,1
BD,Open,M,75,197.5,,230,,427.5,Judd Sato III,,USA,Single-ply,1
BD,Open,M,75,142.5,,240,,382.5,Dylan Price,,USA,Single-ply,2
BD,Open,M,75,112.5,,210,,322.5,Connor Fuqua,,USA,Single-ply,3
BD,Open,M,90,267.5,,280,,547.5,Matt LaMarque,,USA,Single-ply,1
BD,Open,M,90,217.5,,297.5,,515,Jody Woods,,USA,Single-ply,2
BD,Open,M,110,175,,287.5,,462.5,Ryan Bobula,,USA,Single-ply,1
BD,Open,M,110,167.5,,267.5,,435,Zachary Holloway,,USA,Single-ply,2
BD,Open,M,140,292.5,,320,,612.5,Dave Forstner,,USA,Single-ply,1
BD,Open,M,140,150,,237.5,,387.5,Kevin Krauss,,USA,Single-ply,2
BD,Submasters 33-39,M,117.5,127.5,,215.5,,343,Adam Cummings,,USA,Single-ply,1
BD,Teen 14-15,M,75,135,,170,,305,Karter Brachear,,USA,Single-ply,1
BD,Teen 14-15,M,75,110,,185.5,,295.5,Michael Berrian,,USA,Single-ply,2
BD,Teen 18-19,M,90,152.5,,185,,337.5,Benjamin Mattick,,USA,Single-ply,1
BD,Teen 18-19,M,100,155,,237.5,,392.5,John Weis,,USA,Single-ply,1
D,Class 1,M,60,,,212.5,,212.5,Rodell Esteban,OR,USA,Single-ply,1
D,Class 1,M,67.5,,,215,,215,Dave Constantineau,WI,USA,Single-ply,2
D,Class 1,M,67.5,,,232.5,,232.5,Jonathan Iloreta,HI,USA,Single-ply,1
D,Class 1,M,75,,,225,,225,Teddy Guerzon,NY,USA,Single-ply,1
D,Class 1,M,75,,,220,,220,Omar Shake,CA,USA,Single-ply,2
D,Class 1,M,75,,,182.5,,182.5,Matthew Collins #3,CA,USA,Single-ply,3
D,Class 1,M,75,,,160,,160,James Lin #2,WA,USA,Single-ply,4
D,Class 1,M,82.5,,,250,,250,Ben Dehghan,WA,USA,Single-ply,1
D,Class 1,M,82.5,,,235,,235,Scott Jividen,NV,USA,Single-ply,2
D,Class 1,M,82.5,,,217.5,,217.5,Ken Escobar,CA,USA,Single-ply,3
D,Class 1,M,82.5,,,207.5,,207.5,Aramiq Amirchian,AZ,USA,Single-ply,4
D,Class 1,M,90,,,245,,245,Preston Quinn,WI,USA,Single-ply,1
D,Class 1,M,90,,,242.5,,242.5,Ryan Marble,UT,USA,Single-ply,2
D,Class 1,M,90,,,230.5,,230.5,Kevin Dunford,,Canada,Single-ply,3
D,Class 1,M,90,,,227.5,,227.5,Mark Pearce,TX,USA,Single-ply,4
D,Class 1,M,90,,,215,,215,Jeff Hosley,UT,USA,Single-ply,5
D,Class 1,M,90,,,192.5,,192.5,John Lisenbee,OK,USA,Single-ply,6
D,Class 1,M,90,,,155,,155,Roderick Roback,MN,USA,Single-ply,7
D,Class 1,M,100,,,292.5,,292.5,Daniel Libre,WA,USA,Single-ply,1
D,Class 1,M,100,,,257.5,,257.5,Brady Hosley,UT,USA,Single-ply,3
D,Class 1,M,100,,,255,,255,Kevin Trangone,NJ,USA,Single-ply,4
D,Class 1,M,100,,,240,,240,Mike Lazenby,UT,USA,Single-ply,5
D,Class 1,M,100,,,230,,230,Kyle Herzik,NV,USA,Single-ply,6
D,Class 1,M,100,,,222.5,,222.5,Samuel Swift,TX,USA,Single-ply,7
D,Class 1,M,100,,,275,,275,Uepati Tauti,OR,USA,Single-ply,2
D,Class 1,M,110,,,275,,275,Dennis Schmidt,MN,USA,Single-ply,1
D,Class 1,M,110,,,275,,275,Nick Hosley,UT,USA,Single-ply,2
D,Class 1,M,110,,,262.5,,262.5,David Palmer,ME,USA,Single-ply,3
D,Class 1,M,110,,,212.5,,212.5,William G Caughey,UT,USA,Single-ply,4
D,Class 1,M,117.5,,,278,,278,Nick Massey,CA,USA,Single-ply,1
D,Class 1,M,117.5,,,260,,260,Jason Sacre,UT,USA,Single-ply,2
D,Class 1,M,117.5,,,252.5,,252.5,Isaac Conde,TX,USA,Single-ply,3
D,Class 1,M,117.5,,,220,,220,Matt Maini,AL,USA,Single-ply,4
D,Class 1,M,140+,,,245,,245,Adam Jakircevic,WI,USA,Single-ply,1
D,Disabled 1 20-39,M,110,,,210,,210,Matthew Ross,OR,USA,Single-ply,1
D,Disabled 1 20-39,M,125,,,237.5,,237.5,Omar Avila,TX,USA,Single-ply,1
D,Disabled 2 13-19,M,67.5,,,92.5,100,92.5,Tanner Deck,WA,USA,Single-ply,1
D,Disabled 2 13-19,M,90,,,157.5,165,157.5,Nathaniel Baker #2,WA,USA,Single-ply,1
D,Disabled 2 13-19,M,110,,,195,,195,Austin Burgoyne,ME,USA,Single-ply,1
D,Disabled 2 20-39,M,48,,,92.5,97.5,92.5,Todd Moore,,Canada,Single-ply,1
D,Disabled 2 20-39,M,75,,,182.5,,182.5,Chad McFarland,OR,USA,Single-ply,1
D,Disabled 2 20-39,M,100,,,135,,135,James Clifford,,Canada,Single-ply,1
D,Disabled 2 20-39,M,117.5,,,212.5,220,212.5,Matthew Keating,TX,USA,Single-ply,1
D,Disabled 2 20-39,M,125,,,245,247.5,245,Brady Tanner,KS,USA,Single-ply,1
D,Disabled 2 40-59,M,82.5,,,200,,200,Mark Lo,HI,USA,Single-ply,1
D,Disabled 2 40-59,M,82.5,,,200,,200,Vilmar Oliveira,,Brazil,Single-ply,2
D,Disabled 2 40-59,M,100,,,250,,250,Duane Burlingame,IL,USA,Single-ply,1
D,Disabled 2 40-59,M,100,,,240,,240,Reid Solar,AZ,USA,Single-ply,2
D,Disabled 2 40-59,M,110,,,228.5,,228.5,Steve Peña #1,CA,USA,Single-ply,1
D,Disabled 2 40-59,M,110,,,228.5,,228.5,Cody Colchado,TX,USA,Single-ply,2
D,Disabled 2 60,M,75,,,117.5,,117.5,Sam Contakos,PA,USA,Single-ply,1
D,Disabled 2 60,M,82.5,,,237.5,,237.5,Richard Hagedorn,AL,USA,Single-ply,1
D,Disabled 2 60,M,90,,,183,,183,John Herbein,PA,USA,Single-ply,1
D,Disabled 2 60,M,100,,,102.5,,102.5,Scott Dolan,CA,USA,Single-ply,1
D,Disabled 2 60,M,110,,,105,,105,Samuel Kaanapu,CA,USA,Single-ply,1
D,Disabled 2 60,M,110,,,102.5,,102.5,Bill Starkey,CA,USA,Single-ply,2
D,Disabled 2 60,M,125,,,150,160,150,Serafim Rocha,,Brazil,Single-ply,1
D,Disabled 2 60,M,140+,,,105.5,,105.5,JP Krachunis,CA,USA,Single-ply,1
D,Juniors 20-25,M,67.5,,,200.5,,200.5,Josh Hicks,WI,USA,Single-ply,1
D,Juniors 20-25,M,67.5,,,192.5,,192.5,Trevor Banaszak,TX,USA,Single-ply,2
D,Juniors 20-25,M,75,,,230,,230,Judd Sato III,HI,USA,Single-ply,2
D,Juniors 20-25,M,75,,,240,,240,Dylan Price,MI,USA,Single-ply,1
D,Juniors 20-25,M,82.5,,,210,,210,Ryne Golesh,CO,USA,Single-ply,4
D,Juniors 20-25,M,82.5,,,267.5,,267.5,Andrew Tabisula,HI,USA,Single-ply,1
D,Juniors 20-25,M,82.5,,,250,,250,Frank Voce,NY,USA,Single-ply,2
D,Juniors 20-25,M,82.5,,,235,,235,Scott Jividen,NV,USA,Single-ply,3
D,Juniors 20-25,M,82.5,,,207.5,,207.5,Roy Matsuyama,CA,USA,Single-ply,5
D,Juniors 20-25,M,82.5,,,197.5,,197.5,Andrew Vickery,CA,USA,Single-ply,6
D,Juniors 20-25,M,90,,,235,,235,Kamalei Benjamin-Maielua,HI,USA,Single-ply,5
D,Juniors 20-25,M,90,,,292.5,,292.5,Kyle Sugi,HI,USA,Single-ply,1
D,Juniors 20-25,M,90,,,265,,265,Rance Balidoy,HI,USA,Single-ply,2
D,Juniors 20-25,M,90,,,265,,265,Stefan Green,WA,USA,Single-ply,3
D,Juniors 20-25,M,90,,,237.5,,237.5,Edgar Garcia Sierra,OR,USA,Single-ply,4
D,Juniors 20-25,M,90,,,232.5,,232.5,Zachary Marquez,WA,USA,Single-ply,6
D,Juniors 20-25,M,90,,,220,,220,Edward Young,NV,USA,Single-ply,7
D,Juniors 20-25,M,90,,,190,,190,Samuel Jones,AZ,USA,Single-ply,8
D,Juniors 20-25,M,100,,,272.5,,272.5,Tyler Carlson,MT,USA,Single-ply,1
D,Juniors 20-25,M,100,,,270,,270,Victor Luis Ramos Medeiros,,Brazil,Single-ply,2
D,Juniors 20-25,M,100,,,250,,250,Seppo Junttila,,Finland,Single-ply,3
D,Juniors 20-25,M,100,,,240,,240,Mike Lazenby,UT,USA,Single-ply,4
D,Juniors 20-25,M,100,,,210,,210,Patrick Jankun,NY,USA,Single-ply,5
D,Juniors 20-25,M,110,,,287.5,,287.5,Joshua Winterrowd,MT,USA,Single-ply,1
D,Juniors 20-25,M,110,,,285,,285,Seth Reed,ME,USA,Single-ply,2
D,Juniors 20-25,M,110,,,220,240,220,Renan De Marchi Moreno,,Brazil,Single-ply,3
D,Juniors 20-25,M,117.5,,,300,,300,Alex Miqueloni Fracola,,Brazil,Single-ply,1
D,Juniors 20-25,M,117.5,,,267.5,,267.5,Anthony Rangel,OR,USA,Single-ply,2
D,Juniors 20-25,M,117.5,,,240,,240,Pauli Peltonen,,Finland,Single-ply,3
D,Juniors 20-25,M,125,,,346,,346,Colby Ballinger,CA,USA,Single-ply,1
D,Juniors 20-25,M,125,,,285,,285,Bradley Waiki,HI,USA,Single-ply,2
D,Juniors 20-25,M,125,,,265,,265,Bari Dar,NY,USA,Single-ply,3
D,Juniors 20-25,M,125,,,265,,265,Kyle Omar Hite,OR,USA,Single-ply,4
D,Juniors 20-25,M,125,,,,,,Kyle Mitchell,CA,USA,Single-ply,DQ
D,Juniors 20-25,M,140+,,,330,,330,Andreas Ståhlberg,,Finland,Single-ply,1
D,Law-Fire 40-47,M,100,,,242.5,,242.5,Lance Davis,UT,USA,Single-ply,2
D,Law-Fire 40-47,M,100,,,255,,255,Chris Newton,CA,USA,Single-ply,1
D,Law-Fire 40-47,M,117.5,,,272.5,,272.5,Flip Silva,TX,USA,Single-ply,1
D,Law-Fire 40-47,M,117.5,,,262.5,,262.5,Brent Howard,NV,USA,Single-ply,2
D,Law-Fire 40-47,M,125,,,275,,275,Tommy Harrison,IL,USA,Single-ply,1
D,Law-Fire 40-47,M,125,,,210,,210,Bobby Gray,CA,USA,Single-ply,2
D,Law-Fire 48-55,M,82.5,,,247.5,,247.5,Dan Guches,OR,USA,Single-ply,1
D,Law-Fire 48-55,M,90,,,240.5,,240.5,Luis Fernando Meireles Dias,,Brazil,Single-ply,1
D,Law-Fire 56-63,M,67.5,,,165,,165,Gary Miller #2,NV,USA,Single-ply,1
D,Law-Fire 56-63,M,82.5,,,245,,245,Charles McFarland,OR,USA,Single-ply,1
D,Law-Fire 56-63,M,110,,,275.5,,275.5,Mike Frizzell,IL,USA,Single-ply,1
D,Law-Fire 56-63,M,110,,,252.5,,252.5,Marvin Hollan,TX,USA,Single-ply,2
D,Law-Fire 56-63,M,117.5,,,259,,259,Manny Burruel,CA,USA,Single-ply,1
D,Law-Fire 56-63,M,125,,,205,,205,Michal Johnson,CA,USA,Single-ply,1
D,Law-Fire 64+,M,82.5,,,170,,170,James Rouse,IL,USA,Single-ply,1
D,Law-Fire 64+,M,100,,,250,265.5,250,Jon Wolbers,,Canada,Single-ply,1
D,Law-Fire 64+,M,140+,,,105.5,,105.5,JP Krachunis,CA,USA,Single-ply,1
D,Law-Fire Open,M,67.5,,,167.5,,167.5,Eli Huizar Zuniga,WA,USA,Single-ply,1
D,Law-Fire Open,M,82.5,,,247.5,,247.5,Dan Guches,OR,USA,Single-ply,1
D,Law-Fire Open,M,82.5,,,237.5,,237.5,Jeffrey Short,NV,USA,Single-ply,2
D,Law-Fire Open,M,82.5,,,157.5,,157.5,Tyson Shawcroft,AZ,USA,Single-ply,3
D,Law-Fire Open,M,117.5,,,272.5,,272.5,Flip Silva,TX,USA,Single-ply,1
D,Law-Fire Open,M,117.5,,,262.5,,262.5,Brent Howard,NV,USA,Single-ply,2
D,Law-Fire Open,M,125,,,275,,275,Tommy Harrison,IL,USA,Single-ply,1
D,Law-Fire Open,M,140,,,232.5,,232.5,Brian Vickers,CA,USA,Single-ply,1
D,Law-Fire Open,M,140+,,,337.5,343,337.5,Keoni Reich,HI,USA,Single-ply,1
D,Law-Fire Submasters,M,90,,,192.5,,192.5,Dave Claroni,ME,USA,Single-ply,1
D,Law-Fire Submasters,M,100,,,227.5,,227.5,Nick Berriman,OR,USA,Single-ply,1
D,Law-Fire Submasters,M,110,,,285,,285,Nikolai Ivanchenko,MT,USA,Single-ply,1
D,Law-Fire Submasters,M,140,,,232.5,,232.5,Brian Vickers,CA,USA,Single-ply,1
D,Masters 40-46,M,75,,,160,,160,James Lin #2,WA,USA,Single-ply,1
D,Masters 40-46,M,82.5,,,,,,Jonathan Domingo,HI,USA,Single-ply,DQ
D,Masters 40-46,M,90,,,287.5,,287.5,Robert Miller #6,TX,USA,Single-ply,1
D,Masters 40-46,M,90,,,285,,285,Drew Burton,,Canada,Single-ply,2
D,Masters 40-46,M,90,,,280,,280,Matt LaMarque,CA,USA,Single-ply,3
D,Masters 40-46,M,90,,,242.5,,242.5,Eric Litster,UT,USA,Single-ply,4
D,Masters 40-46,M,90,,,227.5,,227.5,Craig Bitton,UT,USA,Single-ply,5
D,Masters 40-46,M,90,,,227.5,,227.5,Mark Pearce,TX,USA,Single-ply,6
D,Masters 40-46,M,100,,,295,,295,George Soto,CA,USA,Single-ply,1
D,Masters 40-46,M,100,,,260,,260,Severino Clementino Vitorio Filho,,Brazil,Single-ply,2
D,Masters 40-46,M,110,,,320,,320,Evandro Casa Grande,,Brazil,Single-ply,1
D,Masters 40-46,M,110,,,270,,270,Mike Desrosiers,AZ,USA,Single-ply,2
D,Masters 40-46,M,117.5,,,320,,320,Kari Pöntinen,,Finland,Single-ply,1
D,Masters 40-46,M,117.5,,,277.5,,277.5,Nick Massey,CA,USA,Single-ply,2
D,Masters 40-46,M,117.5,,,275,,275,Chris Johnson #4,WA,USA,Single-ply,3
D,Masters 40-46,M,117.5,,,245,,245,Allen Heisler,MT,USA,Single-ply,4
D,Masters 40-46,M,117.5,,,245,,245,Paul Mercado,IL,USA,Single-ply,5
D,Masters 40-46,M,125,,,245,,245,Guy Powell,WI,USA,Single-ply,1
D,Masters 40-46,M,125,,,210,,210,Bobby Gray,CA,USA,Single-ply,2
D,Masters 40-46,M,140,,,320,,320,Dave Forstner,MI,USA,Single-ply,1
D,Masters 40-46,M,140,,,,,,Jeremiah Johnson #3,UT,USA,Single-ply,DQ
D,Masters 40-46,M,140,,,237.5,,237.5,Kevin Krauss,NY,USA,Single-ply,2
D,Masters 40-46,M,140+,,,337.5,343,337.5,Keoni Reich,HI,USA,Single-ply,1
D,Masters 40-46,M,140+,,,312.5,,312.5,David Edgell,UT,USA,Single-ply,2
D,Masters 40-46,M,140+,,,260,,260,John Heldt,NV,USA,Single-ply,3
D,Masters 40-46,M,140+,,,240,,240,Scott Bromeisl,WI,USA,Single-ply,4
D,Masters 47-53,M,60,,,220,,220,James Valmoja,HI,USA,Single-ply,1
D,Masters 47-53,M,67.5,,,157.5,,157.5,Douglas Danoff,NY,USA,Single-ply,1
D,Masters 47-53,M,75,,,237.5,,237.5,Keith Cunningham,WA,USA,Single-ply,1
D,Masters 47-53,M,75,,,182.5,,182.5,Nino Domingo,AZ,USA,Single-ply,2
D,Masters 47-53,M,82.5,,,300,,300,Ron Garofalo,CO,USA,Single-ply,1
D,Masters 47-53,M,82.5,,,240,,240,Rolando Espinoza,TX,USA,Single-ply,2
D,Masters 47-53,M,90,,,,,,George Phipps,NV,USA,Single-ply,DQ
D,Masters 47-53,M,90,,,297.5,,297.5,Eddie DiFruscia,NH,USA,Single-ply,1
D,Masters 47-53,M,90,,,292.5,,292.5,Russ Clark,CO,USA,Single-ply,2
D,Masters 47-53,M,90,,,240,,240,Dave Shockman,OR,USA,Single-ply,3
D,Masters 47-53,M,90,,,230.5,,230.5,Kevin Dunford,,Canada,Single-ply,4
D,Masters 47-53,M,90,,,215,,215,Telford Allen,ME,USA,Single-ply,5
D,Masters 47-53,M,100,,,205,,205,Gary Gulseth,WI,USA,Single-ply,6
D,Masters 47-53,M,100,,,305,,305,Al Bianchi,MA,USA,Single-ply,1
D,Masters 47-53,M,100,,,265,,265,John Westleigh,ME,USA,Single-ply,2
D,Masters 47-53,M,100,,,255,,255,Steven Petersen,TX,USA,Single-ply,3
D,Masters 47-53,M,100,,,242.5,,242.5,Lance Davis,UT,USA,Single-ply,4
D,Masters 47-53,M,100,,,228,,228,John Winterrowd,MT,USA,Single-ply,5
D,Masters 47-53,M,110,,,228.5,,228.5,Cody Colchado,TX,USA,Single-ply,5
D,Masters 47-53,M,110,,,,,,Michael Neely,MT,USA,Single-ply,DQ
D,Masters 47-53,M,110,,,305,,305,Tim Sparkes,AZ,USA,Single-ply,1
D,Masters 47-53,M,110,,,272.5,,272.5,Robert Exum,CA,USA,Single-ply,2
D,Masters 47-53,M,110,,,262.5,,262.5,David Palmer,ME,USA,Single-ply,3
D,Masters 47-53,M,110,,,250,,250,Marcelo Schneider,,Brazil,Single-ply,4
D,Masters 47-53,M,110,,,200,,200,Ron Garcia,CA,USA,Single-ply,6
D,Masters 47-53,M,117.5,,,302.5,,302.5,Ron Harlow,IL,USA,Single-ply,1
D,Masters 47-53,M,117.5,,,255,,255,Nick Frazzetta,IL,USA,Single-ply,2
D,Masters 47-53,M,125,,,375,,375,Patrick Holloway,AZ,USA,Single-ply,1
D,Masters 47-53,M,125,,,310,,310,Terry Putman,OK,USA,Single-ply,2
D,Masters 47-53,M,140,,,255,,255,Thomas Guiney,OK,USA,Single-ply,1
D,Masters 54-60,M,60,,,112.5,,112.5,Chetram Mangra,NY,USA,Single-ply,1
D,Masters 54-60,M,67.5,,,247.5,,247.5,Dean Kaneshiro,HI,USA,Single-ply,1
D,Masters 54-60,M,67.5,,,215,,215,Dave Constantineau,WI,USA,Single-ply,2
D,Masters 54-60,M,75,,,257.5,,257.5,Fulton White,NV,USA,Single-ply,1
D,Masters 54-60,M,75,,,250,,250,Richard Cirigliano,CA,USA,Single-ply,2
D,Masters 54-60,M,75,,,227.5,,227.5,Alfredo Evangelista,OR,USA,Single-ply,3
D,Masters 54-60,M,75,,,160,,160,Paul Cartwright,,New Zealand,Single-ply,4
D,Masters 54-60,M,82.5,,,303,,303,Leamon Woodley,WA,USA,Single-ply,1
D,Masters 54-60,M,82.5,,,245,,245,Charles McFarland,OR,USA,Single-ply,2
D,Masters 54-60,M,82.5,,,235,,235,David Bertier,CA,USA,Single-ply,3
D,Masters 54-60,M,90,,,297.5,,297.5,Jody Woods,CA,USA,Single-ply,1
D,Masters 54-60,M,90,,,295,,295,Tom Eiseman,NJ,USA,Single-ply,2
D,Masters 54-60,M,90,,,217.5,,217.5,Tim Epting,TX,USA,Single-ply,3
D,Masters 54-60,M,90,,,215,,215,Jeff Hosley,UT,USA,Single-ply,4
D,Masters 54-60,M,90,,,207.5,,207.5,Dan Walker,WA,USA,Single-ply,5
D,Masters 54-60,M,100,,,250,,250,Duane Burlingame,IL,USA,Single-ply,1
D,Masters 54-60,M,100,,,240,,240,Reid Solar,AZ,USA,Single-ply,2
D,Masters 54-60,M,100,,,212.5,,212.5,Jim Curley,CO,USA,Single-ply,3
D,Masters 54-60,M,100,,,182.5,,182.5,Gene A Wenzel,OH,USA,Single-ply,4
D,Masters 54-60,M,110,,,275.5,,275.5,Mike Frizzell,IL,USA,Single-ply,1
D,Masters 54-60,M,110,,,272.5,,272.5,Eugene Merrill,AR,USA,Single-ply,2
D,Masters 54-60,M,110,,,240,,240,Jason Julian,CO,USA,Single-ply,3
D,Masters 54-60,M,110,,,227.5,,227.5,Mark Vainas,MA,USA,Single-ply,4
D,Masters 54-60,M,125,,,275,,275,Bobby Driskill,AL,USA,Single-ply,1
D,Masters 54-60,M,125,,,230,,230,Ted Stewart,NV,USA,Single-ply,2
D,Masters 54-60,M,140,,,285,,285,Blair Fisher,,Canada,Single-ply,1
D,Masters 54-60,M,140,,,245,,245,Joe Mickelson,WA,USA,Single-ply,2
D,Masters 54-60,M,140,,,150,,150,Gary Gertner,CO,USA,Single-ply,3
D,Masters 61-67,M,67.5,,,165,,165,Gary Miller #2,NV,USA,Single-ply,1
D,Masters 61-67,M,82.5,,,,,,G. Jeffery Thornton,AZ,USA,Single-ply,DQ
D,Masters 61-67,M,82.5,,,250.5,,250.5,Gregory Kleyn,IL,USA,Single-ply,1
D,Masters 61-67,M,82.5,,,237.5,,237.5,Richard Hagedorn,AL,USA,Single-ply,2
D,Masters 61-67,M,100,,,205,,205,Randy Waldorf,MN,USA,Single-ply,1
D,Masters 61-67,M,100,,,202.5,,202.5,Charles Folinus,AZ,USA,Single-ply,2
D,Masters 61-67,M,110,,,282.5,,282.5,Eddie Morgan #1,AR,USA,Single-ply,1
D,Masters 61-67,M,110,,,242.5,,242.5,Marvin Hollan,TX,USA,Single-ply,2
D,Masters 61-67,M,125,,,212.5,,212.5,Tom Morgan,AR,USA,Single-ply,1
D,Masters 61-67,M,140,,,140,,140,Larry Riskey,OR,USA,Single-ply,1
D,Masters 68-74,M,60,,,115.5,,115.5,Eugene Kawamata,HI,USA,Single-ply,1
D,Masters 68-74,M,60,,,110,,110,Skip Schacher,MT,USA,Single-ply,2
D,Masters 68-74,M,75,,,205,,205,Martin Montgomery,IN,USA,Single-ply,1
D,Masters 68-74,M,75,,,172.5,,172.5,Stefan Lemire,UT,USA,Single-ply,2
D,Masters 68-74,M,75,,,155,,155,Gary Witzel,WA,USA,Single-ply,3
D,Masters 68-74,M,82.5,,,220,,220,Robert Batko,MI,USA,Single-ply,1
D,Masters 68-74,M,82.5,,,197.5,,197.5,Tom Haggenmiller,MN,USA,Single-ply,2
D,Masters 68-74,M,82.5,,,185.5,,185.5,James Christian #1,TX,USA,Single-ply,3
D,Masters 68-74,M,100,,,237.5,,237.5,Bob Hochstein,IL,USA,Single-ply,1
D,Masters 68-74,M,100,,,235,,235,Al Williamson,WI,USA,Single-ply,2
D,Masters 68-74,M,110,,,132.5,,132.5,William Coleman,HI,USA,Single-ply,1
D,Masters 75-79,M,60,,,170,172.5,170,Precious McKenzie,,New Zealand,Raw,1
D,Masters 75-79,M,82.5,,,155,,155,Stan Miyahira,NV,USA,Single-ply,1
D,Masters 75-79,M,90,,,183,,183,John Herbein,PA,USA,Single-ply,1
D,Masters 75-79,M,90,,,77.5,,77.5,Ronald Ford,CA,USA,Single-ply,2
D,Masters 80-84,M,56,,,75,80,75,Gee-Sing Goo,HI,USA,Single-ply,1
D,Masters 80-84,M,75,,,150,161,150,Bill Tinkler,FL,USA,Single-ply,1
D,Masters 80-84,M,75,,,117.5,,117.5,Sam Contakos,PA,USA,Single-ply,2
D,Masters 80-84,M,100,,,180,,180,Russell Combest,OH,USA,Single-ply,1
D,Masters 85-89,M,90,,,92.5,102.5,92.5,James Weiss,CA,USA,Single-ply,1
D,Open,M,60,,,205,,205,Jonathan Rosete,OR,USA,Single-ply,3
D,Open,M,60,,,220,,220,James Valmoja,HI,USA,Single-ply,1
D,Open,M,60,,,145,,145,Cesar Espinoza,TX,USA,Single-ply,4
D,Open,M,60,,,220,,220,Wesley Uyeoka,CA,USA,Single-ply,2
D,Open,M,67.5,,,247.5,,247.5,Dean Kaneshiro,HI,USA,Single-ply,1
D,Open,M,67.5,,,205,,205,Jason Arnold,CA,USA,Single-ply,2
D,Open,M,67.5,,,205,,205,Thomas Wilson,UT,USA,Single-ply,3
D,Open,M,75,,,210,,210,Connor Fuqua,CO,USA,Single-ply,10
D,Open,M,75,,,240,,240,Dylan Price,MI,USA,Single-ply,7
D,Open,M,75,,,230,,230,Judd Sato III,HI,USA,Single-ply,8
D,Open,M,75,,,297.5,,297.5,Edwin Manmano,HI,USA,Single-ply,1
D,Open,M,75,,,287.5,,287.5,Anthony Alika Low,HI,USA,Single-ply,2
D,Open,M,75,,,227.5,,227.5,Alfredo Evangelista,OR,USA,Single-ply,9
D,Open,M,75,,,282.5,,282.5,Derrick Martini,WI,USA,Single-ply,3
D,Open,M,75,,,257.5,,257.5,Fulton White,NV,USA,Single-ply,4
D,Open,M,75,,,250,,250,Richard Cirigliano,CA,USA,Single-ply,5
D,Open,M,75,,,247.5,,247.5,Ryan Zukeran,HI,USA,Single-ply,6
D,Open,M,75,,,175,,175,Ray Padilla,CA,USA,Single-ply,11
D,Open,M,82.5,,,303,,303,Leamon Woodley,WA,USA,Single-ply,1
D,Open,M,82.5,,,250.5,,250.5,Gregory Kleyn,IL,USA,Single-ply,2
D,Open,M,82.5,,,240,,240,Paulo Alceu Duque Reis,,Brazil,Single-ply,3
D,Open,M,90,,,280,,280,Matt LaMarque,CA,USA,Single-ply,6
D,Open,M,90,,,352.5,,352.5,Romar Lagamo,HI,USA,Single-ply,1
D,Open,M,90,,,297.5,,297.5,Eddie DiFruscia,NH,USA,Single-ply,2
D,Open,M,90,,,297.5,,297.5,Jody Woods,CA,USA,Single-ply,3
D,Open,M,90,,,295,,295,Tom Eiseman,NJ,USA,Single-ply,4
D,Open,M,90,,,285,,285,Drew Burton,,Canada,Single-ply,5
D,Open,M,90,,,260,,260,Andy Munsey,WA,USA,Single-ply,7
D,Open,M,90,,,245,,245,Preston Quinn,WI,USA,Single-ply,8
D,Open,M,90,,,240.5,,240.5,Luis Fernando Meireles Dias,,Brazil,Single-ply,9
D,Open,M,100,,,305,,305,Al Bianchi,MA,USA,Single-ply,1
D,Open,M,100,,,295,,295,Ira Kekaualua,OR,USA,Single-ply,2
D,Open,M,100,,,280,,280,Miguel Chain Juniors,,Brazil,Single-ply,3
D,Open,M,100,,,272.5,,272.5,Christopher Calderon,TX,USA,Single-ply,4
D,Open,M,100,,,270,,270,Victor Luis Ramos Medeiros,,Brazil,Single-ply,5
D,Open,M,100,,,257.5,,257.5,Brady Hosley,UT,USA,Single-ply,6
D,Open,M,100,,,250,,250,Seppo Junttila,,Finland,Single-ply,7
D,Open,M,100,,,210,,210,Patrick Jankun,NY,USA,Single-ply,8
D,Open,M,110,,,267.5,,267.5,Zachary Holloway,NV,USA,Single-ply,7
D,Open,M,110,,,330,,330,Omar Antila,OR,USA,Single-ply,1
D,Open,M,110,,,320,,320,Evandro Casa Grande,,Brazil,Single-ply,2
D,Open,M,110,,,305,,305,Tim Sparkes,AZ,USA,Single-ply,3
D,Open,M,110,,,287.5,,287.5,Ryan Bobula,NV,USA,Single-ply,4
D,Open,M,110,,,272.5,,272.5,Robert Exum,CA,USA,Single-ply,5
D,Open,M,110,,,270,,270,Mike Desrosiers,AZ,USA,Single-ply,6
D,Open,M,110,,,250,,250,Marcelo Schneider,,Brazil,Single-ply,8
D,Open,M,110,,,220,240,220,Renan De Marchi Moreno,,Brazil,Single-ply,9
D,Open,M,110,,,212.5,,212.5,William G Caughey,UT,USA,Single-ply,10
D,Open,M,117.5,,,355,,355,Travis McCormick,OR,USA,Single-ply,1
D,Open,M,117.5,,,320,,320,Kari Pöntinen,,Finland,Single-ply,2
D,Open,M,117.5,,,300,,300,Alex Miqueloni Fracola,,Brazil,Single-ply,3
D,Open,M,117.5,,,245,,245,Paul Mercado,IL,USA,Single-ply,4
D,Open,M,125,,,375,,375,Patrick Holloway,AZ,USA,Single-ply,1
D,Open,M,125,,,345,,345,Colby Ballinger,CA,USA,Single-ply,2
D,Open,M,125,,,310,,310,Terry Putman,OK,USA,Single-ply,3
D,Open,M,125,,,287.5,,287.5,James Guffey,IL,USA,Single-ply,4
D,Open,M,125,,,265,,265,Bari Dar,NY,USA,Single-ply,5
D,Open,M,125,,,200,,200,Jani Toivo Kristian Ihalainen,,Finland,Single-ply,6
D,Open,M,140,,,320,,320,Dave Forstner,MI,USA,Single-ply,1
D,Open,M,140,,,255,,255,Thomas Guiney,OK,USA,Single-ply,2
D,Open,M,140,,,245,,245,Joe Mickelson,WA,USA,Single-ply,3
D,Open,M,140,,,237.5,,237.5,Kevin Krauss,NY,USA,Single-ply,4
D,Open,M,140+,,,330,,330,Andreas Ståhlberg,,Finland,Single-ply,1
D,Open,M,140+,,,312.5,,312.5,David Edgell,UT,USA,Single-ply,2
D,Special Olympian,M,82.5,,,165,,165,Dylan Kuehl,WA,USA,Single-ply,1
D,Submasters 33-39,M,56,,,145,,145,Vin Voeun,AZ,USA,Single-ply,1
D,Submasters 33-39,M,60,,,212.5,,212.5,Rodell Esteban,OR,USA,Single-ply,1
D,Submasters 33-39,M,60,,,205,213,205,Jonathan Rosete,OR,USA,Single-ply,2
D,Submasters 33-39,M,67.5,,,205,,205,Jason Arnold,CA,USA,Single-ply,1
D,Submasters 33-39,M,75,,,262.5,282.5,262.5,Ryan Snelling,MO,USA,Single-ply,1
D,Submasters 33-39,M,75,,,227.5,,227.5,Barry Kunkel,OR,USA,Single-ply,2
D,Submasters 33-39,M,82.5,,,250,,250,Ben Dehghan,WA,USA,Single-ply,1
D,Submasters 33-39,M,82.5,,,245,,245,Louie Morrison,ME,USA,Single-ply,2
D,Submasters 33-39,M,82.5,,,240,,240,Aaron Pina,CA,USA,Single-ply,3
D,Submasters 33-39,M,82.5,,,230,,230,Jackson Jones,WA,USA,Single-ply,4
D,Submasters 33-39,M,82.5,,,227.5,,227.5,Kyle Johnson #5,ME,USA,Single-ply,5
D,Submasters 33-39,M,82.5,,,205,,205,Chansey McKendrick,UT,USA,Single-ply,6
D,Submasters 33-39,M,90,,,192.5,,192.5,John Lisenbee,OK,USA,Single-ply,1
D,Submasters 33-39,M,100,,,295,,295,Ira Kekaualua,OR,USA,Single-ply,1
D,Submasters 33-39,M,100,,,280,,280,Miguel Chain Juniors,,Brazil,Single-ply,2
D,Submasters 33-39,M,100,,,200,,200,Jesse Gavin,MN,USA,Single-ply,3
D,Submasters 33-39,M,110,,,330,,330,Omar Antila,OR,USA,Single-ply,1
D,Submasters 33-39,M,110,,,275,,275,Nick Hosley,UT,USA,Single-ply,2
D,Submasters 33-39,M,110,,,185,,185,Aldon Tibbs,MN,USA,Single-ply,3
D,Submasters 33-39,M,117.5,,,355,,355,Travis McCormick,OR,USA,Single-ply,1
D,Submasters 33-39,M,117.5,,,260,,260,Jason Sacre,UT,USA,Single-ply,2
D,Submasters 33-39,M,117.5,,,215.5,,215.5,Adam Cummings,NY,USA,Single-ply,3
D,Submasters 33-39,M,125,,,287.5,,287.5,James Guffey,IL,USA,Single-ply,1
D,Submasters 33-39,M,125,,,200,,200,Jani Toivo Kristian Ihalainen,,Finland,Single-ply,2
D,Submasters 33-39,M,140,,,202.5,,202.5,Steven Schmidt,MN,USA,Single-ply,1
D,Teen 12-13,M,56,,,139,142.5,139,Cyrus Jumalon,HI,USA,Single-ply,1
D,Teen 12-13,M,90,,,137.5,,137.5,Broc Riskey,OR,USA,Single-ply,1
D,Teen 14-15,M,60,,,187.5,192.5,187.5,Mason Nakamura,OR,USA,Single-ply,1
D,Teen 14-15,M,75,,,185.5,,185.5,Michael Berrian,CO,USA,Single-ply,1
D,Teen 14-15,M,75,,,170,,170,Karter Brachear,IL,USA,Single-ply,2
D,Teen 14-15,M,90,,,192.5,,192.5,Antonio Waldorf,MN,USA,Single-ply,1
D,Teen 14-15,M,100,,,222.5,239,222.5,Wesley Luce,TX,USA,Single-ply,1
D,Teen 16-17,M,60,,,145,,145,Cesar Espinoza,TX,USA,Single-ply,1
D,Teen 16-17,M,67.5,,,160.5,,160.5,Brandon Stott,ID,USA,Single-ply,1
D,Teen 16-17,M,67.5,,,120,,120,Morris Matshoba,CO,USA,Single-ply,2
D,Teen 16-17,M,75,,,205,,205,Camyn Knox,TX,USA,Single-ply,1
D,Teen 16-17,M,75,,,170,,170,Giovanni Golgano,ME,USA,Single-ply,2
D,Teen 16-17,M,75,,,165,,165,Kyler Castano,WI,USA,Single-ply,3
D,Teen 16-17,M,90,,,215,,215,Liam Mehls,WI,USA,Single-ply,1
D,Teen 16-17,M,110,,,210,,210,Nathan Smith #2,WA,USA,Single-ply,1
D,Teen 16-17,M,110,,,195,,195,Austin Burgoyne,ME,USA,Single-ply,2
D,Teen 16-17,M,110,,,157.5,,157.5,Gabriel Moreno #3,CO,USA,Single-ply,3
D,Teen 16-17,M,117.5,,,175,,175,Jameson Jessup,CA,USA,Single-ply,1
D,Teen 18-19,M,44,,,107.5,,107.5,Michael Pearson,WA,USA,Single-ply,1
D,Teen 18-19,M,67.5,,,205,,205,Thomas Wilson,UT,USA,Single-ply,1
D,Teen 18-19,M,90,,,185,,185,Benjamin Mattick,CO,USA,Single-ply,2
D,Teen 18-19,M,90,,,227.5,,227.5,Joshua Maslag,NJ,USA,Single-ply,1
D,Teen 18-19,M,90,,,185,,185,Shohn O' Brien,CA,USA,Single-ply,3
D,Teen 18-19,M,100,,,237.5,,237.5,John Weis,CO,USA,Single-ply,1
D,Teen 18-19,M,100,,,200,,200,Amir Musavi,ME,USA,Single-ply,2
B,Class 1,M,67.5,125,,,,125,Dave Constantineau,WI,USA,Single-ply,1
B,Class 1,M,67.5,132.5,,,,132.5,Eli Huizar Zuniga,WA,USA,Multi-ply,1
B,Class 1,M,67.5,107.5,,,,107.5,Dee Vajgrt,CA,USA,Single-ply,2
B,Class 1,M,75,,,,,,Mark Laurel,CA,USA,Single-ply,DQ
B,Class 1,M,75,172.5,,,,172.5,Nick Buck,WI,USA,Single-ply,1
B,Class 1,M,75,85,,,,85,Matthew Collins #3,CA,USA,Single-ply,2
B,Class 1,M,75,150,,,,150,James Lin #2,WA,USA,Multi-ply,1
B,Class 1,M,82.5,,,,,,Aramiq Amirchian,AZ,USA,Single-ply,DQ
B,Class 1,M,82.5,177.5,,,,177.5,Russell Acantilado,HI,USA,Single-ply,1
B,Class 1,M,82.5,172.5,,,,172.5,Jackson Jones,WA,USA,Multi-ply,1
B,Class 1,M,82.5,165,,,,165,Scott Rickford,MN,USA,Single-ply,2
B,Class 1,M,82.5,155,,,,155,Shawn Oliphant,OR,USA,Single-ply,3
B,Class 1,M,82.5,152.5,,,,152.5,Scott Jividen,NV,USA,Single-ply,4
B,Class 1,M,82.5,142.5,,,,142.5,Dylan Kuehl,WA,USA,Single-ply,5
B,Class 1,M,90,227.5,,,,227.5,Ryan Marble,UT,USA,Single-ply,1
B,Class 1,M,90,167.5,,,,167.5,Patrick Rocha,TX,USA,Multi-ply,1
B,Class 1,M,90,220.5,,,,220.5,Michael Diaz,OR,USA,Single-ply,2
B,Class 1,M,90,142.5,,,,142.5,Derek Kumagai,WA,USA,Multi-ply,2
B,Class 1,M,90,185,,,,185,Preston Quinn,WI,USA,Single-ply,3
B,Class 1,M,90,95,,,,95,Roderick Roback,MN,USA,Single-ply,4
B,Class 1,M,100,182.5,,,,182.5,Daniel Libre,WA,USA,Single-ply,3
B,Class 1,M,100,,,,,,George Merrill,OR,USA,Multi-ply,DQ
B,Class 1,M,100,200,,,,200,Uepati Tauti,OR,USA,Single-ply,1
B,Class 1,M,100,197.5,,,,197.5,Steven Kaufman,TX,USA,Multi-ply,1
B,Class 1,M,100,192.5,,,,192.5,Samuel Swift,TX,USA,Single-ply,2
B,Class 1,M,100,172.5,,,,172.5,Kyle Herzik,NV,USA,Single-ply,4
B,Class 1,M,100,172.5,,,,172.5,Ira Kekaualua,OR,USA,Single-ply,5
B,Class 1,M,100,145,,,,145,Kevin Trangone,NJ,USA,Single-ply,6
B,Class 1,M,110,200,,,,200,Paul De Angelis,WI,USA,Single-ply,1
B,Class 1,M,110,147.5,,,,147.5,Don Okami,NV,USA,Single-ply,3
B,Class 1,M,110,250,,,,250,Ulrich Zamora,NV,USA,Multi-ply,1
B,Class 1,M,110,187.5,,,,187.5,David Palmer,ME,USA,Single-ply,2
B,Class 1,M,117.5,205,,,,205,Gregory Brown,TX,USA,Multi-ply,1
B,Class 1,M,117.5,165,,,,165,Isaac Conde,TX,USA,Single-ply,1
B,Class 1,M,117.5,145,,,,145,Reynold Ines,NV,USA,Multi-ply,2
B,Class 1,M,125,260,,,,260,Colby Ballinger,CA,USA,Multi-ply,1
B,Class 1,M,125,248,,,,248,Kenny Rodriguez,CA,USA,Single-ply,1
B,Class 1,M,125,215,,,,215,Jeremy Donnelly,AZ,USA,Single-ply,2
B,Class 1,M,140,210,,,,210,James Welsh,PA,USA,Single-ply,1
B,Class 1,M,140+,162.5,,,,162.5,Adam Jakircevic,WI,USA,Single-ply,1
B,Class 1,M,140+,130,,,,130,Keith Sayles,TX,USA,Multi-ply,1
B,Disabled 1 20-39,M,67.5,120,121.5,,,120,Matthew Holling,OR,USA,Single-ply,1
B,Disabled 1 20-39,M,82.5,106.5,,,,106.5,Keith Stich,PA,USA,Single-ply,1
B,Disabled 1 20-39,M,100,152.5,,,,152.5,Brad Vinyard,IL,USA,Single-ply,1
B,Disabled 1 20-39,M,110,130,,,,130,Matthew Ross,OR,USA,Single-ply,1
B,Disabled 1 20-39,M,125,160,,,,160,Omar Avila,TX,USA,Single-ply,1
B,Disabled 1 40-59,M,82.5,165,,,,165,Scott Rickford,MN,USA,Single-ply,1
B,Disabled 1 40-59,M,110,110,,,,110,Seth Reardon,ME,USA,Single-ply,1
B,Disabled 2 13-19,M,67.5,40,42.5,,,40,Tanner Deck,WA,USA,Single-ply,1
B,Disabled 2 13-19,M,90,97.5,,,,97.5,Nathaniel Baker #2,WA,USA,Single-ply,1
B,Disabled 2 13-19,M,110,120,,,,120,Austin Burgoyne,ME,USA,Single-ply,1
B,Disabled 2 20-39,M,48,55,57.5,,,55,Todd Moore,,Canada,Single-ply,1
B,Disabled 2 20-39,M,75,105,,,,105,Chad McFarland,OR,USA,Single-ply,1
B,Disabled 2 20-39,M,100,105,105.5,,,105,James Clifford,,Canada,Single-ply,1
B,Disabled 2 20-39,M,117.5,195,,,,195,Matthew Keating,TX,USA,Single-ply,1
B,Disabled 2 20-39,M,125,187.5,,,,187.5,Brady Tanner,KS,USA,Single-ply,1
B,Disabled 2 40-59,M,82.5,162.5,,,,162.5,Mark Lo,HI,USA,Single-ply,1
B,Disabled 2 40-59,M,82.5,120,,,,120,Vilmar Oliveira,,Brazil,Single-ply,2
B,Disabled 2 40-59,M,100,140,,,,140,Duane Burlingame,IL,USA,Single-ply,1
B,Disabled 2 40-59,M,110,155,,,,155,Cody Colchado,TX,USA,Single-ply,3
B,Disabled 2 40-59,M,110,250,,,,250,James Noblit,OR,USA,Single-ply,1
B,Disabled 2 40-59,M,110,237.5,,,,237.5,Steve Peña #1,CA,USA,Single-ply,2
B,Disabled 2 60,M,82.5,110,,,,110,Richard Hagedorn,AL,USA,Single-ply,1
B,Disabled 2 60,M,100,138,,,,138,Scott Dolan,CA,USA,Single-ply,1
B,Disabled 2 60,M,110,137.5,,,,137.5,Bob Brodt,WI,USA,Single-ply,1
B,Disabled 2 60,M,110,107.5,,,,107.5,Bill Starkey,CA,USA,Single-ply,2
B,Disabled 2 60,M,110,97.5,,,,97.5,Samuel Kaanapu,CA,USA,Single-ply,3
B,Disabled 2 60,M,125,,,,,,Serafim Rocha,,Brazil,Single-ply,DQ
B,Disabled 2 60,M,140+,87.5,,,,87.5,JP Krachunis,CA,USA,Single-ply,1
B,Elite Open,M,67.5,235,,,,235,Donald Ramil,HI,USA,Single-ply,1
B,Elite Open,M,125,,,,,,Tommy Harrison,IL,USA,Single-ply,DQ
B,Juniors 20-25,M,67.5,165,,,,165,Dinesh Mangra,NY,USA,Multi-ply,1
B,Juniors 20-25,M,67.5,147.5,,,,147.5,Brandon Presto,NV,USA,Single-ply,1
B,Juniors 20-25,M,67.5,140,,,,140,Joshua Sisneros,CA,USA,Single-ply,2
B,Juniors 20-25,M,67.5,140,,,,140,Trevor Banaszak,TX,USA,Single-ply,3
B,Juniors 20-25,M,67.5,125,,,,125,Josh Hicks,WI,USA,Single-ply,4
B,Juniors 20-25,M,75,197.5,,,,197.5,Judd Sato III,HI,USA,Single-ply,1
B,Juniors 20-25,M,75,,,,,,Daniel Sisneros,CA,USA,Single-ply,DQ
B,Juniors 20-25,M,75,167.5,,,,167.5,Daniel Elnaggar,CA,USA,Single-ply,2
B,Juniors 20-25,M,75,142.5,,,,142.5,Dylan Price,MI,USA,Single-ply,3
B,Juniors 20-25,M,82.5,152.5,,,,152.5,Ryne Golesh,CO,USA,Single-ply,2
B,Juniors 20-25,M,82.5,195,,,,195,Jacob Rogers,OK,USA,Single-ply,1
B,Juniors 20-25,M,82.5,152.5,,,,152.5,Scott Jividen,NV,USA,Single-ply,3
B,Juniors 20-25,M,82.5,127.5,,,,127.5,Andrew Vickery,CA,USA,Single-ply,4
B,Juniors 20-25,M,82.5,115,,,,115,Trever Phillips,NV,USA,Single-ply,5
B,Juniors 20-25,M,90,200,,,,200,Kamalei Benjamin-Maielua,HI,USA,Single-ply,3
B,Juniors 20-25,M,90,205,,,,205,Edgar Garcia Sierra,OR,USA,Single-ply,1
B,Juniors 20-25,M,90,177.5,,,,177.5,Zachary Marquez,WA,USA,Single-ply,4
B,Juniors 20-25,M,90,202.5,,,,202.5,Stefan Green,WA,USA,Single-ply,2
B,Juniors 20-25,M,100,245,,,,245,Seppo Junttila,,Finland,Single-ply,1
B,Juniors 20-25,M,100,165,,,,165,Victor Luis Ramos Medeiros,,Brazil,Single-ply,3
B,Juniors 20-25,M,100,242.5,,,,242.5,Tyler Carlson,MT,USA,Single-ply,2
B,Juniors 20-25,M,110,,,,,,Joshua Winterrowd,MT,USA,Single-ply,DQ
B,Juniors 20-25,M,110,250,,,,250,Renan De Marchi Moreno,,Brazil,Single-ply,1
B,Juniors 20-25,M,110,295,,,,295,Seth Reed,ME,USA,Multi-ply,1
B,Juniors 20-25,M,110,102.5,,,,102.5,Zac Wenzel,OK,USA,Multi-ply,2
B,Juniors 20-25,M,117.5,100,,,,100,Alex Miqueloni Fracola,,Brazil,Single-ply,2
B,Juniors 20-25,M,117.5,260,,,,260,Pauli Peltonen,,Finland,Multi-ply,1
B,Juniors 20-25,M,117.5,227.5,,,,227.5,Anthony Rangel,OR,USA,Single-ply,1
B,Juniors 20-25,M,125,260,,,,260,Colby Ballinger,CA,USA,Multi-ply,1
B,Juniors 20-25,M,125,120,,,,120,Kyle Mitchell,CA,USA,Single-ply,1
B,Juniors 20-25,M,140+,215,,,,215,Andreas Ståhlberg,,Finland,Single-ply,1
B,Law-Fire 40-47,M,100,,,,,,Frank Wakakuwa,NV,USA,Multi-ply,DQ
B,Law-Fire 40-47,M,117.5,220,,,,220,Flip Silva,TX,USA,Multi-ply,1
B,Law-Fire 40-47,M,125,,,,,,Tommy Harrison,IL,USA,Single-ply,DQ
B,Law-Fire 40-47,M,125,175,,,,175,Bobby Gray,CA,USA,Single-ply,1
B,Law-Fire 40-47,M,140+,282.5,,,,282.5,Keoni Reich,HI,USA,Single-ply,1
B,Law-Fire 40-47,M,140+,230,,,,230,Warren Orr,,Canada,Single-ply,2
B,Law-Fire 48-55,M,90,162.5,,,,162.5,Luis Fernando Meireles Dias,,Brazil,Single-ply,1
B,Law-Fire 48-55,M,100,247.5,,,,247.5,Joe Gardner,IL,USA,Single-ply,1
B,Law-Fire 48-55,M,100,215,,,,215,Gary McFarland,CA,USA,Single-ply,2
B,Law-Fire 48-55,M,100,147.5,,,,147.5,James Combs,MT,USA,Single-ply,3
B,Law-Fire 48-55,M,125,185,,,,185,Eric Jones,MI,USA,Single-ply,3
B,Law-Fire 48-55,M,125,265,278,,,265,Darren Kaleleiki,HI,USA,Single-ply,1
B,Law-Fire 48-55,M,125,205.5,,,,205.5,Jay Simmons,TX,USA,Single-ply,2
B,Law-Fire 48-55,F,56,42.5,,,,42.5,Patricia Fong,IL,USA,Single-ply,1
B,Law-Fire 56-63,M,67.5,150,,,,150,Gary Miller #2,NV,USA,Single-ply,1
B,Law-Fire 56-63,M,100,185,,,,185,William Denniston,MI,USA,Single-ply,1
B,Law-Fire 56-63,M,110,250,,,,250,Mike Frizzell,IL,USA,Single-ply,1
B,Law-Fire 56-63,M,117.5,161,,,,161,Manny Burruel,CA,USA,Multi-ply,1
B,Law-Fire 56-63,M,125,142.5,,,,142.5,Don Bryant,WA,USA,Single-ply,1
B,Law-Fire 56-63,M,125,125,,,,125,Michal Johnson,CA,USA,Multi-ply,1
B,Law-Fire 64+,M,82.5,107.5,,,,107.5,James Rouse,IL,USA,Single-ply,1
B,Law-Fire 64+,M,100,170,172.5,,,170,Jon Wolbers,,Canada,Multi-ply,1
B,Law-Fire 64+,M,117.5,160,,,,160,Ed Acey,UT,USA,Multi-ply,1
B,Law-Fire 64+,M,140+,87.5,,,,87.5,JP Krachunis,CA,USA,Single-ply,1
B,Law-Fire 64+,F,82.5,73,,,,73,Pam Carter,AZ,USA,Single-ply,2
B,Law-Fire Open,M,67.5,132.5,,,,132.5,Eli Huizar Zuniga,WA,USA,Multi-ply,1
B,Law-Fire Open,M,82.5,167.5,,,,167.5,Jeffrey Short,NV,USA,Single-ply,1
B,Law-Fire Open,M,90,257.5,,,,257.5,Richard Derengowski,IL,USA,Single-ply,1
B,Law-Fire Open,M,90,200,,,,200,Darren Carr,UT,USA,Single-ply,2
B,Law-Fire Open,M,100,,,,,,Gary McFarland,CA,USA,Single-ply,DQ
B,Law-Fire Open,M,117.5,220,,,,220,Flip Silva,TX,USA,Multi-ply,1
B,Law-Fire Open,M,125,265,278,,,265,Darren Kaleleiki,HI,USA,Single-ply,1
B,Law-Fire Open,M,140,,,,,,Hiram Kaikaina,HI,USA,Multi-ply,DQ
B,Law-Fire Open,M,140,220,,,,220,Brian Vickers,CA,USA,Single-ply,1
B,Law-Fire Open,M,140,210,,,,210,James Welsh,PA,USA,Single-ply,2
B,Law-Fire Submasters,M,90,145.5,,,,145.5,Dave Claroni,ME,USA,Single-ply,1
B,Law-Fire Submasters,M,100,272.5,300,,,272.5,Chad Bertelmann,HI,USA,Multi-ply,1
B,Law-Fire Submasters,M,100,182.5,,,,182.5,Nick Berriman,OR,USA,Multi-ply,2
B,Law-Fire Submasters,M,110,237.5,,,,237.5,Darryl Zuchelli,AL,USA,Single-ply,1
B,Law-Fire Submasters,M,140,,,,,,Hiram Kaikaina,HI,USA,Multi-ply,DQ
B,Law-Fire Submasters,M,140,220,,,,220,Brian Vickers,CA,USA,Single-ply,1
B,Masters 40-46,M,67.5,235,,,,235,Donald Ramil,HI,USA,Single-ply,1
B,Masters 40-46,M,75,,,,,,David R Smith,TX,USA,Single-ply,DQ
B,Masters 40-46,M,75,150,,,,150,James Lin #2,WA,USA,Multi-ply,1
B,Masters 40-46,M,82.5,250,,,,250,Valentino Plummer,OR,USA,Single-ply,1
B,Masters 40-46,M,82.5,132.5,,,,132.5,Greg Huerta,TX,USA,Single-ply,2
B,Masters 40-46,M,90,267.5,,,,267.5,Matt LaMarque,CA,USA,Single-ply,1
B,Masters 40-46,M,90,220,,,,220,Kim Päivöke,,Finland,Single-ply,2
B,Masters 40-46,M,90,172.5,,,,172.5,Robert Miller #6,TX,USA,Single-ply,3
B,Masters 40-46,M,100,,,,,,Charles Farmer,MT,USA,Single-ply,DQ
B,Masters 40-46,M,100,,,,,,Frank Wakakuwa,NV,USA,Multi-ply,DQ
B,Masters 40-46,M,100,157.5,,,,157.5,Brian Fahrenfeld,NY,USA,Single-ply,1
B,Masters 40-46,M,100,150,,,,150,Severino Clementino Vitorio Filho,,Brazil,Single-ply,2
B,Masters 40-46,M,110,,,,,,Mike Desrosiers,AZ,USA,Single-ply,DQ
B,Masters 40-46,M,110,257.5,,,,257.5,Brant Bishop,AL,USA,Multi-ply,1
B,Masters 40-46,M,110,333,,,,333,Rob Golgano,ME,USA,Single-ply,1
B,Masters 40-46,M,110,200,,,,200,Paul De Angelis,WI,USA,Single-ply,2
B,Masters 40-46,M,117.5,,,,,,Troy Chun,OR,USA,Single-ply,DQ
B,Masters 40-46,M,117.5,328.5,333.5,,,328.5,James Hunter,CA,USA,Single-ply,1
B,Masters 40-46,M,117.5,155,,,,155,Reynold Ines,NV,USA,Multi-ply,1
B,Masters 40-46,M,117.5,162.5,,,,162.5,Chris Johnson #4,WA,USA,Single-ply,4
B,Masters 40-46,M,117.5,257.5,,,,257.5,John Johnson,MI,USA,Single-ply,2
B,Masters 40-46,M,117.5,193.5,,,,193.5,Allen Heisler,MT,USA,Single-ply,3
B,Masters 40-46,M,125,320,,,,320,Joey Murphy,GA,USA,Single-ply,1
B,Masters 40-46,M,125,222.5,,,,222.5,Guy Powell,WI,USA,Single-ply,2
B,Masters 40-46,M,125,175,,,,175,Bobby Gray,CA,USA,Single-ply,3
B,Masters 40-46,M,140,292.5,,,,292.5,Dave Forstner,MI,USA,Single-ply,1
B,Masters 40-46,M,140,245,,,,245,Jeremiah Johnson #3,UT,USA,Multi-ply,1
B,Masters 40-46,M,140,150,,,,150,Kevin Krauss,NY,USA,Single-ply,2
B,Masters 40-46,M,140+,280,,,,280,Scott Bromeisl,WI,USA,Single-ply,2
B,Masters 40-46,M,140+,,,,,,Tiny Meeker,TX,USA,Multi-ply,DQ
B,Masters 40-46,M,140+,282.5,,,,282.5,Keoni Reich,HI,USA,Single-ply,1
B,Masters 47-53,M,67.5,,,,,,Charles Venturella,PA,USA,Multi-ply,DQ
B,Masters 47-53,M,75,,,,,,Mark Laurel,CA,USA,Single-ply,DQ
B,Masters 47-53,M,75,132.5,,,,132.5,Keith Cunningham,WA,USA,Multi-ply,1
B,Masters 47-53,M,75,165,,,,165,Kenny Lyons,ID,USA,Single-ply,1
B,Masters 47-53,M,82.5,,,,,,Keith Daniels,HI,USA,Single-ply,DQ
B,Masters 47-53,M,82.5,,,,,,Fil Dena III,NV,USA,Single-ply,DQ
B,Masters 47-53,M,82.5,177.5,,,,177.5,Ron Garofalo,CO,USA,Single-ply,1
B,Masters 47-53,M,90,207.5,,,,207.5,Russ Clark,CO,USA,Single-ply,3
B,Masters 47-53,M,90,,,,,,Michael Collins #5,CA,USA,Multi-ply,DQ
B,Masters 47-53,M,90,,,,,,Joel Korotkin,CA,USA,Single-ply,DQ
B,Masters 47-53,M,90,147.5,,,,147.5,Telford Allen,ME,USA,Single-ply,5
B,Masters 47-53,M,90,237.5,,,,237.5,Tony Coduto,IL,USA,Single-ply,1
B,Masters 47-53,M,90,182.5,,,,182.5,Patrick Rocha,TX,USA,Multi-ply,1
B,Masters 47-53,M,90,140,,,,140,David Franke,NV,USA,Multi-ply,2
B,Masters 47-53,M,90,227.5,,,,227.5,Jeff Woods,OH,USA,Single-ply,2
B,Masters 47-53,M,90,165,,,,165,Dave Shockman,OR,USA,Single-ply,4
B,Masters 47-53,M,100,205,,,,205,Gary Gulseth,WI,USA,Single-ply,2
B,Masters 47-53,M,100,,,,,,George Merrill,OR,USA,Multi-ply,DQ
B,Masters 47-53,M,100,,,,,,Kenneth Millrany,TN,USA,Multi-ply,DQ
B,Masters 47-53,M,100,,,,,,Steven Petersen,TX,USA,Single-ply,DQ
B,Masters 47-53,M,100,220,,,,220,Juha Pukkila,,Finland,Single-ply,1
B,Masters 47-53,M,100,202.5,,,,202.5,John Westleigh,ME,USA,Single-ply,3
B,Masters 47-53,M,100,152.5,,,,152.5,James Combs,MT,USA,Single-ply,4
B,Masters 47-53,M,110,155,,,,155,Cody Colchado,TX,USA,Single-ply,4
B,Masters 47-53,M,110,,,,,,Michael Neely,MT,USA,Single-ply,DQ
B,Masters 47-53,M,110,250,,,,250,James Noblit,OR,USA,Single-ply,1
B,Masters 47-53,M,110,180,,,,180,Marcelo Schneider,,Brazil,Single-ply,3
B,Masters 47-53,M,110,187.5,,,,187.5,David Palmer,ME,USA,Single-ply,2
B,Masters 47-53,M,110,147.5,,,,147.5,Ron Garcia,CA,USA,Single-ply,5
B,Masters 47-53,M,117.5,187.5,,,,187.5,Dave Sickler,WI,USA,Single-ply,1
B,Masters 47-53,M,125,,,,,,Tim Moon,GA,USA,Single-ply,DQ
B,Masters 47-53,M,125,185,,,,185,Eric Jones,MI,USA,Single-ply,2
B,Masters 47-53,M,125,207.5,,,,207.5,Rich Ludlam,CA,USA,Single-ply,1
B,Masters 47-53,M,140,,,,,,John Stewart,TX,USA,Single-ply,DQ
B,Masters 47-53,M,140,317.5,,,,317.5,Bill Welch,TN,USA,Single-ply,1
B,Masters 47-53,M,140+,,,,,,Eddie Aleaga,WA,USA,Single-ply,DQ
B,Masters 47-53,M,140+,230,,,,230,Warren Orr,,Canada,Single-ply,1
B,Masters 47-53,M,140+,295,,,,295,Gary Shim,HI,USA,Multi-ply,1
B,Masters 54-60,M,60,105,,,,105,Chetram Mangra,NY,USA,Single-ply,1
B,Masters 54-60,M,67.5,125,,,,125,Dave Constantineau,WI,USA,Single-ply,1
B,Masters 54-60,M,67.5,107.5,,,,107.5,Dee Vajgrt,CA,USA,Single-ply,2
B,Masters 54-60,M,75,,,,,,Alfredo Evangelista,OR,USA,Single-ply,DQ
B,Masters 54-60,M,75,157.5,,,,157.5,Fulton White,NV,USA,Single-ply,1
B,Masters 54-60,M,75,120,,,,120,Dennis Lambard,AZ,USA,Single-ply,2
B,Masters 54-60,M,82.5,162.5,,,,162.5,Mark Lo,HI,USA,Single-ply,1
B,Masters 54-60,M,82.5,155,,,,155,Leamon Woodley,WA,USA,Single-ply,2
B,Masters 54-60,M,90,,,,,,Byron Beebe,OR,USA,Multi-ply,DQ
B,Masters 54-60,M,90,,,,,,John Pastorius,OH,USA,Single-ply,DQ
B,Masters 54-60,M,90,217.5,,,,217.5,Jody Woods,CA,USA,Single-ply,1
B,Masters 54-60,M,90,215,,,,215,Bob Levering,CA,USA,Single-ply,2
B,Masters 54-60,M,90,172.5,,,,172.5,Ernest Reyes,UT,USA,Single-ply,3
B,Masters 54-60,M,90,167.5,,,,167.5,Tim Epting,TX,USA,Single-ply,4
B,Masters 54-60,M,90,155,,,,155,Darrell Horn,MI,USA,Single-ply,5
B,Masters 54-60,M,90,95,,,,95,Craig Gustafson,NV,USA,Single-ply,6
B,Masters 54-60,M,100,140,,,,140,Duane Burlingame,IL,USA,Single-ply,1
B,Masters 54-60,M,100,100,,,,100,Gene A Wenzel,OH,USA,Single-ply,3
B,Masters 54-60,M,100,135,,,,135,Jim Curley,CO,USA,Single-ply,2
B,Masters 54-60,M,110,207.5,,,,207.5,Jason Julian,CO,USA,Single-ply,3
B,Masters 54-60,M,110,80,,,,80,William B Caughey,UT,USA,Multi-ply,1
B,Masters 54-60,M,110,265,,,,265,Ed Macauley,OR,USA,Single-ply,1
B,Masters 54-60,M,110,140,,,,140,Mark Vainas,MA,USA,Single-ply,4
B,Masters 54-60,M,110,250,,,,250,Mike Frizzell,IL,USA,Single-ply,2
B,Masters 54-60,M,125,310,,,,310,Willard Crossen Jr,WA,USA,Single-ply,1
B,Masters 54-60,M,125,137.5,,,,137.5,Ted Stewart,NV,USA,Single-ply,2
B,Masters 54-60,M,140,237.5,,,,237.5,Joe Mickelson,WA,USA,Single-ply,1
B,Masters 54-60,M,140,200,,,,200,Robert Jackson,TX,USA,Single-ply,2
B,Masters 54-60,M,140,170,,,,170,Gary Gertner,CO,USA,Single-ply,3
B,Masters 54-60,M,140+,130,,,,130,Keith Sayles,TX,USA,Multi-ply,1
B,Masters 61-67,M,67.5,150,,,,150,Gary Miller #2,NV,USA,Single-ply,1
B,Masters 61-67,M,75,145,,,,145,Robert Dye,OH,USA,Single-ply,1
B,Masters 61-67,M,75,105,,,,105,Dave Higgins,MN,USA,Single-ply,2
B,Masters 61-67,M,82.5,,,,,,G. Jeffery Thornton,AZ,USA,Single-ply,DQ
B,Masters 61-67,M,82.5,95,,,,95,Joseph Frawley,AZ,USA,Single-ply,3
B,Masters 61-67,M,82.5,137.5,,,,137.5,Barry Murphy,CA,USA,Single-ply,1
B,Masters 61-67,M,82.5,172.5,,,,172.5,Perry Plush,WA,USA,Multi-ply,1
B,Masters 61-67,M,82.5,110,,,,110,Richard Hagedorn,AL,USA,Single-ply,2
B,Masters 61-67,M,100,130,,,,130,Kevin Farber,FL,USA,Single-ply,3
B,Masters 61-67,M,100,212.5,,,,212.5,Dan Swift,IL,USA,Single-ply,1
B,Masters 61-67,M,100,150,,,,150,Charles Folinus,AZ,USA,Single-ply,2
B,Masters 61-67,M,110,137.5,,,,137.5,Bob Brodt,WI,USA,Single-ply,1
B,Masters 61-67,M,140,160,,,,160,Larry Riskey,OR,USA,Single-ply,1
B,Masters 68-74,M,56,87.5,,,,87.5,Gary Nye Schwebs,NV,USA,Single-ply,1
B,Masters 68-74,M,60,122.5,125,,,122.5,Bryan Yager,CA,USA,Single-ply,1
B,Masters 68-74,M,60,75,,,,75,Skip Schacher,MT,USA,Single-ply,2
B,Masters 68-74,M,75,115,,,,115,Stefan Lemire,UT,USA,Single-ply,1
B,Masters 68-74,M,75,115,,,,115,Gary Witzel,WA,USA,Multi-ply,1
B,Masters 68-74,M,75,60,,,,60,Raymond Katayama,HI,USA,Single-ply,2
B,Masters 68-74,M,82.5,132.5,,,,132.5,Ed Angstrom,IA,USA,Single-ply,2
B,Masters 68-74,M,82.5,142.5,,,,142.5,Michael Minietta,NV,USA,Single-ply,1
B,Masters 68-74,M,82.5,106.5,,,,106.5,Arnold Pereza,HI,USA,Multi-ply,1
B,Masters 68-74,M,82.5,125,,,,125,Bill Stoner,MI,USA,Single-ply,3
B,Masters 68-74,M,82.5,108,,,,108,Robert Batko,MI,USA,Single-ply,4
B,Masters 68-74,M,82.5,105,,,,105,Earle Conway,AZ,USA,Single-ply,5
B,Masters 68-74,M,82.5,100,,,,100,Tom Haggenmiller,MN,USA,Single-ply,6
B,Masters 68-74,M,90,147.5,150,,,147.5,Daniel Hofeditz,AZ,USA,Multi-ply,1
B,Masters 68-74,M,90,141.5,,,,141.5,Alfred Franke,NV,USA,Multi-ply,2
B,Masters 68-74,M,100,156,,,,156,Al Williamson,WI,USA,Single-ply,1
B,Masters 68-74,M,110,160,,,,160,Daniel Smith III,CA,USA,Single-ply,1
B,Masters 68-74,M,110,102.5,,,,102.5,Ed Marshall,AZ,USA,Single-ply,2
B,Masters 68-74,M,117.5,160,,,,160,Ed Acey,UT,USA,Multi-ply,1
B,Masters 75-79,M,60,100,,,,100,Precious McKenzie,,New Zealand,Raw,1
B,Masters 75-79,M,82.5,135,,,,135,William Prince,NV,USA,Multi-ply,1
B,Masters 75-79,M,90,57.5,,,,57.5,Ronald Ford,CA,USA,Single-ply,2
B,Masters 75-79,M,90,102.5,,,,102.5,John Herbein,PA,USA,Single-ply,1
B,Masters 75-79,M,100,130,,,,130,Johnny Yong,FL,USA,Single-ply,1
B,Masters 75-79,M,100,120,,,,120,Fredrick Shubayev,IL,USA,Single-ply,2
B,Masters 80-84,M,56,35,37.5,,,35,Gee-Sing Goo,HI,USA,Single-ply,1
B,Masters 80-84,M,75,95,,,,95,Bill Tinkler,FL,USA,Single-ply,2
B,Masters 80-84,M,75,110,125,,,110,Gerald Campbell,TX,USA,Single-ply,1
B,Masters 80-84,M,75,72.5,,,,72.5,Charles Vause,GA,USA,Single-ply,3
B,Masters 80-84,M,82.5,42.5,,,,42.5,David Boyes,LA,USA,Single-ply,2
B,Masters 80-84,M,82.5,95.5,,,,95.5,John McEwen,CA,USA,Single-ply,1
B,Masters 80-84,M,100,87.5,,,,87.5,Russell Combest,OH,USA,Single-ply,1
B,Masters 85-89,M,82.5,60,,,,60,Nixon Munly,OR,USA,Single-ply,1
B,Masters 85-89,M,90,70,,,,70,James Weiss,CA,USA,Single-ply,1
B,Masters 85-89,M,110,112.5,115,,,112.5,Walter Richter,AZ,USA,Single-ply,1
B,Masters 85-89,M,110,48.5,,,,48.5,Dale Oleson,CA,USA,Single-ply,2
B,Masters 90,M,90,55,,,,55,Rodney Graves,NV,USA,Single-ply,1
B,Open,M,60,140,,,,140,Jonathan Rosete,OR,USA,Single-ply,1
B,Open,M,67.5,,,,,,Charles Venturella,PA,USA,Multi-ply,DQ
B,Open,M,67.5,165,,,,165,Jason Arnold,CA,USA,Single-ply,1
B,Open,M,75,112.5,,,,112.5,Connor Fuqua,CO,USA,Single-ply,4
B,Open,M,75,142.5,,,,142.5,Dylan Price,MI,USA,Single-ply,3
B,Open,M,75,197.5,,,,197.5,Judd Sato III,HI,USA,Single-ply,2
B,Open,M,75,,,,,,Alfredo Evangelista,OR,USA,Single-ply,DQ
B,Open,M,75,,,,,,Andy Kaszubski,WI,USA,Single-ply,DQ
B,Open,M,75,,,,,,David R Smith,TX,USA,Single-ply,DQ
B,Open,M,75,215,,,,215,Willard Crossen III,WA,USA,Single-ply,1
B,Open,M,82.5,,,,,,Fil Dena III,NV,USA,Single-ply,DQ
B,Open,M,82.5,,,,,,Greg Huerta,TX,USA,Single-ply,DQ
B,Open,M,82.5,125,,,,125,Paulo Alceu Duque Reis,,Brazil,Single-ply,2
B,Open,M,82.5,195,,,,195,Jacob Rogers,OK,USA,Single-ply,1
B,Open,M,90,267.5,,,,267.5,Matt LaMarque,CA,USA,Single-ply,1
B,Open,M,90,247.5,,,,247.5,Leonard Chong,HI,USA,Single-ply,2
B,Open,M,90,237.5,,,,237.5,Tony Coduto,IL,USA,Single-ply,3
B,Open,M,90,220,,,,220,Michael Diaz,OR,USA,Single-ply,4
B,Open,M,90,220,,,,220,Kim Päivöke,,Finland,Single-ply,5
B,Open,M,90,217.5,,,,217.5,Jody Woods,CA,USA,Single-ply,6
B,Open,M,90,185,,,,185,Preston Quinn,WI,USA,Single-ply,7
B,Open,M,90,162.5,,,,162.5,Luis Fernando Meireles Dias,,Brazil,Single-ply,8
B,Open,M,100,80,,,,80,Miguel Chain Juniors,,Brazil,Single-ply,6
B,Open,M,100,282.5,,,,282.5,Kenneth Millrany,TN,USA,Multi-ply,1
B,Open,M,100,165,,,,165,Victor Luis Ramos Medeiros,,Brazil,Single-ply,4
B,Open,M,100,262.5,,,,262.5,Coby Washburn,TX,USA,Single-ply,1
B,Open,M,100,245,,,,245,Seppo Junttila,,Finland,Single-ply,2
B,Open,M,100,150,,,,150,Severino Clementino Vitorio Filho,,Brazil,Single-ply,5
B,Open,M,100,220,,,,220,Juha Pukkila,,Finland,Single-ply,3
B,Open,M,110,,,,,,Ulrich Zamora,NV,USA,Multi-ply,DQ
B,Open,M,110,257.5,,,,257.5,Brant Bishop,AL,USA,Multi-ply,1
B,Open,M,110,333,,,,333,Rob Golgano,ME,USA,Single-ply,1
B,Open,M,110,180,,,,180,Marcelo Schneider,,Brazil,Single-ply,4
B,Open,M,110,80,,,,80,William B Caughey,UT,USA,Multi-ply,2
B,Open,M,110,251,,,,251,Mike Desrosiers,AZ,USA,Single-ply,2
B,Open,M,110,250,,,,250,Renan De Marchi Moreno,,Brazil,Single-ply,3
B,Open,M,110,175,,,,175,Ryan Bobula,NV,USA,Single-ply,5
B,Open,M,110,167.5,,,,167.5,Zachary Holloway,NV,USA,Single-ply,6
B,Open,M,117.5,,,,,,Troy Chun,OR,USA,Single-ply,DQ
B,Open,M,117.5,328.5,,,,328.5,James Hunter,CA,USA,Single-ply,1
B,Open,M,117.5,100,,,,100,Alex Miqueloni Fracola,,Brazil,Single-ply,2
B,Open,M,125,,,,,,James Guffey,IL,USA,Multi-ply,DQ
B,Open,M,125,200,,,,200,Jani Toivo Kristian Ihalainen,,Finland,Multi-ply,1
B,Open,M,125,330,,,,330,Tim Moon,GA,USA,Single-ply,1
B,Open,M,125,320,,,,320,Joey Murphy,GA,USA,Single-ply,2
B,Open,M,125,310,,,,310,Willard Crossen Jr,WA,USA,Single-ply,3
B,Open,M,140,292.5,,,,292.5,Dave Forstner,MI,USA,Single-ply,2
B,Open,M,140,,,,,,Arthur Tupuola,HI,USA,Single-ply,DQ
B,Open,M,140,,,,,,Tristen Zumwalt,OR,USA,Single-ply,DQ
B,Open,M,140,150,,,,150,Kevin Krauss,NY,USA,Single-ply,4
B,Open,M,140,317.5,,,,317.5,Bill Welch,TN,USA,Single-ply,1
B,Open,M,140,237.5,,,,237.5,Joe Mickelson,WA,USA,Single-ply,3
B,Open,M,140+,,,,,,Tiny Meeker,TX,USA,Multi-ply,DQ
B,Open,M,140+,280,,,,280,Scott Bromeisl,WI,USA,Single-ply,1
B,Open,M,140+,295,,,,295,Gary Shim,HI,USA,Multi-ply,1
B,Special Olympian,M,82.5,142.5,,,,142.5,Dylan Kuehl,WA,USA,Single-ply,1
B,Submasters 33-39,M,56,100,,,,100,Vin Voeun,AZ,USA,Single-ply,1
B,Submasters 33-39,M,60,140,,,,140,Jonathan Rosete,OR,USA,Single-ply,1
B,Submasters 33-39,M,67.5,165,,,,165,Jason Arnold,CA,USA,Single-ply,1
B,Submasters 33-39,M,75,215.5,,,,215.5,Willard Crossen III,WA,USA,Single-ply,1
B,Submasters 33-39,M,75,170,,,,170,Barry Kunkel,OR,USA,Single-ply,2
B,Submasters 33-39,M,82.5,167.5,,,,167.5,Kyle Johnson #5,ME,USA,Single-ply,1
B,Submasters 33-39,M,82.5,167.5,,,,167.5,Louie Morrison,ME,USA,Single-ply,2
B,Submasters 33-39,M,90,162.5,,,,162.5,David Fiori,NV,USA,Single-ply,1
B,Submasters 33-39,M,90,132.5,,,,132.5,Jason Burgoon,MN,USA,Single-ply,2
B,Submasters 33-39,M,100,272.5,300,,,272.5,Chad Bertelmann,HI,USA,Multi-ply,1
B,Submasters 33-39,M,100,170,,,,170,Freddy Crosby,IL,USA,Single-ply,2
B,Submasters 33-39,M,100,262.5,,,,262.5,Coby Washburn,TX,USA,Single-ply,1
B,Submasters 33-39,M,100,125,,,,125,Jesse Gavin,MN,USA,Single-ply,3
B,Submasters 33-39,M,100,190,,,,190,Steven Kaufman,TX,USA,Multi-ply,2
B,Submasters 33-39,M,100,80,,,,80,Miguel Chain Juniors,,Brazil,Single-ply,4
B,Submasters 33-39,M,110,125,,,,125,Aldon Tibbs,MN,USA,Single-ply,1
B,Submasters 33-39,M,117.5,205,,,,205,Gregory Brown,TX,USA,Multi-ply,1
B,Submasters 33-39,M,117.5,127.5,,,,127.5,Adam Cummings,NY,USA,Single-ply,1
B,Submasters 33-39,M,125,,,,,,James Guffey,IL,USA,Multi-ply,DQ
B,Submasters 33-39,M,125,200,,,,200,Jani Toivo Kristian Ihalainen,,Finland,Multi-ply,1
B,Submasters 33-39,M,125,110,,,,110,Steven Schmidt,MN,USA,Single-ply,1
B,Submasters 33-39,M,140+,337.5,,,,337.5,Christopher Sutton,TX,USA,Single-ply,1
B,Teen 12-13,M,48,67.5,70,,,67.5,Blake Gillam,WA,USA,Single-ply,1
B,Teen 12-13,M,56,70,,,,70,Cyrus Jumalon,HI,USA,Single-ply,1
B,Teen 12-13,M,82.5,95,,,,95,Ethan Chun,OR,USA,Single-ply,1
B,Teen 12-13,M,90,72.5,,,,72.5,Broc Riskey,OR,USA,Single-ply,1
B,Teen 12-13,M,117.5,107.5,,,,107.5,Tye Kassen,AZ,USA,Single-ply,1
B,Teen 14-15,M,56,65,67.5,,,65,Seth Franke,NV,USA,Multi-ply,1
B,Teen 14-15,M,60,120,,,,120,Mason Nakamura,OR,USA,Single-ply,1
B,Teen 14-15,M,75,135,,,,135,Karter Brachear,IL,USA,Single-ply,1
B,Teen 14-15,M,75,110,,,,110,Michael Berrian,CO,USA,Single-ply,2
B,Teen 16-17,M,52,133,,,,133,Michael Saldivar,TX,USA,Single-ply,1
B,Teen 16-17,M,56,65,,,,65,Alex Coffey,CA,USA,Single-ply,1
B,Teen 16-17,M,60,102.5,,,,102.5,Elijah Daharsh,NV,USA,Single-ply,1
B,Teen 16-17,M,67.5,96.5,,,,96.5,Brandon Stott,ID,USA,Single-ply,1
B,Teen 16-17,M,67.5,62.5,,,,62.5,Morris Matshoba,CO,USA,Single-ply,2
B,Teen 16-17,M,75,160,,,,160,Giovanni Golgano,ME,USA,Single-ply,1
B,Teen 16-17,M,75,175,,,,175,Camyn Knox,TX,USA,Multi-ply,1
B,Teen 16-17,M,75,62.5,,,,62.5,Kyler Castano,WI,USA,Single-ply,2
B,Teen 16-17,M,75,115,,,,115,Jordan Lyman,WA,USA,Multi-ply,2
B,Teen 16-17,M,90,95,,,,95,Liam Mehls,WI,USA,Single-ply,1
B,Teen 16-17,M,100,145.5,,,,145.5,Anthony Campos,OR,USA,Single-ply,1
B,Teen 16-17,M,110,117.5,,,,117.5,Nathan Smith #2,WA,USA,Single-ply,1
B,Teen 16-17,M,110,102.5,,,,102.5,Gabriel Moreno #3,CO,USA,Single-ply,2
B,Teen 16-17,M,140,,,,,,Tristen Zumwalt,OR,USA,Single-ply,DQ
B,Teen 18-19,M,44,75,,,,75,Michael Pearson,WA,USA,Multi-ply,1
B,Teen 18-19,M,56,90,,,,90,Charles Mac Donald,WA,USA,Multi-ply,1
B,Teen 18-19,M,60,82.5,,,,82.5,Jallel Fabro,HI,USA,Single-ply,1
B,Teen 18-19,M,90,152.5,,,,152.5,Benjamin Mattick,CO,USA,Single-ply,1
B,Teen 18-19,M,90,82.5,,,,82.5,Shohn O' Brien,CA,USA,Single-ply,2
B,Teen 18-19,M,100,155,,,,155,John Weis,CO,USA,Single-ply,1
B,Teen 18-19,M,140+,212.5,,,,212.5,Slade Murrell,OK,USA,Multi-ply,1
BD,Juniors 20-25,F,67.5,52.5,,140.5,,193,Natalie Caughey,,USA,Single-ply,1
BD,Masters 40-46,F,90,110,,170,,280,Olympia Soto,,USA,Single-ply,1
BD,Masters 40-46,F,100,80,,172.5,,252.5,Leane Coetser,,USA,Single-ply,1
BD,Masters 47-53,F,67.5,62.5,,82.5,,145,Tierney Korotkin,,USA,Single-ply,1
BD,Masters 47-53,F,82.5,125,,170,,295,Brenda Hermann,,USA,Single-ply,1
BD,Masters 47-53,F,90,192.5,,205,,397.5,Karen Campbell,,USA,Single-ply,1
BD,Masters 54-60,F,60,62.5,,137.5,,200,Dolores Garcia-Munro,,USA,Single-ply,1
BD,Masters 54-60,F,75,67.5,,172.5,,240,Suzanne Greathouse,,USA,Single-ply,1
BD,Open,F,82.5,125,,170,,295,Brenda Hermann,,USA,Single-ply,1
BD,Open,F,90,192.5,,205,,397.5,Karen Campbell,,USA,Single-ply,1
BD,Submasters 33-39,F,75,77.5,,160,,237.5,Quincey Pearce,,USA,Single-ply,1
BD,Teen 16-17,F,48,52.5,,107.5,,160,Devyn Turner,,USA,Single-ply,1
D,Disabled 2 13-19,F,56,,,85,87.5,85,Ella Donaghey,WA,USA,Single-ply,1
D,Disabled 2 13-19,F,67.5,,,80.5,82.5,80.5,Shana Newton,WA,USA,Single-ply,1
D,Disabled 2 13-19,F,75,,,82.5,85,82.5,Alexann Tureman,WA,USA,Single-ply,1
D,Disabled 2 13-19,F,90,,,,,,Erica Humphreys,WA,USA,Single-ply,DQ
D,Disabled 2 40-59,F,56,,,140,,140,Beatriz Ribeiro,,Brazil,Single-ply,1
D,Disabled 2 40-59,F,67.5,,,77.5,,77.5,Diana Sutton,OR,USA,Single-ply,1
D,Disabled 2 60,F,75,,,115,,115,Marlene Wexler,MN,USA,Single-ply,1
D,Juniors 20-25,F,52,,,120,,120,Dawn Chapman,TX,USA,Single-ply,1
D,Juniors 20-25,F,56,,,120,,120,Shelby Dueitt,TX,USA,Single-ply,1
D,Juniors 20-25,F,56,,,77.5,,77.5,Brooke Caraccioli,CA,USA,Single-ply,2
D,Juniors 20-25,F,60,,,152.5,,152.5,Kim Price,AZ,USA,Single-ply,1
D,Juniors 20-25,F,60,,,130,,130,Lizzie Carey,KS,USA,Single-ply,2
D,Juniors 20-25,F,60,,,102.5,,102.5,Kelli Dari,FL,USA,Single-ply,3
D,Juniors 20-25,F,67.5,,,170,,170,Kimberly Phanthavong,WA,USA,Single-ply,1
D,Juniors 20-25,F,67.5,,,140.5,,140.5,Natalie Caughey,UT,USA,Single-ply,2
D,Juniors 20-25,F,67.5,,,122.5,,122.5,Oona Ylitolonen,,Finland,Single-ply,3
D,Juniors 20-25,F,82.5,,,152.5,,152.5,Jacqueline Wickens,NV,USA,Single-ply,1
D,Law-Fire 48-55,F,56,,,125,,125,Patricia Fong,IL,USA,Single-ply,1
D,Law-Fire Open,F,82.5,,,202.5,,202.5,Alisha Howard,WA,USA,Single-ply,1
D,Law-Fire Open,F,90+,,,142.5,,142.5,Malielani Kaanapu,CA,USA,Single-ply,1
D,Masters 40-46,F,52,,,155,163.5,155,Valesca Cristina Rocha,,Brazil,Single-ply,1
D,Masters 40-46,F,52,,,117.5,,117.5,Kris Leatherberry,CA,USA,Single-ply,2
D,Masters 40-46,F,56,,,142.5,,142.5,Marla McElroy,IL,USA,Single-ply,1
D,Masters 40-46,F,60,,,130,,130,Deanna Cassata,IL,USA,Single-ply,1
D,Masters 40-46,F,67.5,,,147.5,,147.5,Shawna Sheffield,CA,USA,Single-ply,1
D,Masters 40-46,F,75,,,150.5,,150.5,Ling Tarr,UT,USA,Single-ply,1
D,Masters 40-46,F,75,,,127.5,,127.5,LeAnne Shumaker,AZ,USA,Single-ply,2
D,Masters 40-46,F,90,,,170,,170,Olympia Soto,CA,USA,Single-ply,1
D,Masters 40-46,F,90,,,130,,130,Mindi Lamoreaux,UT,USA,Single-ply,2
D,Masters 40-46,F,100,,,172.5,,172.5,Leane Coetser,CA,USA,Single-ply,1
D,Masters 40-46,F,100,,,150,,150,Amy Rudder,TN,USA,Single-ply,2
D,Masters 47-53,F,44,,,150,,150,Elizabeth Cabe,HI,USA,Single-ply,1
D,Masters 47-53,F,52,,,132.5,,132.5,Siu Whitehead,HI,USA,Single-ply,1
D,Masters 47-53,F,52,,,130,,130,Martha Godinez-Shim,HI,USA,Single-ply,2
D,Masters 47-53,F,56,,,105,,105,Rebecca Moore,WA,USA,Single-ply,1
D,Masters 47-53,F,56,,,87.5,,87.5,Lori Robinson,MN,USA,Single-ply,2
D,Masters 47-53,F,67.5,,,190,,190,Ana Catia Portilho Couto,,Brazil,Single-ply,1
D,Masters 47-53,F,67.5,,,160,,160,Jeanne Watts,CA,USA,Single-ply,2
D,Masters 47-53,F,67.5,,,107.5,,107.5,Kathy Caraccioli,CA,USA,Single-ply,3
D,Masters 47-53,F,67.5,,,82.5,,82.5,Tierney Korotkin,CA,USA,Single-ply,4
D,Masters 47-53,F,75,,,205,215,205,Cindy Shockman,OR,USA,Single-ply,1
D,Masters 47-53,F,75,,,162.5,,162.5,Beverly Anolin,CA,USA,Single-ply,2
D,Masters 47-53,F,75,,,142.5,,142.5,Debi Kesper,MA,USA,Single-ply,3
D,Masters 47-53,F,75,,,137.5,,137.5,Josefina Jackson,TX,USA,Single-ply,4
D,Masters 47-53,F,75,,,122.5,,122.5,Deb Francis,WI,USA,Single-ply,5
D,Masters 47-53,F,82.5,,,170,,170,Brenda Hermann,WI,USA,Single-ply,1
D,Masters 47-53,F,90,,,205,,205,Karen Campbell,ME,USA,Single-ply,1
D,Masters 47-53,F,90,,,165,,165,Felicia Thomas,IL,USA,Single-ply,2
D,Masters 47-53,F,90,,,150,,150,Linda Gerking,WA,USA,Single-ply,3
D,Masters 47-53,F,90,,,140,,140,Susan Johnson #2,HI,USA,Single-ply,4
D,Masters 54-60,F,52,,,105,,105,Jeanne Morris,WA,USA,Single-ply,1
D,Masters 54-60,F,56,,,97.5,,97.5,Karon Denniston,MI,USA,Single-ply,1
D,Masters 54-60,F,60,,,200.5,,200.5,Jane McCubbin,WI,USA,Single-ply,1
D,Masters 54-60,F,60,,,137.5,,137.5,Dolores Garcia-Munro,CA,USA,Single-ply,2
D,Masters 54-60,F,67.5,,,115,,115,Marsha Goodman,AZ,USA,Single-ply,1
D,Masters 54-60,F,75,,,172.5,,172.5,Suzanne Greathouse,WA,USA,Single-ply,1
D,Masters 54-60,F,75,,,110,,110,Pamela Michaels,WA,USA,Single-ply,2
D,Masters 54-60,F,82.5,,,166,,166,Margie Huston,WA,USA,Single-ply,1
D,Masters 54-60,F,82.5,,,120,,120,Elemai Lagahetau-Humm,,New Zealand,Single-ply,2
D,Masters 54-60,F,90,,,105,,105,Rosalie Pearson,,New Zealand,Single-ply,1
D,Masters 61-67,F,48,,,130,,130,Jo-Ann Clough,ME,USA,Single-ply,1
D,Masters 61-67,F,52,,,150,,150,Linda Barnes,CA,USA,Single-ply,1
D,Masters 61-67,F,60,,,113,,113,Jill Porter,TX,USA,Single-ply,1
D,Masters 61-67,F,67.5,,,117.5,,117.5,Charlene Muscio,CA,USA,Single-ply,1
D,Masters 61-67,F,82.5,,,127.5,,127.5,Mary Smoley,WI,USA,Single-ply,1
D,Masters 61-67,F,90+,,,117.5,,117.5,Juana Kaanapu,CA,USA,Single-ply,1
D,Masters 61-67,F,90+,,,102.5,,102.5,Jacqueline Fendler,MN,USA,Single-ply,2
D,Masters 68-74,F,56,,,102.5,105,102.5,Flo Robinson,CA,USA,Single-ply,1
D,Masters 68-74,F,75,,,115,,115,Marlene Wexler,MN,USA,Single-ply,1
D,Masters 68-74,F,82.5,,,140,142.5,140,Gerda Shupe,CA,USA,Single-ply,1
D,Masters 68-74,F,82.5,,,115,,115,Pat Robey,WA,USA,Single-ply,2
D,Masters 75-79,F,82.5,,,101,,101,Carrie Reese,CA,USA,Single-ply,1
D,Masters 80-84,F,90+,,,62.5,65,62.5,Magdalen Oien,MN,USA,Single-ply,1
D,Masters 85-89,F,82.5,,,31,,31,Evelyn Kilgore,CA,USA,Single-ply,1
D,Open,F,44,,,150,,150,Elizabeth Cabe,HI,USA,Single-ply,1
D,Open,F,48,,,137.5,,137.5,Colleen Loo,NV,USA,Single-ply,1
D,Open,F,48,,,130,,130,Jo-Ann Clough,ME,USA,Single-ply,2
D,Open,F,52,,,155,163.5,155,Valesca Cristina Rocha,,Brazil,Single-ply,1
D,Open,F,52,,,132.5,,132.5,Siu Whitehead,HI,USA,Single-ply,2
D,Open,F,52,,,130,,130,Martha Godinez-Shim,HI,USA,Single-ply,3
D,Open,F,52,,,120,,120,Dawn Chapman,TX,USA,Single-ply,4
D,Open,F,52,,,115,,115,Rosario Espinoza,AZ,USA,Single-ply,5
D,Open,F,56,,,152.5,,152.5,Gina Da Benigno,NY,USA,Single-ply,1
D,Open,F,56,,,142.5,,142.5,Marla McElroy,IL,USA,Single-ply,2
D,Open,F,56,,,140,,140,Madison McKendrick,UT,USA,Single-ply,3
D,Open,F,56,,,125,,125,Daisy Adriatico,NV,USA,Single-ply,4
D,Open,F,60,,,200.5,,200.5,Jane McCubbin,WI,USA,Single-ply,1
D,Open,F,60,,,153,,153,Jennifer Scott #1,NV,USA,Single-ply,2
D,Open,F,60,,,137.5,,137.5,Dolores Garcia-Munro,CA,USA,Single-ply,3
D,Open,F,60,,,130,,130,Deanna Cassata,IL,USA,Single-ply,4
D,Open,F,60,,,130,,130,Kristine Garcia Sierra,OR,USA,Single-ply,5
D,Open,F,60,,,112.5,,112.5,Jill Porter,TX,USA,Single-ply,6
D,Open,F,67.5,,,212.5,,212.5,Rebekah Schmidt,MN,USA,Single-ply,1
D,Open,F,67.5,,,190,,190,Ana Catia Portilho Couto,,Brazil,Single-ply,2
D,Open,F,67.5,,,170,,170,Kimberly Phanthavong,WA,USA,Single-ply,3
D,Open,F,67.5,,,147.5,,147.5,Shawna Sheffield,CA,USA,Single-ply,4
D,Open,F,67.5,,,140,,140,Natalie Caughey,UT,USA,Single-ply,5
D,Open,F,67.5,,,123,124,123,Sheree Wainwright,,New Zealand,Single-ply,6
D,Open,F,75,,,205,215,205,Cindy Shockman,OR,USA,Single-ply,1
D,Open,F,75,,,162.5,,162.5,Beverly Anolin,CA,USA,Single-ply,2
D,Open,F,75,,,162.5,,162.5,Pristeen Perreira,HI,USA,Single-ply,3
D,Open,F,75,,,147.5,,147.5,Shaunyani Weatherly,AZ,USA,Single-ply,4
D,Open,F,75,,,142.5,,142.5,Debi Kesper,MA,USA,Single-ply,5
D,Open,F,75,,,120,,120,Minna Pajulahti,,Finland,Single-ply,6
D,Open,F,75,,,105,,105,Jessalyn Siewert,MN,USA,Single-ply,7
D,Open,F,82.5,,,185,,185,Sophia Hussary,AZ,USA,Single-ply,1
D,Open,F,82.5,,,170,,170,Brenda Hermann,WI,USA,Single-ply,2
D,Open,F,82.5,,,165,,165,Tara Maier,AZ,USA,Single-ply,3
D,Open,F,82.5,,,147.5,,147.5,Iesha Pompey,IL,USA,Single-ply,4
D,Open,F,82.5,,,130,,130,Mary Smoley,WI,USA,Single-ply,5
D,Open,F,90,,,215,,215,Debora Ester dos Santos,,Brazil,Single-ply,1
D,Open,F,90,,,205,,205,Karen Campbell,ME,USA,Single-ply,2
D,Open,F,90,,,142.5,,142.5,Irene Peterson,MA,USA,Single-ply,3
D,Open,F,90,,,140,,140,Susan Johnson #2,HI,USA,Single-ply,4
D,Open,F,90,,,132.5,,132.5,Mary Denning,WA,USA,Single-ply,5
D,Open,F,100,,,205,,205,Holly Garner,OR,USA,Single-ply,1
D,Open,F,100,,,205,,205,Nicole Marie Jones,TX,USA,Single-ply,2
D,Open,F,100,,,182.5,,182.5,Makala Davis,AZ,USA,Single-ply,3
D,Open,F,100,,,150,,150,Amy Rudder,TN,USA,Single-ply,4
D,Open,F,90+,,,137.5,,137.5,Kay Kadoun,WA,USA,Single-ply,1
D,Open,F,90+,,,132.5,,132.5,Alyssa Greenwood,CA,USA,Single-ply,2
D,Special Olympian,F,90,,,137.5,,137.5,Chloe Kaalund,CA,USA,Single-ply,1
D,Submasters 33-39,F,52,,,85,,85,Jamie Field,CA,USA,Single-ply,1
D,Submasters 33-39,F,56,,,140,,140,Andrea Windsheimer,PA,USA,Single-ply,1
D,Submasters 33-39,F,56,,,125,,125,Daisy Adriatico,NV,USA,Single-ply,2
D,Submasters 33-39,F,60,,,122.5,,122.5,Sarah Whitelaw,CA,USA,Single-ply,1
D,Submasters 33-39,F,60,,,85,,85,Maggie Cavanaugh,MN,USA,Single-ply,2
D,Submasters 33-39,F,67.5,,,212.5,,212.5,Rebekah Schmidt,MN,USA,Single-ply,1
D,Submasters 33-39,F,67.5,,,135,,135,Dawn Bryant,MN,USA,Single-ply,2
D,Submasters 33-39,F,75,,,162.5,,162.5,Pristeen Perreira,HI,USA,Single-ply,1
D,Submasters 33-39,F,75,,,160,,160,Quincey Pearce,UT,USA,Single-ply,2
D,Submasters 33-39,F,75,,,120,,120,Minna Pajulahti,,Finland,Single-ply,3
D,Submasters 33-39,F,82.5,,,202.5,,202.5,Alisha Howard,WA,USA,Single-ply,1
D,Submasters 33-39,F,82.5,,,185,,185,Sophia Hussary,AZ,USA,Single-ply,2
D,Submasters 33-39,F,82.5,,,157.5,,157.5,Holly McCall,UT,USA,Single-ply,3
D,Submasters 33-39,F,90,,,142.5,,142.5,Irene Peterson,MA,USA,Single-ply,1
D,Submasters 33-39,F,100,,,205,,205,Holly Garner,OR,USA,Single-ply,1
D,Submasters 33-39,F,100,,,205,,205,Nicole Marie Jones,TX,USA,Single-ply,2
D,Submasters 33-39,F,90+,,,167.5,,167.5,Kelly Riskey,OR,USA,Single-ply,1
D,Teen 12-13,F,44,,,70,,70,Lillaine Jackson,TX,USA,Single-ply,1
D,Teen 14-15,F,52,,,88,,88,Alexis Marotta,AZ,USA,Single-ply,1
D,Teen 14-15,F,56,,,141,,141,Madison McKendrick,UT,USA,Single-ply,1
D,Teen 14-15,F,67.5,,,82.5,,82.5,Cristina Munoz,CA,USA,Single-ply,1
D,Teen 14-15,F,75,,,112.5,,112.5,Marley Chambers,ID,USA,Single-ply,3
D,Teen 14-15,F,75,,,138,,138,Emily Daniel,TX,USA,Single-ply,1
D,Teen 14-15,F,75,,,125,,125,Emily Jondron,TX,USA,Single-ply,2
D,Teen 14-15,F,82.5,,,92.5,,92.5,Karina Gomez,CA,USA,Single-ply,1
D,Teen 16-17,F,48,,,107.5,,107.5,Devyn Turner,TX,USA,Single-ply,1
D,Teen 16-17,F,56,,,157.5,,157.5,Taylor Klemmensen,WI,USA,Single-ply,1
D,Teen 16-17,F,67.5,,,105,,105,Marissa Harden,WI,USA,Single-ply,1
D,Teen 16-17,F,75,,,145,,145,Sabrina Stacken,WI,USA,Single-ply,1
D,Teen 18-19,F,52,,,127.5,,127.5,Vickie Holbrook,WI,USA,Single-ply,1
D,Teen 18-19,F,67.5,,,125,,125,Alyssa Carver,WI,USA,Single-ply,1
D,Teen 18-19,F,75,,,165,,165,Lauren Lugdon,ME,USA,Single-ply,1
D,Teen 18-19,F,90+,,,145,,145,Lexi Helzer,TX,USA,Single-ply,1
B,Disabled 2 13-19,F,56,35,,,,35,Ella Donaghey,WA,USA,Single-ply,1
B,Disabled 2 13-19,F,67.5,37.5,39,,,37.5,Shana Newton,WA,USA,Single-ply,1
B,Disabled 2 13-19,F,75,35,37.5,,,35,Alexann Tureman,WA,USA,Single-ply,1
B,Disabled 2 13-19,F,90,40,,,,40,Erica Humphreys,WA,USA,Single-ply,1
B,Disabled 2 40-59,F,56,70,,,,70,Beatriz Ribeiro,,Brazil,Single-ply,1
B,Juniors 20-25,F,52,72.5,,,,72.5,Dawn Chapman,TX,USA,Single-ply,1
B,Juniors 20-25,F,56,60,,,,60,Shelby Dueitt,TX,USA,Single-ply,1
B,Juniors 20-25,F,60,120,,,,120,Julia Goldstein,UT,USA,Single-ply,1
B,Juniors 20-25,F,60,100,,,,100,Kim Price,AZ,USA,Single-ply,2
B,Juniors 20-25,F,67.5,80,,,,80,Kimberly Phanthavong,WA,USA,Single-ply,1
B,Juniors 20-25,F,67.5,75,,,,75,Oona Ylitolonen,,Finland,Single-ply,2
B,Juniors 20-25,F,67.5,52.5,,,,52.5,Natalie Caughey,UT,USA,Single-ply,3
B,Juniors 20-25,F,100,103,,,,103,Gerika Kaaua-Acorda,HI,USA,Single-ply,1
B,Law-Fire Open,F,82.5,133,137.5,,,133,Alisha Howard,WA,USA,Single-ply,1
B,Law-Fire Open,F,90+,97.5,,,,97.5,Malielani Kaanapu,CA,USA,Single-ply,1
B,Masters 40-46,F,52,57.5,,,,57.5,Valesca Cristina Rocha,,Brazil,Single-ply,1
B,Masters 40-46,F,60,,,,,,Dayna Ng,HI,USA,Single-ply,DQ
B,Masters 40-46,F,60,77.5,,,,77.5,Shae Bitton,UT,USA,Single-ply,1
B,Masters 40-46,F,60,82.5,,,,82.5,Deanna Cassata,IL,USA,Multi-ply,1
B,Masters 40-46,F,75,152.5,,,,152.5,Virpi Pukkila,,Finland,Single-ply,1
B,Masters 40-46,F,82.5,78,,,,78,Patricia Beasock,WA,USA,Multi-ply,1
B,Masters 40-46,F,90,110,,,,110,Olympia Soto,CA,USA,Single-ply,1
B,Masters 40-46,F,100,80,,,,80,Leane Coetser,CA,USA,Single-ply,1
B,Masters 40-46,F,100,91,,,,91,Amy Rudder,TN,USA,Multi-ply,1
B,Masters 47-53,F,52,65,,,,65,Martha Godinez-Shim,HI,USA,Multi-ply,1
B,Masters 47-53,F,56,73,,,,73,Rebecca Moore,WA,USA,Multi-ply,1
B,Masters 47-53,F,56,45,,,,45,Lori Robinson,MN,USA,Single-ply,1
B,Masters 47-53,F,67.5,,,,,,Jeanne Watts,CA,USA,Single-ply,DQ
B,Masters 47-53,F,67.5,77.5,,,,77.5,Andrea Macauley,OR,USA,Single-ply,2
B,Masters 47-53,F,67.5,80,,,,80,Ana Catia Portilho Couto,,Brazil,Single-ply,1
B,Masters 47-53,F,67.5,62.5,,,,62.5,Tierney Korotkin,CA,USA,Single-ply,3
B,Masters 47-53,F,75,110.5,,,,110.5,Beverly Anolin,CA,USA,Single-ply,2
B,Masters 47-53,F,75,150.5,156,,,150.5,Cindy Shockman,OR,USA,Single-ply,1
B,Masters 47-53,F,82.5,125,,,,125,Brenda Hermann,WI,USA,Single-ply,1
B,Masters 47-53,F,90,192.5,,,,192.5,Karen Campbell,ME,USA,Single-ply,1
B,Masters 47-53,F,90,98,102.5,,,98,Linda Gerking,WA,USA,Multi-ply,1
B,Masters 47-53,F,90,62.5,,,,62.5,Felicia Thomas,IL,USA,Single-ply,2
B,Masters 47-53,F,90,67.5,,,,67.5,Susan Johnson #2,HI,USA,Multi-ply,2
B,Masters 47-53,F,90+,125,,,,125,Tunya Sytsma,HI,USA,Single-ply,1
B,Masters 54-60,F,56,65,,,,65,Karon Denniston,MI,USA,Single-ply,1
B,Masters 54-60,F,60,62.5,,,,62.5,Dolores Garcia-Munro,CA,USA,Single-ply,1
B,Masters 54-60,F,67.5,97.5,,,,97.5,Peach Presley,CA,USA,Multi-ply,1
B,Masters 54-60,F,75,67.5,,,,67.5,Suzanne Greathouse,WA,USA,Single-ply,1
B,Masters 54-60,F,82.5,50,,,,50,Elemai Lagahetau-Humm,,New Zealand,Single-ply,1
B,Masters 54-60,F,90,40,,,,40,Rosalie Pearson,,New Zealand,Single-ply,1
B,Masters 54-60,F,100,85,,,,85,Sue Vaterlaus,CA,USA,Single-ply,1
B,Masters 54-60,F,90+,88,,,,88,Gloria Caughey,UT,USA,Multi-ply,1
B,Masters 61-67,F,48,50,,,,50,Jo-Ann Clough,ME,USA,Single-ply,1
B,Masters 61-67,F,52,62.5,,,,62.5,Linda Barnes,CA,USA,Single-ply,1
B,Masters 61-67,F,52,37.5,,,,37.5,Rosemary Dunbar,CA,USA,Single-ply,2
B,Masters 61-67,F,60,72.5,,,,72.5,Jill Porter,TX,USA,Multi-ply,1
B,Masters 61-67,F,100,62.5,,,,62.5,Susan Arnett,HI,USA,Single-ply,1
B,Masters 61-67,F,90+,87.5,92.5,,,87.5,Juana Kaanapu,CA,USA,Single-ply,1
B,Masters 68-74,F,56,42.5,,,,42.5,Flo Robinson,CA,USA,Single-ply,1
B,Masters 68-74,F,60,47.5,,,,47.5,Leona Pereza,HI,USA,Multi-ply,1
B,Masters 68-74,F,67.5,25,,,,25,Lynn Ford,CA,USA,Single-ply,1
B,Masters 68-74,F,82.5,80,,,,80,Pat Robey,WA,USA,Single-ply,1
B,Masters 75-79,F,82.5,42.5,,,,42.5,Carrie Reese,CA,USA,Single-ply,1
B,Masters 75-79,F,90+,35,,,,35,Shirley Herrera,CA,USA,Single-ply,1
B,Masters 80-84,F,90+,32.5,,,,32.5,Magdalen Oien,MN,USA,Single-ply,1
B,Masters 85-89,F,82.5,21,,,,21,Evelyn Kilgore,CA,USA,Single-ply,1
B,Masters 90,F,56,20,,,,20,Dottie Ward,CA,USA,Single-ply,1
B,Open,F,48,50,,,,50,Jo-Ann Clough,ME,USA,Single-ply,1
B,Open,F,52,72.5,,,,72.5,Dawn Chapman,TX,USA,Single-ply,1
B,Open,F,52,65,,,,65,Martha Godinez-Shim,HI,USA,Multi-ply,1
B,Open,F,52,57.5,,,,57.5,Valesca Cristina Rocha,,Brazil,Single-ply,2
B,Open,F,56,50,,,,50,Madison McKendrick,UT,USA,Single-ply,2
B,Open,F,56,72.5,,,,72.5,Rebecca Moore,WA,USA,Multi-ply,1
B,Open,F,56,97.5,,,,97.5,Kali Schierl,WI,USA,Single-ply,1
B,Open,F,60,77.5,,,,77.5,Shae Bitton,UT,USA,Single-ply,1
B,Open,F,60,82.5,,,,82.5,Deanna Cassata,IL,USA,Multi-ply,1
B,Open,F,60,72.5,,,,72.5,Jill Porter,TX,USA,Multi-ply,2
B,Open,F,60,72.5,,,,72.5,Jennifer Scott #1,NV,USA,Single-ply,2
B,Open,F,60,62.5,,,,62.5,Dolores Garcia-Munro,CA,USA,Single-ply,3
B,Open,F,60,60,,,,60,Kristine Garcia Sierra,OR,USA,Single-ply,4
B,Open,F,67.5,130,,,,130,Kandice Kinney,HI,USA,Single-ply,1
B,Open,F,67.5,80,,,,80,Ana Catia Portilho Couto,,Brazil,Single-ply,3
B,Open,F,67.5,97.5,,,,97.5,Peach Presley,CA,USA,Multi-ply,1
B,Open,F,67.5,107.5,,,,107.5,Jeanne Watts,CA,USA,Single-ply,2
B,Open,F,67.5,80,,,,80,Kimberly Phanthavong,WA,USA,Single-ply,4
B,Open,F,75,110,,,,110,Beverly Anolin,CA,USA,Single-ply,3
B,Open,F,75,,,,,,Alexis Moore,TX,USA,Single-ply,DQ
B,Open,F,75,,,,,,Jessalyn Siewert,MN,USA,Single-ply,DQ
B,Open,F,75,105.5,,,,105.5,Lauren Lugdon,ME,USA,Multi-ply,1
B,Open,F,75,152.5,,,,152.5,Virpi Pukkila,,Finland,Single-ply,1
B,Open,F,75,150.5,156,,,150.5,Cindy Shockman,OR,USA,Single-ply,2
B,Open,F,75,92.5,,,,92.5,Minna Pajulahti,,Finland,Single-ply,4
B,Open,F,75,65,,,,65,Pristeen Perreira,HI,USA,Single-ply,5
B,Open,F,82.5,125,,,,125,Brenda Hermann,WI,USA,Single-ply,1
B,Open,F,82.5,70,,,,70,Iesha Pompey,IL,USA,Single-ply,3
B,Open,F,82.5,97.5,,,,97.5,Tara Maier,AZ,USA,Single-ply,2
B,Open,F,90,192.5,,,,192.5,Karen Campbell,ME,USA,Single-ply,1
B,Open,F,90,120,,,,120,Mary Denning,WA,USA,Multi-ply,1
B,Open,F,90,85,,,,85,Debora Ester dos Santos,,Brazil,Single-ply,2
B,Open,F,90,67.5,,,,67.5,Susan Johnson #2,HI,USA,Multi-ply,2
B,Open,F,90+,,,,,,Melissa Zumwalt,OR,USA,Single-ply,DQ
B,Open,F,90+,88,,,,88,Gloria Caughey,UT,USA,Multi-ply,1
B,Open,F,90+,70,,,,70,Alyssa Greenwood,CA,USA,Single-ply,1
B,Open,F,90+,70,,,,70,Kay Kadoun,WA,USA,Single-ply,2
B,Special Olympian,F,90,65,,,,65,Chloe Kaalund,CA,USA,Single-ply,1
B,Submasters 33-39,F,56,67.5,,,,67.5,Andrea Windsheimer,PA,USA,Single-ply,1
B,Submasters 33-39,F,60,,,,,,Maggie Cavanaugh,MN,USA,Single-ply,DQ
B,Submasters 33-39,F,67.5,45,,,,45,Dawn Bryant,MN,USA,Single-ply,1
B,Submasters 33-39,F,75,92.5,,,,92.5,Minna Pajulahti,,Finland,Single-ply,1
B,Submasters 33-39,F,75,65,,,,65,Pristeen Perreira,HI,USA,Single-ply,3
B,Submasters 33-39,F,75,77.5,,,,77.5,Quincey Pearce,UT,USA,Single-ply,2
B,Submasters 33-39,F,82.5,133,137.5,,,133,Alisha Howard,WA,USA,Single-ply,1
B,Submasters 33-39,F,90+,,,,,,Melissa Zumwalt,OR,USA,Single-ply,DQ
B,Submasters 33-39,F,90+,125,,,,125,Kelly Riskey,OR,USA,Single-ply,1
B,Teen 14-15,F,52,45.5,,,,45.5,Alexis Marotta,AZ,USA,Single-ply,1
B,Teen 14-15,F,56,50,,,,50,Madison McKendrick,UT,USA,Single-ply,1
B,Teen 14-15,F,67.5,43,,,,43,Rian Berriman,OR,USA,Single-ply,1
B,Teen 14-15,F,67.5,67.5,,,,67.5,Cristina Munoz,CA,USA,Multi-ply,1
B,Teen 14-15,F,75,,,,,,Emily Daniel,TX,USA,Single-ply,DQ
B,Teen 14-15,F,75,65,,,,65,Marley Chambers,ID,USA,Single-ply,2
B,Teen 14-15,F,75,92.5,105,,,92.5,Emily Jondron,TX,USA,Single-ply,1
B,Teen 14-15,F,82.5,52.5,,,,52.5,Karina Gomez,CA,USA,Multi-ply,1
B,Teen 16-17,F,48,52.5,,,,52.5,Devyn Turner,TX,USA,Single-ply,1
B,Teen 16-17,F,56,97.5,,,,97.5,Kali Schierl,WI,USA,Single-ply,1
B,Teen 16-17,F,56,70,,,,70,Taylor Klemmensen,WI,USA,Single-ply,2
B,Teen 16-17,F,67.5,47.5,,,,47.5,Marissa Harden,WI,USA,Single-ply,1
B,Teen 16-17,F,75,70,,,,70,Sabrina Stacken,WI,USA,Single-ply,1
B,Teen 18-19,F,52,50,,,,50,Vickie Holbrook,WI,USA,Single-ply,1
B,Teen 18-19,F,67.5,52.5,,,,52.5,Alyssa Carver,WI,USA,Single-ply,1
B,Teen 18-19,F,75,105.5,,,,105.5,Lauren Lugdon,ME,USA,Multi-ply,1
B,Teen 18-19,F,90+,122.5,,,,122.5,Lexi Helzer,TX,USA,Single-ply,1
