Place,Name,BodyweightKg,Squat1Kg,Squat2Kg,Squat3Kg,Best3SquatKg,Bench1Kg,Bench2Kg,Bench3Kg,Best3BenchKg,Bench4Kg,Deadlift1Kg,Deadlift2Kg,Deadlift3Kg,Best3DeadliftKg,TotalKg,WeightClassKg,Sex,CyrillicName,BirthYear,Event,Division,Equipment
1,Konstantin Danilov,52.00,190,-210,210,210,90,95,100,100,,175,185,190,190,500.0,52,M,Константин Данилов,1986,SBD,Juniors,Single-ply
2,Ivan Isaev,51.90,155,165,170,170,115,120,-122.5,120,,150,160,162.5,162.5,452.5,52,M,Иван Исаев,1980,SBD,Juniors,Single-ply
3,Denis Petin,51.25,160,170,-175,170,105,110,-112.5,110,,160,-170,-170,160,440.0,52,M,Денис Петин,1982,SBD,Juniors,Single-ply
4,Viktor Gorkusha,52.00,160,-170,,160,110,-115,115,115,,150,160,,160,435.0,52,M,Виктор Горкуша,1987,SBD,Juniors,Single-ply
5,Vladimir Talankin,50.25,165,172.5,-180,172.5,75,80,82.5,82.5,,165,170,-175,170,425.0,52,M,Владимир Таланкин,1985,SBD,Juniors,Single-ply
6,Artem Tavastsherna,51.95,165,-172.5,-172.5,165,-100,100,-102.5,100,,160,-170,-170,160,425.0,52,M,Артем Тавастшерна,1985,SBD,Juniors,Single-ply
7,Vyacheslav Korsunkin,51.65,150,157.5,162.5,162.5,92.5,97.5,-102.5,97.5,,150,160,-165,160,420.0,52,M,Вячеслав Корсункин,1986,SBD,Juniors,Single-ply
1,Vitaliy Petrochenko,55.65,200,210,217.5,217.5,130,135,-137.5,135,,-205,205,212.5,212.5,565.0,56,M,Виталий Петроченко,1982,SBD,Juniors,Single-ply
2,Maksim Tyagushev,55.35,210,-220,-220,210,110,120,-125,120,,205,215,-225,215,545.0,56,M,Максим Тягушев,1981,SBD,Juniors,Single-ply
3,Evgeniy Bychkov,56.00,180,190,195,195,125,135,142.5,142.5,,180,195,205,205,542.5,56,M,Евгений Бычков,1985,SBD,Juniors,Single-ply
4,Aleksandr Vosrkesenskiy,55.85,205,215,222.5,222.5,115,120,122.5,122.5,,195,-202.5,-202.5,195,540.0,56,M,Александр Воскресенский,1986,SBD,Juniors,Single-ply
5,Evgeniy Karimov,55.95,190,-200,-200,190,125,-130,130,130,,180,-190,190,190,510.0,56,M,Евгений Каримов,1983,SBD,Juniors,Single-ply
6,Aleksey Ilin,55.05,170,180,-185,180,105,-110,110,110,,175,190,-200,190,480.0,56,M,Алексей Ильин,1980,SBD,Juniors,Single-ply
7,Anton Krasilnikov,55.40,180,190,195,195,-105,105,-110,105,,170,-180,-190,170,470.0,56,M,Антон Красильников,1987,SBD,Juniors,Single-ply
DQ,Mikhail Buravov,55.80,180,195,205,205,105,110,-112.5,110,,-210,-210,-210,,,56,M,Михаил Буравов,1986,SBD,Juniors,Single-ply
1,Mikhail Voskresenskiy,59.05,215,225,-230,225,122.5,127.5,-130,127.5,,200,207.5,-215,207.5,560.0,60,M,Михаил Воскресенский,1983,SBD,Juniors,Single-ply
2,Aleksey Sotnikov,59.75,210,-215,-215,210,115,117.5,120,120,,205,215,222.5,222.5,552.5,60,M,Алексей Сотников,1985,SBD,Juniors,Single-ply
3,Mikhail Moschyov,59.30,200,-210,-210,200,120,130,135,135,,200,215,-222.5,215,550.0,60,M,Михаил Мощёв,1980,SBD,Juniors,Single-ply
4,Evgeniy Ushakov,59.85,-210,-210,210,210,105,110,-112.5,110,,220,230,-240,230,550.0,60,M,Евгений Ушаков,1982,SBD,Juniors,Single-ply
5,Andrey Polkanov,59.95,195,207.5,-210,207.5,110,-117.5,117.5,117.5,,195,205,210,210,535.0,60,M,Андрей Польканов,1983,SBD,Juniors,Single-ply
6,Aleksandr Kapustin,59.90,185,190,-195,190,115,120,125,125,,210,-220,-220,210,525.0,60,M,Александр Капустин,1982,SBD,Juniors,Single-ply
7,Vitaliy Aksyonenko,60.00,205,215,-220,215,-100,100,107.5,107.5,,180,195,-200,195,517.5,60,M,Виталий Аксёненко,1983,SBD,Juniors,Single-ply
8,Aleksandr Filatov,59.70,205,-215,-215,205,102.5,105,107.5,107.5,,200,-222.5,,200,512.5,60,M,Александр Филатов,1980,SBD,Juniors,Single-ply
9,Evgeniy Mukhomedyanov,59.40,180,192.5,-200,192.5,110,115,122.5,122.5,,165,180,187.5,187.5,502.5,60,M,Евгений Мухомедьянов,1981,SBD,Juniors,Single-ply
1,Alexey Merkulov,67.50,-270,270,280,280,180,190,-197.5,190,,225,232.5,-235,232.5,702.5,67.5,M,Алексей Меркулов,1983,SBD,Juniors,Single-ply
2,Igor Teplykh,67.45,-252.5,257.5,-262.5,257.5,152.5,160,-162.5,160,,225,235,242.5,242.5,660.0,67.5,M,Игорь Теплых,1983,SBD,Juniors,Single-ply
3,Viktor Cherpinskiy,67.50,235,-250,250,250,155,162.5,-167.5,162.5,,212.5,227.5,235,235,647.5,67.5,M,Виктор Черпинский,1982,SBD,Juniors,Single-ply
4,Andrey Zvyagintsev,63.35,222.5,235,247.5,247.5,147.5,155,160,160,,225,-235,237.5,237.5,645.0,67.5,M,Андрей Звягинцев,1980,SBD,Juniors,Single-ply
5,Vasiliy Odintsov,67.30,250,-260,-260,250,135,140,-145,140,,-225,225,-235,225,615.0,67.5,M,Василий Одинцов,1984,SBD,Juniors,Single-ply
6,Albert Valeev,67.30,230,-240,-240,230,145,-152.5,152.5,152.5,,215,225,230,230,612.5,67.5,M,Альберт Валеев,1983,SBD,Juniors,Single-ply
7,Vladimir Smirnov,65.40,225,235,240,240,110,115,120,120,,30,240,-247.5,240,600.0,67.5,M,Владимир Смирнов,1985,SBD,Juniors,Single-ply
8,Denis Semenov,67.10,-210,-210,215,215,120,127.5,132.5,132.5,,235,252.5,,252.5,600.0,67.5,M,Денис Семенов,1983,SBD,Juniors,Single-ply
9,Denis Kochmarev,67.40,210,220,225,225,127.5,132.5,137.5,137.5,,225,-237.5,-237.5,225,587.5,67.5,M,Денис Кочмарев,1981,SBD,Juniors,Single-ply
10,Nikolay Sannikov,67.40,240,-245,-247.5,240,117.5,122.5,-125,122.5,,220,-237.5,-237.5,220,582.5,67.5,M,Николай Санников,1983,SBD,Juniors,Single-ply
11,Anton Garanin,67.25,220,232.5,-240,232.5,120,125,127.5,127.5,,220,-232.5,-240,220,580.0,67.5,M,Антон Гаранин,1986,SBD,Juniors,Single-ply
12,Evgeniy Velichkovich,66.95,-215,215,-225,215,130,137.5,-140,137.5,,215,225,-230,225,577.5,67.5,M,Евгений Величкович,1985,SBD,Juniors,Single-ply
13,Aleksandr Chirikov,66.50,220,-235,-235,220,135,145,-152.5,145,,-190,190,-200,190,555.0,67.5,M,Александр Чириков,1984,SBD,Juniors,Single-ply
DQ,Ivan Yurchenko,66.90,,,,,,,,,,,,,,,67.5,M,Иван Юрченко,1981,SBD,Juniors,Single-ply
DQ,Pavel Kulkov,67.40,260,-270,-270,260,140,145,147.5,147.5,,-270,-270,-270,,,67.5,M,Павел Кульков,1980,SBD,Juniors,Single-ply
DQ,Maksim Gnatyuk,67.40,-245,245,252.5,252.5,145,150,152.5,152.5,,-250,-250,-257.5,,,67.5,M,Максим Гнатюк,1982,SBD,Juniors,Single-ply
DQ,Aleksey Vlasov,65.75,205,-220,225,225,130,145,150,150,,-200,-200,-200,,,67.5,M,Алексей Власов,1981,SBD,Juniors,Single-ply
1,Dmitriy Ivanenko,73.65,280,290,295,295,160,165,167.5,167.5,,260,-265,265,265,727.5,75,M,Дмитрий Иваненко,1981,SBD,Juniors,Single-ply
2,Alexey Ernandes-Ortega,74.10,260,270,280,280,170,180,187.5,187.5,,245,-252.5,-252.5,245,712.5,75,M,Алексей Эрнандес-Ортега,1984,SBD,Juniors,Single-ply
3,Alexey Ryabkov,74.90,270,285,292.5,292.5,-165,165,-167.5,165,,250,-262.5,-262.5,250,707.5,75,M,Алексей Рябков,1983,SBD,Juniors,Single-ply
4,Anton Pinchuk,74.70,-250,260,-272.5,260,170,180,185,185,,-240,240,252.5,252.5,697.5,75,M,Антон Пинчук,1984,SBD,Juniors,Single-ply
5,Sergey Bogdanov,75.00,240,-252.5,-252.5,240,180,190,195,195,,230,250,260,260,695.0,75,M,Сергей Богданов,1985,SBD,Juniors,Single-ply
6,Maksim Kamyshnyy,73.85,-250,-250,250,250,160,175,-180,175,,-250,250,-257.5,250,675.0,75,M,Максим Камышный,1983,SBD,Juniors,Single-ply
7,Evgeniy Popando,74.85,235,245,250,250,155,160,165,165,,235,245,-250,245,660.0,75,M,Евгений Попандо,1980,SBD,Juniors,Single-ply
8,Aleksandr Ivanov,74.85,240,255,265,265,140,145,150,150,,225,240,245,245,660.0,75,M,Александр Иванов,1981,SBD,Juniors,Single-ply
9,Boris Mrgloev,74.40,245,-255,255,255,140,147.5,155,155,,230,240,-245,240,650.0,75,M,Борис Мрглоев,1983,SBD,Juniors,Single-ply
10,Aleksandr Shakurov,74.50,250,260,265,265,140,145,147.5,147.5,,220,237.5,-245,237.5,650.0,75,M,Александр Шакуров,1983,SBD,Juniors,Single-ply
11,Sergey Churzin,74.50,240,250,-255,250,152.5,157.5,-162.5,157.5,,230,242.5,-250,242.5,650.0,75,M,Сергей Чурзин,1981,SBD,Juniors,Single-ply
12,Alexander Karpenko,74.70,250,260,265,265,145,152.5,-155,152.5,,232.5,-240,,232.5,650.0,75,M,Александр Карпенко,1982,SBD,Juniors,Single-ply
13,Aleksey Kirichenko,74.80,245,255,-260,255,140,145,-150,145,,-250,-250,250,250,650.0,75,M,Алексей Кириченко,1982,SBD,Juniors,Single-ply
14,Vitaliy Lyapustin,74.90,240,255,-265,255,140,147.5,-150,147.5,,-240,-240,240,240,642.5,75,M,Виталий Ляпустин,1985,SBD,Juniors,Single-ply
15,Denis Parfenov,73.95,-245,-245,245,245,160,170,175,175,,215,-225,,215,635.0,75,M,Денис Парфенов,1986,SBD,Juniors,Single-ply
16,Anatoliy Turtsin,74.50,240,250,-260,250,120,125,127.5,127.5,,-250,250,-272.5,250,627.5,75,M,Анатолий Турцин,1982,SBD,Juniors,Single-ply
17,Mikhail Beloslyudtsev,72.90,240,250,-255,250,130,-140,140,140,,210,220,225,225,615.0,75,M,Михаил Белослюдцев,1983,SBD,Juniors,Single-ply
18,Evgeniy Sarin,74.85,-230,240,-245,240,140,-145,145,145,,230,-250,-250,230,615.0,75,M,Евгений Сарин,1981,SBD,Juniors,Single-ply
19,Aleksey Markov,74.05,-220,220,-230,220,130,-135,,130,,200,-210,,200,550.0,75,M,Алексей Марков,1983,SBD,Juniors,Single-ply
DQ,Artem Korotygin,74.65,-280,-280,-280,,,,,,,,,,,,75,M,Артем Коротыгин,1980,S,Juniors,Single-ply
DQ,Stepan Nikiforov,74.55,-260,-260,-260,,,,,,,,,,,,75,M,Степан Никифоров,1981,S,Juniors,Single-ply
1,Konstantin Lebedko,82.50,315,325,330,330,197.5,205,210,210,,275,290,300,300,840.0,82.5,M,Константин Лебедко,1981,SBD,Juniors,Single-ply
2,Pavel Ozerov,79.30,-305,-305,305,305,195,207.5,215,215,,-290,295,-320,295,815.0,82.5,M,Павел Озеров,1980,SBD,Juniors,Single-ply
3,Nikolay Kozlovskiy,82.30,272.5,290,295,295,170,180,187.5,187.5,,270,295,302.5,302.5,785.0,82.5,M,Николай Козловский,1981,SBD,Juniors,Single-ply
4,Aleksandr Zhevtun,79.75,290,-297.5,300,300,160,170,175,175,,285,300,307.5,307.5,782.5,82.5,M,Александр Жевтун,1980,SBD,Juniors,Single-ply
5,Vadim Zamornikov,82.00,-290,295,305,305,160,170,172.5,172.5,,295,307.5,-317.5,307.5,785.0,82.5,M,Вадим Заморников,1982,SBD,Juniors,Single-ply
6,Denis Ryabov,81.50,-290,290,300,300,170,180,-185,180,,270,-285,-285,270,750.0,82.5,M,Денис Рябов,1983,SBD,Juniors,Single-ply
7,Roman Smolyar,81.95,280,290,-300,290,170,180,-187.5,180,,270,277.5,-282.5,277.5,747.5,82.5,M,Роман Смоляр,1983,SBD,Juniors,Single-ply
8,Roman Pinskiy,81.75,-270,-270,270,270,170,180,185,185,,-270,270,290,290,745.0,82.5,M,Роман Пинский,1980,SBD,Juniors,Single-ply
9,Evgeniy Kirichenko,81.80,300,-315,-315,300,-155,155,-160,155,,275,290,-300,290,745.0,82.5,M,Евгений Кириченко,1981,SBD,Juniors,Single-ply
10,Aleksandr Pupyshev,81.60,275,290,-295,290,170,180,-185,180,,270,,,270,740.0,82.5,M,Александр Пупышев,1982,SBD,Juniors,Single-ply
11,Aleksandr Koshkin,79.50,-240,240,250,250,185,195,-200,195,,-240,250,260,260,705.0,82.5,M,Александр Кошкин,1982,SBD,Juniors,Single-ply
12,Mikhail Nosarev,81.40,260,270,-275,270,-150,150,155,155,,260,270,280,280,705.0,82.5,M,Михаил Носарев,1984,SBD,Juniors,Single-ply
13,Nikolay Randin,81.50,250,270,282.5,282.5,162.5,170,-177.5,170,,250,-270,-270,250,702.5,82.5,M,Николай Рандин,1984,SBD,Juniors,Single-ply
14,Evgeniy Vrublevskiy,79.10,260,270,275,275,145,150,155,155,,260,265,-267.5,265,695.0,82.5,M,Евгений Врублевский,1981,SBD,Juniors,Single-ply
15,Denis Scherbakov,81.20,-250,250,260,260,-160,160,167.5,167.5,,250,267.5,-272.5,267.5,695.0,82.5,M,Денис Щербаков,1982,SBD,Juniors,Single-ply
16,Aleksandr Glovinov,82.10,260,270,-280,270,150,-157.5,157.5,157.5,,240,-250,-250,240,667.5,82.5,M,Александр Голованов,1983,SBD,Juniors,Single-ply
17,Aleksey Semyanov,81.05,240,250,260,260,-130,140,145,145,,250,-270,-270,250,655.0,82.5,M,Алексей Семьянов,1981,SBD,Juniors,Single-ply
18,Dmitriy Evdokimov,80.20,-230,230,-240,230,132.5,-137.5,-140,132.5,,255,-262.5,-262.5,255,617.5,82.5,M,Дмитрий Евдокимов,1980,SBD,Juniors,Single-ply
DQ,Aleksandr Kononov,82.30,,,,,,,,,,,,,,,82.5,M,Александр Кононов,1984,SBD,Juniors,Single-ply
DQ,Viktor Solonar,82.20,,,,,,,,,,,,,,,82.5,M,Виктор Солонарь,1985,SBD,Juniors,Single-ply
1,Konstantin Ganovsky,89.85,285,300,312.5,312.5,185,197.5,205,205,,300,320,-342.5,320,837.5,90,M,Константин Гановский,1982,SBD,Juniors,Single-ply
2,Maksim Unt,89.95,305,320,-332.5,320,175,182.5,-190,182.5,,290,310,315,315,817.5,90,M,Максим Унт,1981,SBD,Juniors,Single-ply
3,Maksim Zubok,89.75,315,-332.5,332.5,332.5,200,-210,210,210,,-250,250,265,265,807.5,90,M,Максим Зубок,1980,SBD,Juniors,Single-ply
4,Pavel Isakov,89.30,290,310,320,320,-185,185,-190,185,,290,300,-310,300,805.0,90,M,Павел Исаков,1980,SBD,Juniors,Single-ply
5,Roman Kovalenko,89.75,310,325,333,333,-150,-150,155,155,,310,-320,-320,310,798.0,90,M,Роман Коваленко,1980,SBD,Juniors,Single-ply
6,Alexander Maximov,88.55,310,-332.5,-333,310,170,177.5,-182.5,177.5,,-300,300,-317.5,300,787.5,90,M,Александр Максимов,1984,SBD,Juniors,Single-ply
7,Andrey Ionov,89.35,-305,305,315,315,172.5,177.5,180,180,,285,-292.5,-292.5,285,780.0,90,M,Андрей Ионов,1984,SBD,Juniors,Single-ply
8,Arsen Abdulkarimov,87.65,300,-330,-330,300,165,180,187.5,187.5,,290,-317.5,-317.5,290,777.5,90,M,Арсен Абдулкаримов,1982,SBD,Juniors,Single-ply
9,Dmitriy Saltykov,88.20,290,310,-317.5,310,170,180,185,185,,280,-300,-300,280,775.0,90,M,Дмитрий Салтыков,1984,SBD,Juniors,Single-ply
10,Igor Rudnev,89.50,275,287.5,-290,287.5,190,200,,200,,270,280,-287.5,280,767.5,90,M,Игорь Руднев,1983,SBD,Juniors,Single-ply
11,Konstantin Pozdeev,87.00,305,-315,-320,305,160,-167.5,-167.5,160,,300,-315,-320,300,765.0,90,M,Константин Поздеев,1984,SBD,Juniors,Single-ply
12,Evgeniy Podyablonskiy,90.00,280,292.5,297.5,297.5,-182.5,182.5,-192.5,182.5,,265,285,-287.5,285,765.0,90,M,Евгений Подъяблонский,1982,SBD,Juniors,Single-ply
13,Stanislav Karev,89.55,280,-295,300,300,165,-175,180,180,,270,280,-290,280,760.0,90,M,Станислав Карев,1982,SBD,Juniors,Single-ply
14,Viktor Koltakov,89.55,250,260,-265,260,165,170,175,175,,270,285,295,295,730.0,90,M,Виктор Колтаков,1981,SBD,Juniors,Single-ply
15,Evgeniy Besprozvannykh,87.35,255,-265,265,265,165,175,177.5,177.5,,255,-265,265,265,707.5,90,M,Евгений Беспрозванных,1981,SBD,Juniors,Single-ply
16,Andrey Pankov #1,88.55,250,265,275,275,155,165,175,175,,230,240,-245,240,690.0,90,M,Андрей Паньков,1986,SBD,Juniors,Single-ply
1,Alexander Butov,99.50,340,-360,360,360,210,220,225,225,,320,335,-345,335,920.0,100,M,Александр Бутов,1981,SBD,Juniors,Single-ply
2,Vladimir Rudenko,99.45,340,350,-360,350,215,220,,220,,-310,-310,310,310,880.0,100,M,Владимир Руденко,1981,SBD,Juniors,Single-ply
3,Aleksandr Kotenko,99.70,330,350,360,360,175,187.5,-192.5,187.5,,290,302.5,312.5,312.5,860.0,100,M,Александр Котенко,1981,SBD,Juniors,Single-ply
4,Egor Filatov,99.00,290,305,320,320,170,175,177.5,177.5,,340,350,-365,350,847.5,100,M,Егор Филатов,1980,SBD,Juniors,Single-ply
5,Roman Gavrusik,98.50,300,-320,320,320,195,207.5,212.5,212.5,,290,-307.5,-307.5,290,822.5,100,M,Роман Гаврусик,1982,SBD,Juniors,Single-ply
6,Aleksandr Chanchikov,97.70,290,300,307.5,307.5,175,185,-192.5,185,,290,300,-305,300,792.5,100,M,Александр Чанчиков,1980,SBD,Juniors,Single-ply
7,Ildar Gilfanov,99.40,300,-317.5,-317.5,300,175,185,192.5,192.5,,300,-315,-320,300,792.5,100,M,Ильдар Гильфанов,1982,SBD,Juniors,Single-ply
8,Artem Guseletov,91.50,280,290,-300,290,160,170,180,180,,280,290,-300,290,760.0,100,M,Артем Гуселетов,1981,SBD,Juniors,Single-ply
9,Aleksandr Musokhranov,95.85,-280,280,290,290,155,165,175,175,,250,270,-285,270,735.0,100,M,Александр Мусохранов,1980,SBD,Juniors,Single-ply
10,Ilya Dmitriev,99.45,265,-275,-280,265,165,175,-185,175,,255,265,-275,265,705.0,100,M,Илья Дмитриев,1984,SBD,Juniors,Single-ply
DQ,Andrey Mikhaylov,99.55,-270,-270,270,270,130,-140,-145,130,,,,,,,100,M,Андрей Михайлов,1984,SB,Juniors,Single-ply
1,Vladimir Kotkov,106.70,340,-360,360,360,215,222.5,227.5,227.5,,312.5,322.5,330,330,917.5,110,M,Владимир Котков,1980,SBD,Juniors,Single-ply
2,Denis Bukhtoyarov,106.60,340,350,-360,350,200,-210,210,210,,300,320,330,330,890.0,110,M,Денис Бухтояров,1980,SBD,Juniors,Single-ply
3,Lev Levchenko,103.30,320,335,345,345,185,195,205,205,,300,325,-340,325,875.0,110,M,Лев Левченко,1981,SBD,Juniors,Single-ply
4,Stanislav Mikhaylov #1,105.30,330,-345,-345,330,-185,185,195,195,,300,315,-320,315,840.0,110,M,Станислав Михайлов,1980,SBD,Juniors,Single-ply
5,Azat Nafikov,109.80,280,295,-305,295,200,215,225,225,,255,270,285,285,805.0,110,M,Азат Нафиков,1982,SBD,Juniors,Single-ply
6,Aleksey Zaglyada,104.95,320,-330,-330,320,200,207.5,-210,207.5,,272.5,-280,-280,272.5,800.0,110,M,Алексей Загляда,1983,SBD,Juniors,Single-ply
7,Aleksandr Gritsay,107.15,280,300,-315,300,-190,190,197.5,197.5,,255,-272.5,-272.5,255,752.5,110,M,Александр Грицай,1984,SBD,Juniors,Single-ply
8,Yuriy Musikhin,108.00,270,290,-300,290,165,172.5,-177.5,172.5,,275,-307.5,,275,737.5,110,M,Юрий Мусихин,1984,SBD,Juniors,Single-ply
1,Igor Medvedev,111.20,350,365,375,375,230,242.5,251,251,255,320,337.5,-350,337.5,963.5,125,M,Игорь Медведев,1980,SBD,Juniors,Single-ply
2,Roman Melnikov,115.80,330,340,-350,340,205,212.5,215,215,,260,270,-275,270,825.0,125,M,Роман Мельников,1983,SBD,Juniors,Single-ply
3,Mikhail Shpak,122.50,-300,300,320,320,190,-200,-200,190,,-280,280,290,290,800.0,125,M,Михаил Шпак,1980,SBD,Juniors,Single-ply
4,Anatoliy Fokin,122.70,280,290,300,300,180,190,200,200,,270,285,-295,285,785.0,125,M,Анатолий Фокин,1982,SBD,Juniors,Single-ply
5,Dmitriy Rakhimov,124.00,270,290,302.5,302.5,200,207.5,-212.5,207.5,,260,275,-282.5,275,785.0,125,M,Дмитрий Рахимов,1980,SBD,Juniors,Single-ply
6,Aleksey Shevchenko,112.00,280,-295,295,295,165,175,180,180,,235,250,-257.5,250,725.0,125,M,Алексей Шевченко,1982,SBD,Juniors,Single-ply
1,Anton Kibirev,125.10,330,350,360,360,200,215,225,225,,292.5,315,325,325,910.0,125+,M,Антон Кибирев,1982,SBD,Juniors,Single-ply
2,Aleksey Pankov,125.80,-320,320,330,330,205,215,220,220,,330,-352.5,-352.5,330,880.0,125+,M,Алексей Панков,1983,SBD,Juniors,Single-ply
3,Aleksandr Kashtanov,135.70,320,-335,335,335,215,-225,227.5,227.5,,280,300,-305,300,862.5,125+,M,Александр Каштанов,1981,SBD,Juniors,Single-ply
4,Vyacheslav Aksenov,131.50,312.5,-327.5,327.5,327.5,200,210,-212.5,210,,290,307.5,,307.5,845.0,125+,M,Вячеслав Аксенов,1981,SBD,Juniors,Single-ply
5,Aleksandr Belikov,131.60,305,-315,325,325,190,200,205,205,,295,310,315,315,845.0,125+,M,Александр Беликов,1982,SBD,Juniors,Single-ply
6,Dmitriy Skachkov,142.00,335,-345,-345,335,202.5,210,-215,210,,-300,300,-320,300,845.0,125+,M,Дмитрий Скачков,1982,SBD,Juniors,Single-ply
7,Denis Dryanov,126.00,270,285,300,300,180,195,210,210,,265,290,300,300,810.0,125+,M,Денис Дрянов,1984,SBD,Juniors,Single-ply
8,Konstantin Sarakhanov,140.30,260,275,285,285,180,185,-190,185,,210,230,-240,230,700.0,125+,M,Константин Сараханов,1981,SBD,Juniors,Single-ply
9,Sergey Plakhotyuk,131.00,170,-200,200,200,90,100,107.5,107.5,,180,-195,195,195,502.5,125+,M,Сергей Плахотюк,1984,SBD,Juniors,Single-ply
1,Valentina Vermenyuk,43.60,120,125,-130,125,60,65,-67.5,65,,125,135,142.5,142.5,332.5,44,F,Валентина Верменюк,1986,SBD,Juniors,Single-ply
2,Yana Zadorina,44.00,125,130,137.5,137.5,67.5,72.5,-75,72.5,,105,115,122.5,122.5,332.5,44,F,Яна Задорина,1982,SBD,Juniors,Single-ply
3,Elena Neverova,43.60,120,-125,-125,120,-70,-70,70,70,,115,122.5,127.5,127.5,317.5,44,F,Елена Неверова,1981,SBD,Juniors,Single-ply
4,Marina Glazova,43.15,115,122.5,-127.5,122.5,50,55,-60,55,,120,130,-140,130,307.5,44,F,Марина Глазова,1982,SBD,Juniors,Single-ply
5,Tatyana Savchenko,40.95,105,112.5,117.5,117.5,-45,47.5,-55,47.5,,105,112.5,115,115,280.0,44,F,Татьяна Савченко,1981,SBD,Juniors,Single-ply
6,Tatyana Fedorova,43.45,92.5,97.5,100,100,40,-45,-45,40,,95,-105,-105,95,235.0,44,F,Татьяна Федорова,1985,SBD,Juniors,Single-ply
1,Natalya Tokareva,48.00,145,155,160,160,-70,72.5,-75,72.5,,122.5,132.5,-137.5,132.5,365.0,48,F,Наталья Токарева,1984,SBD,Juniors,Single-ply
2,Nadezhda Vaganova,47.50,110,120,130,130,75,80,85,85,,110,-120,125,125,340.0,48,F,Надежда Ваганова,1983,SBD,Juniors,Single-ply
3,Natalya Mazilova,47.45,-125,125,132.5,132.5,60,-62.5,62.5,62.5,,125,135,140,140,335.0,48,F,Наталья Мазилова,1986,SBD,Juniors,Single-ply
4,Oksana Pochinkina-Sokovnina,46.80,127.5,135,-140,135,-70,72.5,77.5,77.5,,110,117.5,120,120,332.5,48,F,Оксана Починкина-Соковнина,1986,SBD,Juniors,Single-ply
5,Inna Borisova,48.00,107.5,117.5,-120,117.5,55,57.5,60,60,,120,125,130,130,307.5,48,F,Инна Борисова,1983,SBD,Juniors,Single-ply
6,Ekaterina Shaynova,46.90,110,-115,115,115,52.5,-57.5,57.5,57.5,,117.5,125,127.5,127.5,300.0,48,F,Екатерина Шайнова,1981,SBD,Juniors,Single-ply
7,Tatyana Koroleva,47.30,110,115,120,120,45,-50,-50,45,,125,-135,-135,125,290.0,48,F,Татьяна Королёва,1986,SBD,Juniors,Single-ply
8,Elena Serebryakova,47.80,107.5,112.5,120,120,52.5,57.5,60,60,,-100,102.5,110,110,290.0,48,F,Елена Серебрякова,1984,SBD,Juniors,Single-ply
9,Anastasiya Marchenko,47.70,105,110,-112.5,110,47.5,50,-52.5,50,,105,110,,110,270.0,48,F,Анастасія Марченко,1986,SBD,Juniors,Single-ply
10,Tatyana Rogozhnikova,47.60,90,97.5,107.5,107.5,47.5,-55,-55,47.5,,100,110,-115,110,265.0,48,F,Татьяна Рогожникова,1982,SBD,Juniors,Single-ply
11,Anastasiya Nefedova,47.70,102.5,107.5,-110,107.5,50,-52.5,-52.5,50,,105,-112.5,-112.5,105,262.5,48,F,Анастасия Нефедова,1981,SBD,Juniors,Single-ply
1,Inna Tairova,51.95,150,160,170,170,87.5,95,-97.5,95,,160,-170,170,170,435.0,52,F,Инна Таирова,1980,SBD,Juniors,Single-ply
2,Anna Ryzhkova,51.70,170,175,-180,175,80,85,-87.5,85,,150,155,-165,155,415.0,52,F,Анна Рыжкова,1986,SBD,Juniors,Single-ply
3,Oksana Gracheva,52.00,140,145,147.5,147.5,55,-57.5,-57.5,55,,145,152.5,157.5,157.5,360.0,52,F,Оксана Грачева,1980,SBD,Juniors,Single-ply
4,Irina Suvorova,51.60,140,-150,150,150,50,55,-57.5,55,,130,135,-140,135,340.0,52,F,Ирина Суворова,1982,SBD,Juniors,Single-ply
5,Viktoriya Lankina,51.55,-125,-125,125,125,60,62.5,65,65,,-125,125,135,135,325.0,52,F,Виктория Ланкина,1984,SBD,Juniors,Single-ply
6,Lidiya Nazarova,51.75,-122.5,122.5,-130,122.5,65,70,-72.5,70,,115,120,122.5,122.5,315.0,52,F,Лидия Назарова,1984,SBD,Juniors,Single-ply
1,Irina Poletaeva,56.00,175,-185,-185,175,115,122.5,-127.5,122.5,,170,175,-177.5,175,472.5,56,F,Ирина Полетаева,1982,SBD,Juniors,Single-ply
2,Kira Pavlovskaya,55.35,165,172.5,180,180,-92.5,92.5,-97.5,92.5,,175,180,-200,180,452.5,56,F,Кира Павловская,1983,SBD,Juniors,Single-ply
3,Olga Ustinova,55.60,160,167.5,175,175,80,85,-87.5,85,,160,-165,-165,160,420.0,56,F,Ольга Устинова,1984,SBD,Juniors,Single-ply
4,Oksana Usova,55.85,-160,160,172.5,172.5,82.5,90,95,95,,140,150,-155,150,417.5,56,F,Оксана Усова,1982,SBD,Juniors,Single-ply
5,Alena Maltseva,55.30,145,155,165,165,75,85,-90,85,,-150,160,-175,160,410.0,56,F,Алена Мальцева,1984,SBD,Juniors,Single-ply
6,Anna Muratova,55.30,150,-160,160,160,80,-85,-85,80,,140,150,,150,390.0,56,F,Анна Муратова,1982,SBD,Juniors,Single-ply
7,Yuliya Inyaeva,55.60,112.5,117.5,122.5,122.5,55,-60,-60,55,,-125,125,-142.5,125,302.5,56,F,Юлия Иняева,1982,SBD,Juniors,Single-ply
1,Natalya Barybina,59.85,180,190,192.5,192.5,110,-115,-115,110,,180,190,-200,190,492.5,60,F,Наталья Барыбина,1983,SBD,Juniors,Single-ply
2,Anastasia Sukhacheva,59.95,190,197.5,202.5,202.5,-90,95,-100,95,,190,195,-200,195,492.5,60,F,Анастасия Сухачева,1980,SBD,Juniors,Single-ply
3,Evgeniya Tomilovskaya,59.90,190,197.5,-205,197.5,95,-100,-100,95,,180,-185,-185,180,472.5,60,F,Евгения Томиловская,1982,SBD,Juniors,Single-ply
4,Natalya Igosheva,60.00,162.5,170,-175,170,102.5,107.5,112.5,112.5,,167.5,177.5,-185,177.5,460.0,60,F,Наталья Игошева,1981,SBD,Juniors,Single-ply
5,Tatyana Dolguy,60.00,165,-170,170,170,100,105,,105,,165,175,-177.5,175,450.0,60,F,Татьяна Долгуй,1980,SBD,Juniors,Single-ply
6,Tatyana Elistratova,58.70,160,-170,-170,160,95,97.5,-102.5,97.5,,165,170,-175,170,427.5,60,F,Татьяна Елистратова,1983,SBD,Juniors,Single-ply
7,Elena Romadanova,59.60,160,170,-180,170,90,-95,-95,90,,150,-160,-160,150,410.0,60,F,Елена Ромаданова,1981,SBD,Juniors,Single-ply
8,Olga Okhapkina,60.00,140,-150,150,150,67.5,-72.5,72.5,72.5,,-150,150,-160,150,372.5,60,F,Ольга Охапкина,1980,SBD,Juniors,Single-ply
9,Anastasiya Pestunova,60.00,110,-120,120,120,60,-65,-65,60,,105,115,125,125,305.0,60,F,Анастасия Пестунова,1983,SBD,Juniors,Single-ply
DQ,Oksana Pavlova,59.65,155,-165,165,165,-90,-90,-90,,,,,,,,60,F,Оксана Павлова,1983,SB,Juniors,Single-ply
1,Galina Lyubeznaya,66.05,215,230,235,235,125,132.5,-137.5,132.5,,195,-200,-202.5,195,562.5,67.5,F,Галина Любезная,1980,SBD,Juniors,Single-ply
2,Anastasia Yakovleva,65.70,210,220,-225,220,120,127.5,-130,127.5,,205,-212.5,-215,205,552.5,67.5,F,Анастасия Яковлева,1983,SBD,Juniors,Single-ply
3,Ludmila Roschina,66.40,215,227.5,232.5,232.5,110,117.5,120,120,,200,-212.5,-215,200,552.5,67.5,F,Людмила Рощина,1983,SBD,Juniors,Single-ply
4,Irina Buraya,66.45,180,-192.5,192.5,192.5,95,-105,105,105,,190,-202.5,-202.5,190,487.5,67.5,F,Ирина Бурая,1982,SBD,Juniors,Single-ply
5,Anna Valiullina,66.20,155,170,180,180,70,75,-80,75,,175,185,195,195,450.0,67.5,F,Анна Валиуллина,1984,SBD,Juniors,Single-ply
6,Yuliya Perelomova,65.15,140,150,155,155,-100,100,-110,100,,150,170,-180,170,425.0,67.5,F,Юлия Переломова,1980,SBD,Juniors,Single-ply
7,Yuliya Illarionova,62.65,150,160,-170,160,85,-90,-92.5,85,,150,155,160,160,405.0,67.5,F,Юлия Илларионова,1986,SBD,Juniors,Single-ply
8,Lyudmila Prusskaya,66.15,150,157.5,165,165,60,65,67.5,67.5,,130,140,150,150,382.5,67.5,F,Людмила Прусская,1987,SBD,Juniors,Single-ply
9,Zhanna Gorunovskaya,66.75,130,135,-140,135,57.5,60,-62.5,60,,125,-130,,125,320.0,67.5,F,Жанна Горуновская,1983,SBD,Juniors,Single-ply
1,Yulia Zaugolova,73.85,215,230,242.5,242.5,127.5,135,140,140,,205,222.5,232.5,232.5,615.0,75,F,Юлия Зауголова,1981,SBD,Juniors,Single-ply
2,Vera Kholyavina,72.00,190,200,-210,200,-115,115,120,120,,160,170,,170,490.0,75,F,Вера Холявина,1984,SBD,Juniors,Single-ply
3,Tatyana Naumova,74.15,155,165,-172.5,165,70,75,77.5,77.5,,135,142.5,150,150,392.5,75,F,Татьяна Наумова,1982,SBD,Juniors,Single-ply
DQ,Svetlana Tsvetkova,74.20,-205,-205,-205,,,,,,,,,,,,75,F,Светлана Цветкова,1980,S,Juniors,Single-ply
1,Alexandra Murashova,81.05,230,247.5,250,250,120,125,130,130,,200,212.5,220,220,600.0,82.5,F,Александра Мурашова,1982,SBD,Juniors,Single-ply
2,Alina Polyanskaya,81.40,205,215,225,225,100,105,-110,105,,180,190,195,195,525.0,82.5,F,Алина Полянская,1984,SBD,Juniors,Single-ply
3,Mariya Kazakova,75.20,170,185,200,200,110,120,127.5,127.5,,165,177.5,192.5,192.5,520.0,82.5,F,Мария Казакова,1982,SBD,Juniors,Single-ply
1,Christina Kravchenko,86.10,210,222.5,-232.5,222.5,125,137.5,145,145,,180,200,210,210,577.5,90,F,Кристина Кравченко,1982,SBD,Juniors,Single-ply
2,Natalya Savinykh,90.00,190,202.5,205,205,-90,90,95,95,,160,170,175,175,475.0,90,F,Наталья Савиных,1985,SBD,Juniors,Single-ply
3,Tamara Nekoshnova,88.25,145,155,165,165,100,110,120,120,,145,155,-165,155,440.0,90,F,Тамара Некошнова,1982,SBD,Juniors,Single-ply
4,Elena Shpilko,85.90,125,135,145,145,55,60,-62.5,60,,120,125,130,130,335.0,90,F,Елена Шпилько,1981,SBD,Juniors,Single-ply
1,Valeriya Kholodova,90.65,230,245,252.5,252.5,140,145,150,150,,200,210,220,220,622.5,90+,F,Валерия Холодова,1983,SBD,Juniors,Single-ply
2,Alexandra Rogova,99.10,160,172.5,180,180,100,107.5,112.5,112.5,,160,170,175,175,467.5,90+,F,Александра Рогова,1984,SBD,Juniors,Single-ply
3,Olga Gemaletdinova,102.10,160,170,180,180,85,-90,90,90,,172.5,182.5,-200,182.5,452.5,90+,F,Ольга Гемалетдинова,1986,SBD,Juniors,Single-ply
4,Mariya Zyryanova,93.75,70,75,80,80,40,45,-47.5,45,,90,100,107.5,107.5,232.5,90+,F,Мария Зырянова,1983,SBD,Juniors,Single-ply
