Place,Name,Sex,BirthYear,Age,BirthDate,State,Equipment,Division,BodyweightKg,WeightClassKg,Squat1Kg,Squat2Kg,Squat3Kg,Best3SquatKg,Bench1Kg,Bench2Kg,Bench3Kg,Best3BenchKg,Deadlift1Kg,Deadlift2Kg,Deadlift3Kg,Best3DeadliftKg,TotalKg,Event
1,Natali Dominguez,F,2001,,,,Single-ply,F-C,42.3,43,125,137.5,-145,137.5,75,77.5,82.5,82.5,125,132.5,137.5,137.5,357.5,SBD
1,Sally Green,F,2003,,,,Single-ply,F-C,46.7,47,115,122.5,127.5,127.5,52.5,55,-57.5,55,115,125,130,130,312.5,SBD
2,Bailey Luckman,F,1999,,,,Single-ply,F-C,46.89,47,85,90,95,95,40,-45,-45,40,85,92.5,100,100,235,SBD
1,Daniela A Echavarria,F,2000,,,,Single-ply,F-C,51,52,117.5,125,130,130,52.5,55,60,60,140,150,157.5,157.5,347.5,SBD
2,Sindy Aguilera,F,2002,,,,Single-ply,F-C,51.4,52,115,122.5,127.5,127.5,52.5,55,-57.5,55,120,132.5,-137.5,132.5,315,SBD
1,Skyleigh Sears,F,2000,,,,Single-ply,F-C,56.5,57,-185,185,192.5,192.5,90,97.5,-105,97.5,160,175,182.5,182.5,472.5,SBD
2,Xacaria Clark,F,2002,,,,Single-ply,F-C,56.2,57,150,160,165,165,75,80,85,85,165,175,180,180,430,SBD
3,Amber Saenz,F,2001,,,,Single-ply,F-C,56.7,57,137.5,150,160,160,90,95,-100,95,115,127.5,132.5,132.5,387.5,SBD
4,Jasmin Crooks,F,1999,,,,Single-ply,F-C,55.7,57,90,97.5,-105,97.5,42.5,47.5,52.5,52.5,105,117.5,125,125,275,SBD
5,Alexandria Licea,F,2002,,,,Single-ply,F-C,56.3,57,100,-110,110,110,47.5,50,-57.5,50,105,-112.5,115,115,275,SBD
DQ,Criselda Facundo,F,2001,,,,Single-ply,F-C,56,57,-182.5,182.5,-195,182.5,-117.5,-120,-120,,170,177.5,-185,177.5,,SBD
DQ,Ashlee Hernandez,F,2000,,,,Single-ply,F-C,56.7,57,-142.5,-142.5,-145,,85,90,95,95,127.5,-132.5,132.5,132.5,,SBD
1,Aaliyah Portales,F,2002,,,,Single-ply,F-C,59.6,63,162.5,172.5,-182.5,172.5,87.5,95,100,100,162.5,-170,170,170,442.5,SBD
2,Savannah McDougall,F,2001,,,,Single-ply,F-C,61.9,63,160,172.5,180,180,67.5,72.5,-75,72.5,162.5,175,-192.5,175,427.5,SBD
3,Zoey Carrico,F,2002,,,,Single-ply,F-C,62.3,63,137.5,147.5,155,155,70,75,-77.5,75,135,145,-150,145,375,SBD
4,Julie Serrano,F,2003,,,,Single-ply,F-C,62.1,63,132.5,142.5,152.5,152.5,60,65,-72.5,65,115,125,-130,125,342.5,SBD
5,Dominique de la Rosa #2,F,1999,,,,Single-ply,F-C,61.1,63,125,135,-140,135,60,65,-70,65,110,115,120,120,320,SBD
6,Alexa Cavazos,F,2003,,,,Single-ply,F-C,60.6,63,117.5,127.5,-135,127.5,37.5,42.5,52.5,52.5,90,97.5,105,105,285,SBD
1,Natalia Marquez,F,2001,,,,Single-ply,F-C,67.06,69,170,-182.5,182.5,182.5,-95,95,100,100,167.5,175,-185,175,457.5,SBD
2,Jessilyn Fuentes,F,2003,,,,Single-ply,F-C,68.41,69,140,150,157.5,157.5,72.5,80,-85,80,135,150,-165,150,387.5,SBD
3,Faith Mayse,F,2002,,,,Single-ply,F-C,68.63,69,105,-110,110,110,57.5,60,-65,60,115,117.5,120,120,290,SBD
1,Julianna Perez,F,2002,,,,Single-ply,F-C,70.69,76,167.5,175,185,185,110,117.5,127.5,127.5,152.5,160,165,165,477.5,SBD
2,Tori Contreras,F,2001,,,,Single-ply,F-C,75.4,76,-187.5,-190,195,195,-90,-92.5,92.5,92.5,152.5,157.5,-165,157.5,445,SBD
3,Alyssa Echazarreta,F,2003,,,,Single-ply,F-C,71.19,76,167.5,175,-180,175,110,-115,-117.5,110,142.5,150,155,155,440,SBD
4,Sa'mya Wallace,F,2001,,,,Single-ply,F-C,72.87,76,145,155,165,165,75,80,-82.5,80,162.5,170,-177.5,170,415,SBD
5,Danielle Barrera,F,2002,,,,Single-ply,F-C,75.1,76,115,122.5,132.5,132.5,52.5,57.5,-65,57.5,125,132.5,142.5,142.5,332.5,SBD
6,Simonne Swanson,F,2002,,,,Single-ply,F-C,72.9,76,115,125,-135,125,62.5,70,72.5,72.5,115,122.5,132.5,132.5,330,SBD
7,Carmen Lainez,F,2002,,,,Single-ply,F-C,75.06,76,97.5,-105,107.5,107.5,50,60,67.5,67.5,100,110,130,130,305,SBD
DQ,Mercedes Rodriguez,F,2001,,,,Single-ply,F-C,73.92,76,170,-185,,170,-82.5,-82.5,,,150,-165,-165,150,,SBD
1,Marissa Lutz,F,2001,,,,Single-ply,F-C,82.71,84,205,-212.5,212.5,212.5,122.5,130,137.5,137.5,170,180,-185,180,530,SBD
2,Valeria Garza,F,2003,,,,Single-ply,F-C,77.47,84,132.5,142.5,152.5,152.5,92.5,97.5,102.5,102.5,115,122.5,130,130,385,SBD
DQ,Leksi Jo Martinez,F,2003,,,,Single-ply,F-C,79.33,84,-170,170,-175,170,-105,-105,-105,,150,155,162.5,162.5,,SBD
1,Krysti Llamas,F,2001,,,,Single-ply,F-C,108.2,84+,250,-260,260,260,140,147.5,-155,147.5,175,182.5,195,195,602.5,SBD
2,Lagi Marina Ahsang,F,2003,,,,Single-ply,F-C,147.73,84+,227.5,235,245,245,125,130,-137.5,130,195,-210,210,210,585,SBD
3,Brionna Ford,F,2002,,,,Single-ply,F-C,130.38,84+,240,250,-255,250,145,150,-160,150,-180,180,-192.5,180,580,SBD
4,Alayna Searcy,F,2003,,,,Single-ply,F-C,129.3,84+,255,265,272.5,272.5,115,122.5,-130,122.5,152.5,162.5,170,170,565,SBD
5,Desiree Gonzales,F,2002,,,,Single-ply,F-C,99.1,84+,210,217.5,225,225,120,125,130,130,165,172.5,177.5,177.5,532.5,SBD
6,Malia Gonzales,F,2002,,,,Single-ply,F-C,107.7,84+,212.5,225,-230,225,112.5,122.5,130,130,162.5,-172.5,-180,162.5,517.5,SBD
7,Karina Macias,F,2000,,,,Single-ply,F-C,88.43,84+,-197.5,197.5,-205,197.5,67.5,72.5,77.5,77.5,170,180,192.5,192.5,467.5,SBD
8,Devanhi Lozano,F,2002,,,,Single-ply,F-C,85.09,84+,165,175,185,185,85,92.5,102.5,102.5,-130,135,142.5,142.5,430,SBD
9,Leah Cantu,F,2002,,,,Single-ply,F-C,111.94,84+,-187.5,187.5,-190,187.5,-102.5,102.5,107.5,107.5,112.5,117.5,125,125,420,SBD
10,Sierra Pardo,F,2002,,,,Single-ply,F-C,122.37,84+,115,122.5,140,140,57.5,65,-70,65,130,137.5,145,145,350,SBD
11,Addison Reed,F,2003,,,,Single-ply,F-C,93.1,84+,-132.5,-132.5,132.5,132.5,-70,72.5,80,80,120,127.5,132.5,132.5,345,SBD
DQ,Bennett Welch,F,2003,,,,Single-ply,F-C,104.44,84+,150,157.5,165,165,-102.5,-107.5,-110,,155,160,165,165,,SBD
G,Kaylee Longoria,F,2003,,,,Single-ply,F-G,57.46,63,-95,-100,100,100,55,60,62.5,62.5,112.5,120,127.5,127.5,290,SBD
DQ,Gabriela Parra,F,2003,,,,Single-ply,F-G,57.9,63,-135,140,-145,140,-60,-60,-60,,117.5,120,-125,120,,SBD
1,Regina Chen,F,2000,,,,Raw,FR-C,46.8,47,85,90,92.5,92.5,57.5,62.5,-65,62.5,110,120,-125,120,275,SBD
2,Cynthia Gonzalez,F,1999,,,,Raw,FR-C,46.4,47,87.5,92.5,100,100,47.5,52.5,55,55,97.5,102.5,-107.5,102.5,257.5,SBD
3,Mia Macias,F,2002,,,,Raw,FR-C,46.2,47,100,-112.5,-112.5,100,47.5,-50,-50,47.5,97.5,102.5,-110,102.5,250,SBD
4,Kira Jones-Parker,F,2001,,,,Raw,FR-C,45.1,47,55,60,62.5,62.5,30,35,-37.5,35,45,47.5,-57.5,47.5,145,SBD
1,Raquel Longoria,F,2000,,,,Raw,FR-C,50.6,52,100,105,-110,105,52.5,-57.5,57.5,57.5,115,127.5,-132.5,127.5,290,SBD
2,Hannah Wolfmueller,F,2000,,,,Raw,FR-C,50.8,52,92.5,100,-107.5,100,52.5,57.5,-62.5,57.5,122.5,127.5,-132.5,127.5,285,SBD
3,Annabelle Butts,F,2000,,,,Raw,FR-C,49.7,52,77.5,85,-87.5,85,52.5,57.5,60,60,120,-125,125,125,270,SBD
4,Jailene Williams,F,1998,,,,Raw,FR-C,51.2,52,72.5,77.5,82.5,82.5,35,40,47.5,47.5,85,92.5,102.5,102.5,232.5,SBD
5,Itzanna Echeverria,F,2000,,,,Raw,FR-C,51.6,52,80,-87.5,87.5,87.5,45,50,-55,50,85,90,92.5,92.5,230,SBD
1,Destinie' Small,F,2000,,,,Raw,FR-C,55.92,57,100,107.5,115,115,62.5,67.5,-72.5,67.5,125,132.5,140,140,322.5,SBD
2,Athena Moore,F,2001,,,,Raw,FR-C,55.88,57,105,-115,115,115,60,65,-67.5,65,125,132.5,-142.5,132.5,312.5,SBD
3,Laura Bui,F,2000,,,,Raw,FR-C,56.31,57,90,95,102.5,102.5,45,50,52.5,52.5,130,140,147.5,147.5,302.5,SBD
4,Larissa Villanueva,F,1997,,,,Raw,FR-C,56.5,57,82.5,87.5,-92.5,87.5,57.5,62.5,67.5,67.5,120,130,140,140,295,SBD
5,Hailey Kopp,F,2002,,,,Raw,FR-C,56.67,57,95,100,-105,100,62.5,67.5,70,70,122.5,-127.5,-127.5,122.5,292.5,SBD
6,Alexandria Luna,F,2003,,,,Raw,FR-C,55.07,57,100,107.5,-112.5,107.5,55,62.5,-65,62.5,110,117.5,120,120,290,SBD
7,Natalie Dear,F,2001,,,,Raw,FR-C,54.67,57,95,105,-115,105,45,52.5,-57.5,52.5,112.5,122.5,-132.5,122.5,280,SBD
8,Reese Roberts,F,2003,,,,Raw,FR-C,53.54,57,95,102.5,112.5,112.5,50,55,-57.5,55,-100,105,-120,105,272.5,SBD
9,Ella Branson,F,2002,,,,Raw,FR-C,55.95,57,-95,95,100,100,50,-52.5,52.5,52.5,102.5,-110,110,110,262.5,SBD
10,Gianna Hernandez,F,2003,,,,Raw,FR-C,56.17,57,90,97.5,-105,97.5,37.5,45,-50,45,105,115,120,120,262.5,SBD
11,Emily Wylie,F,1998,,,,Raw,FR-C,55.63,57,72.5,80,87.5,87.5,50,55,-60,55,95,102.5,110,110,252.5,SBD
12,Kimberly Do,F,1999,,,,Raw,FR-C,54.56,57,75,82.5,90,90,40,45,-50,45,95,102.5,-110,102.5,237.5,SBD
1,Mandy Ogoe,F,2001,,,,Raw,FR-C,60.68,63,147.5,155,162.5,162.5,60,65,67.5,67.5,145,157.5,165,165,395,SBD
2,Rebecca Rosado,F,2001,,,,Raw,FR-C,61.58,63,107.5,112.5,117.5,117.5,62.5,65,-67.5,65,132.5,140,145,145,327.5,SBD
3,Mariana Aguilar,F,2000,,,,Raw,FR-C,60.85,63,95,105,110,110,60,65,70,70,120,130,140,140,320,SBD
4,Jessica Cluck-Keeney,F,2002,,,,Raw,FR-C,61.06,63,107.5,112.5,117.5,117.5,55,-60,-60,55,127.5,135,-140,135,307.5,SBD
5,Valerie Lopez,F,2000,,,,Raw,FR-C,60.83,63,102.5,-112.5,112.5,112.5,52.5,57.5,-62.5,57.5,102.5,112.5,122.5,122.5,292.5,SBD
6,Mckenna Ayers,F,1998,,,,Raw,FR-C,59.74,63,97.5,102.5,107.5,107.5,50,-57.5,-57.5,50,112.5,117.5,122.5,122.5,280,SBD
7,Analysa Munoz,F,2002,,,,Raw,FR-C,62.83,63,-97.5,97.5,-102.5,97.5,47.5,52.5,-55,52.5,120,127.5,130,130,280,SBD
8,Christy Vo,F,2003,,,,Raw,FR-C,58.39,63,92.5,97.5,-102.5,97.5,40,45,-52.5,45,-107.5,112.5,120,120,262.5,SBD
9,Nancy Ayanugo,F,2001,,,,Raw,FR-C,61.96,63,65,72.5,80,80,-32.5,35,40,40,80,87.5,97.5,97.5,217.5,SBD
10,Lily Patiño,F,2000,,,,Raw,FR-C,61.99,63,75,85,-90,85,40,-45,-45,40,85,92.5,-97.5,92.5,217.5,SBD
11,Jenna Raggio,F,2002,,,,Raw,FR-C,62,63,45,-60,70,70,40,45,-50,45,70,77.5,-85,77.5,192.5,SBD
12,Lucy Law,F,2001,,,,Raw,FR-C,60.88,63,57.5,65,70,70,30,-35,37.5,37.5,60,70,-77.5,70,177.5,SBD
1,Katelyn Staley,F,2004,,,,Raw,FR-C,68.04,69,152.5,162.5,170,170,80,82.5,85,85,145,152.5,160,160,415,SBD
2,Judith Arias,F,2001,,,,Raw,FR-C,65.5,69,132.5,140,152.5,152.5,77.5,82.5,-87.5,82.5,132.5,142.5,-152.5,142.5,377.5,SBD
3,Madelyn Dailey,F,2002,,,,Raw,FR-C,68.85,69,155,162.5,-167.5,162.5,52.5,-57.5,-57.5,52.5,152.5,160,-167.5,160,375,SBD
4,Ariel Johnson,F,2001,,,,Raw,FR-C,65.44,69,92.5,102.5,110,110,60,65,-70,65,165,172.5,180,180,355,SBD
5,Gianna Aleman,F,2003,,,,Raw,FR-C,66.58,69,110,-117.5,117.5,117.5,-80,85,-90,85,125,137.5,147.5,147.5,350,SBD
6,Morgan Carr,F,1999,,,,Raw,FR-C,68.43,69,92.5,107.5,122.5,122.5,52.5,60,-65,60,125,132.5,137.5,137.5,320,SBD
7,Lauryn Sanchez,F,2000,,,,Raw,FR-C,67.79,69,100,110,-115,110,55,60,-65,60,115,127.5,-137.5,127.5,297.5,SBD
8,Jasmin Campbell,F,2003,,,,Raw,FR-C,67.4,69,105,110,117.5,117.5,42.5,47.5,-52.5,47.5,120,125,-130,125,290,SBD
9,Madeline Helton,F,2003,,,,Raw,FR-C,66.74,69,90,95,100,100,60,62.5,65,65,105,112.5,117.5,117.5,282.5,SBD
10,Sophie Radi,F,2002,,,,Raw,FR-C,63.89,69,95,-110,-110,95,37.5,40,-42.5,40,117.5,125,132.5,132.5,267.5,SBD
11,Jacqueline McClendon,F,2003,,,,Raw,FR-C,67.54,69,102.5,-107.5,107.5,107.5,35,40,-42.5,40,105,110,115,115,262.5,SBD
DQ,Kennedy Hawkins,F,2003,,,,Raw,FR-C,67.22,69,87.5,-92.5,95,95,-52.5,-52.5,-52.5,,115,122.5,130,130,,SBD
1,Britney George,F,2000,,,,Raw,FR-C,74.45,76,147.5,157.5,162.5,162.5,82.5,87.5,-92.5,87.5,162.5,172.5,175,175,425,SBD
2,Gabriela Uriegas,F,2001,,,,Raw,FR-C,75.8,76,135,142.5,-150,142.5,67.5,72.5,75,75,150,-157.5,-157.5,150,367.5,SBD
3,Jaclyn Benavides,F,1998,,,,Raw,FR-C,75.18,76,130,137.5,140,140,57.5,62.5,-67.5,62.5,140,147.5,155,155,357.5,SBD
4,Sarah Fisher,F,1999,,,,Raw,FR-C,73.16,76,107.5,115,120,120,72.5,75,77.5,77.5,127.5,135,142.5,142.5,340,SBD
5,Kayla Hernandez,F,2002,,,,Raw,FR-C,73.45,76,110,-115,-115,110,-57.5,57.5,60,60,130,137.5,145,145,315,SBD
6,Mahlah Dowdy,F,2002,,,,Raw,FR-C,74.14,76,95,100,-112.5,100,52.5,55,-57.5,55,112.5,122.5,137.5,137.5,292.5,SBD
7,Alyssa Almanzar,F,2003,,,,Raw,FR-C,72.88,76,87.5,95,100,100,50,55,-60,55,102.5,110,120,120,275,SBD
8,Sarina Garza,F,2002,,,,Raw,FR-C,72.5,76,100,105,-112.5,105,47.5,52.5,-55,52.5,95,100,102.5,102.5,260,SBD
1,Layla Soto,F,2001,,,,Raw,FR-C,81.11,84,172.5,180,187.5,187.5,90,97.5,102.5,102.5,167.5,177.5,-182.5,177.5,467.5,SBD
2,Hailey Morgan,F,1999,,,,Raw,FR-C,81.49,84,115,122.5,127.5,127.5,60,65,72.5,72.5,132.5,140,-145,140,340,SBD
3,Elsa Vasquez,F,2000,,,,Raw,FR-C,82.08,84,115,122.5,130,130,57.5,62.5,-65,62.5,127.5,135,145,145,337.5,SBD
4,Rayna Webb,F,2000,,,,Raw,FR-C,83.56,84,130,135,140,140,60,62.5,65,65,117.5,122.5,-125,122.5,327.5,SBD
5,Lindsey Foushee,F,2002,,,,Raw,FR-C,78.81,84,107.5,112.5,-115,112.5,52.5,55,-60,55,130,-137.5,-137.5,130,297.5,SBD
6,Zoe Frausto,F,2003,,,,Raw,FR-C,83.19,84,80,85,-90,85,50,52.5,55,55,130,132.5,-137.5,132.5,272.5,SBD
1,Bethany Gonzales,F,2002,,,,Raw,FR-C,150,84+,182.5,190,197.5,197.5,100,105,115,115,182.5,190,200,200,512.5,SBD
2,Caitlin Terrazas,F,1998,,,,Raw,FR-C,91.72,84+,137.5,150,-160,150,77.5,87.5,-92.5,87.5,145,152.5,162.5,162.5,400,SBD
3,Andrea Torres,F,2000,,,,Raw,FR-C,106.08,84+,137.5,142.5,150,150,70,77.5,-82.5,77.5,145,155,162.5,162.5,390,SBD
4,Emily Ortiz,F,2002,,,,Raw,FR-C,103.77,84+,142.5,155,-165,155,62.5,67.5,72.5,72.5,140,147.5,-155,147.5,375,SBD
5,Natali Sanchez,F,2003,,,,Raw,FR-C,101.54,84+,125,135,150,150,52.5,57.5,-60,57.5,135,142.5,150,150,357.5,SBD
6,Stacy Perez-Maldonado,F,2002,,,,Raw,FR-C,103.57,84+,130,142.5,-150,142.5,45,50,55,55,132.5,140,147.5,147.5,345,SBD
7,Shaylin Ardoin,F,2001,,,,Raw,FR-C,89.68,84+,125,132.5,140,140,65,-70,-70,65,127.5,137.5,-145,137.5,342.5,SBD
8,Lilliana Ontiveros,F,1999,,,,Raw,FR-C,90.77,84+,132.5,-137.5,-137.5,132.5,52.5,55,-57.5,55,127.5,132.5,142.5,142.5,330,SBD
9,Rachel Harville,F,2002,,,,Raw,FR-C,124.18,84+,107.5,112.5,125,125,47.5,-55,-55,47.5,115,120,-130,120,292.5,SBD
10,Mercedes Puente,F,2002,,,,Raw,FR-C,107.9,84+,80,92.5,-102.5,92.5,47.5,52.5,60,60,77.5,87.5,100,100,252.5,SBD
G,Alessa Luna,F,2001,,,,Raw,FR-G,57.1,63,50,52.5,57.5,57.5,25,30,37.5,37.5,60,75,87.5,87.5,182.5,SBD
DQ,Whitley Jourden,F,2002,,,,Raw,FR-G,60.06,63,-55,-57.5,-57.5,,32.5,35,-40,35,62.5,-72.5,-72.5,62.5,,SBD
1,Austin Cuthbertson,M,2002,,,,Single-ply,M-C,52.3,53,182.5,-195,-205,182.5,100,-102.5,-102.5,100,155,165,-172.5,165,447.5,SBD
1,Chase Chapa,M,2002,,,,Single-ply,M-C,58.3,59,200,210,215,215,-115,115,127.5,127.5,205,220,235,235,577.5,SBD
2,Christopher Medina Jr,M,2001,,,,Single-ply,M-C,54.6,59,177.5,187.5,195,195,100,107.5,-112.5,107.5,180,187.5,192.5,192.5,495,SBD
3,Erick Estrella,M,2003,,,,Single-ply,M-C,58.8,59,175,182.5,190,190,100,107.5,112.5,112.5,185,190,-197.5,190,492.5,SBD
4,Zaniel Florez,M,2003,,,,Single-ply,M-C,58,59,175,185,195,195,90,-100,105,105,175,185,-190,185,485,SBD
5,Samuel Collier,M,2001,,,,Single-ply,M-C,55,59,152.5,160,-167.5,160,120,125,-127.5,125,170,180,-212.5,180,465,SBD
1,Jordan Wilkerson,M,2002,,,,Single-ply,M-C,64.4,66,232.5,242.5,-252.5,242.5,-142.5,142.5,152.5,152.5,240,252.5,-262.5,252.5,647.5,SBD
2,Kain Gala,M,2002,,,,Single-ply,M-C,63.9,66,150,165,182.5,182.5,125,-135,-135,125,200,212.5,,212.5,520,SBD
3,Taqi Hossain,M,2001,,,,Single-ply,M-C,62.8,66,110,117.5,125,125,-85,85,87.5,87.5,125,135,147.5,147.5,360,SBD
1,Brandin Carballo,M,1999,,,,Single-ply,M-C,67.9,74,255,265,277.5,277.5,135,142.5,145,145,260,277.5,285,285,707.5,SBD
2,Moises Amaro,M,2002,,,,Single-ply,M-C,72.2,74,250,262.5,282.5,282.5,172.5,182.5,187.5,187.5,215,225,-230,225,695,SBD
3,Jinwoo Kim,M,2000,,,,Single-ply,M-C,72.7,74,250,257.5,265,265,127.5,135,142.5,142.5,225,237.5,-250,237.5,645,SBD
4,Junji Chen,M,2002,,,,Single-ply,M-C,73,74,165,175,182.5,182.5,105,112.5,-117.5,112.5,205,217.5,-230,217.5,512.5,SBD
DQ,Zach Landau,M,1999,,,,Single-ply,M-C,72.9,74,200,212.5,222.5,222.5,-140,-140,-140,,222.5,235,-250,235,,SBD
1,Hunter Metzger,M,2002,,,,Single-ply,M-C,82.9,83,287.5,302.5,317.5,317.5,145,155,162.5,162.5,265,275,-285,275,755,SBD
2,Kevin Cervantes,M,1999,,,,Single-ply,M-C,81.3,83,225,237.5,247.5,247.5,-165,165,170,170,210,225,235,235,652.5,SBD
3,Christian Weaver,M,2002,,,,Single-ply,M-C,80.9,83,220,235,240,240,127.5,135,-137.5,135,210,-217.5,-217.5,210,585,SBD
1,Obed Hernandez,M,2001,,,,Single-ply,M-C,92.9,93,315,330,340,340,235,-240,-240,235,285,-297.5,-297.5,285,860,SBD
2,Larry Strickland,M,2003,,,,Single-ply,M-C,90.1,93,270,292.5,302.5,302.5,140,150,155,155,265,277.5,282.5,282.5,740,SBD
3,William Hathaway,M,1998,,,,Single-ply,M-C,90.7,93,260,-272.5,272.5,272.5,150,160,-177.5,160,237.5,247.5,-252.5,247.5,680,SBD
4,Joseph Torres,M,1999,,,,Single-ply,M-C,85.7,93,205,215,227.5,227.5,25,,,25,200,215,227.5,227.5,480,SBD
1,Jaime Rios #3,M,2001,,,,Single-ply,M-C,103.7,105,310,320,327.5,327.5,195,205,215,215,240,250,265,265,807.5,SBD
2,Isaac Vielma,M,2001,,,,Single-ply,M-C,103.5,105,237.5,-250,-252.5,237.5,-140,142.5,155,155,235,255,265,265,657.5,SBD
3,Zachary Whitley,M,1998,,,,Single-ply,M-C,96.9,105,217.5,225,245,245,145,150,152.5,152.5,225,245,-260,245,642.5,SBD
4,Kyrill Orellana,M,1999,,,,Single-ply,M-C,102.9,105,200,-212.5,-215,200,142.5,152.5,160,160,-180,180,225,225,585,SBD
5,Cameron Bridges,M,2000,,,,Single-ply,M-C,94.6,105,210,220,225,225,120,130,-137.5,130,190,200,-210,200,555,SBD
1,Johnlou Bernard Reyes,M,2001,,,,Single-ply,M-C,117.7,120,-290,-300,305,305,160,220,240,240,280,-300,-305,280,825,SBD
2,Seth Ruff,M,2002,,,,Single-ply,M-C,111.8,120,275,300,317.5,317.5,145,155,157.5,157.5,280,302.5,320,320,795,SBD
3,Daniel Domian,M,2000,,,,Single-ply,M-C,111.1,120,205,215,220,220,145,150,-155,150,210,237.5,-245,237.5,607.5,SBD
1,Luke Mellon,M,2000,,,,Single-ply,M-C,180.3,120+,-325,325,347.5,347.5,195,205,217.5,217.5,245,255,270,270,835,SBD
2,Brenden Rodriguez,M,2001,,,,Single-ply,M-C,129.5,120+,150,-185,185,185,-100,100,120,120,145,-185,185,185,490,SBD
G,Roberto Torres,M,2003,,,,Single-ply,M-G,83.1,93,220,227.5,237.5,237.5,140,145,-152.5,145,-205,205,225,225,607.5,SBD
1,Cheemeng Lor,M,2002,,,,Raw,MR-C,58.5,59,172.5,182.5,187.5,187.5,107.5,112.5,-117.5,112.5,190,205,-215,205,505,SBD
2,Justin Hernandez,M,2000,,,,Raw,MR-C,58.2,59,142.5,150,157.5,157.5,80,87.5,97.5,97.5,200,210,-215,210,465,SBD
1,Huy Hathuc,M,2002,,,,Raw,MR-C,64.4,66,177.5,182.5,185,185,115,122.5,-130,122.5,232.5,247.5,260,260,567.5,SBD
2,Daniel Malone,M,1999,,,,Raw,MR-C,65.4,66,185,195,200,200,125,-130,-130,125,202.5,215,,215,540,SBD
3,Jacob Vasquez #9,M,2002,,,,Raw,MR-C,64.5,66,162.5,172.5,182.5,182.5,85,90,95,95,197.5,207.5,227.5,227.5,505,SBD
4,Daniel Dillard,M,2002,,,,Raw,MR-C,64.8,66,175,185,190,190,100,105,-107.5,105,200,207.5,210,210,505,SBD
5,Carlos Hernandez #15,M,1999,,,,Raw,MR-C,65.6,66,-172.5,172.5,-182.5,172.5,110,115,120,120,185,200,205,205,497.5,SBD
6,Zaahid Abdullah,M,2000,,,,Raw,MR-C,66,66,160,172.5,-182.5,172.5,95,100,102.5,102.5,197.5,207.5,-232.5,207.5,482.5,SBD
7,Carter Winegeart,M,1999,,,,Raw,MR-C,63.6,66,160,162.5,165,165,105,107.5,112.5,112.5,-185,187.5,195,195,472.5,SBD
8,Jacob Tran,M,2002,,,,Raw,MR-C,65.8,66,140,147.5,-150,147.5,102.5,-110,-110,102.5,210,-217.5,-217.5,210,460,SBD
9,Daniel Morales,M,2002,,,,Raw,MR-C,66,66,140,147.5,152.5,152.5,95,102.5,-105,102.5,185,197.5,-207.5,197.5,452.5,SBD
10,Gilberto Vega,M,2000,,,,Raw,MR-C,64.5,66,120,130,137.5,137.5,87.5,95,-100,95,145,155,170,170,402.5,SBD
DQ,Ben Sánchez,M,2000,,,,Raw,MR-C,64.1,66,-200,-200,-200,,-137.5,-137.5,-137.5,,-220,-220,-220,,,SBD
1,Matthew Mora,M,2002,,,,Raw,MR-C,73.9,74,230,242.5,-257.5,242.5,130,135,140,140,250,260,-275,260,642.5,SBD
2,Charles Hammonds,M,1999,,,,Raw,MR-C,73.4,74,190,205,-217.5,205,117.5,125,-130,125,282.5,-302.5,-312.5,282.5,612.5,SBD
3,Jared Bowens,M,2000,,,,Raw,MR-C,74,74,190,195,205,205,122.5,130,-137.5,130,255,260,275,275,610,SBD
4,Caleb Pritchett,M,2000,,,,Raw,MR-C,73,74,202.5,215,227.5,227.5,125,130,135,135,230,245,-257.5,245,607.5,SBD
5,Alex Cano,M,2001,,,,Raw,MR-C,73.5,74,195,200,202.5,202.5,120,127.5,-130,127.5,240,245,250,250,580,SBD
6,Jackson Cotter,M,2001,,,,Raw,MR-C,73,74,187.5,200,207.5,207.5,140,150,-155,150,192.5,205,-207.5,205,562.5,SBD
7,Faysal Al-Zand,M,2002,,,,Raw,MR-C,73,74,177.5,187.5,-190,187.5,127.5,130,132.5,132.5,225,242.5,-247.5,242.5,562.5,SBD
8,Huy Nguyen,M,2000,,,,Raw,MR-C,71.7,74,155,165,177.5,177.5,-115,125,-135,125,200,215,230,230,532.5,SBD
9,Zachary Neill,M,2003,,,,Raw,MR-C,73.3,74,165,177.5,185,185,110,117.5,125,125,195,210,222.5,222.5,532.5,SBD
10,Christopher Bautista,M,2000,,,,Raw,MR-C,73.1,74,195,-200,205,205,120,-130,-130,120,195,205,-215,205,530,SBD
11,Raghav Rao,M,2002,,,,Raw,MR-C,71.8,74,-155,165,175,175,100,-107.5,110,110,187.5,200,210,210,495,SBD
12,Blaine Teague,M,2001,,,,Raw,MR-C,72.5,74,150,162.5,172.5,172.5,120,125,-130,125,155,170,187.5,187.5,485,SBD
13,Weston Blair,M,1999,,,,Raw,MR-C,72.3,74,140,150,-160,150,100,105,110,110,95,,,95,355,SBD
1,Jacob Staley,M,2001,,,,Raw,MR-C,82.4,83,250,267.5,-277.5,267.5,137.5,147.5,150,150,267.5,282.5,295,295,712.5,SBD
2,Gabe Cuadra,M,2002,,,,Raw,MR-C,82.5,83,230,242.5,255,255,145,155,-162.5,155,240,260,275,275,685,SBD
3,RC Skelton,M,2003,,,,Raw,MR-C,82.1,83,202.5,210,215,215,140,147.5,152.5,152.5,212.5,225,257.5,257.5,625,SBD
4,Cabe Parham,M,2000,,,,Raw,MR-C,82.7,83,190,-200,205,205,135,140,-142.5,140,225,242.5,252.5,252.5,597.5,SBD
5,Xavier Chavarria,M,2002,,,,Raw,MR-C,80.4,83,215,-222.5,-222.5,215,-142.5,150,-155,150,210,217.5,-225,217.5,582.5,SBD
6,Ferdinand Florendo,M,2000,,,,Raw,MR-C,82.8,83,190,205,-207.5,205,100,105,110,110,240,255,265,265,580,SBD
7,Vince Rodea,M,2001,,,,Raw,MR-C,80.6,83,197.5,207.5,212.5,212.5,142.5,147.5,-150,147.5,205,215,-227.5,215,575,SBD
8,Matthew Tran,M,1999,,,,Raw,MR-C,81.7,83,-182.5,-195,195,195,-122.5,127.5,135,135,227.5,242.5,-255,242.5,572.5,SBD
9,Aiden Cabrera,M,2002,,,,Raw,MR-C,82.1,83,187.5,192.5,200,200,-105,112.5,117.5,117.5,215,227.5,240,240,557.5,SBD
10,Jaret Manley,M,2001,,,,Raw,MR-C,80.9,83,170,177.5,-182.5,177.5,112.5,-120,120,120,-237.5,245,257.5,257.5,555,SBD
11,Sam Langenbahn,M,2002,,,,Raw,MR-C,81.2,83,205,217.5,-222.5,217.5,120,125,132.5,132.5,195,-200,-200,195,545,SBD
12,Bryan Nguyen,M,2000,,,,Raw,MR-C,81,83,190,195,-202.5,195,102.5,107.5,112.5,112.5,-225,227.5,235,235,542.5,SBD
13,Joshua Hamilton,M,2002,,,,Raw,MR-C,80.8,83,187.5,202.5,210,210,135,-140,-145,135,180,192.5,-205,192.5,537.5,SBD
14,Justin Bonner,M,1998,,,,Raw,MR-C,81.1,83,182.5,195,-200,195,112.5,120,,120,220,-235,-247.5,220,535,SBD
15,Toan Matsumoto,M,2001,,,,Raw,MR-C,79.8,83,170,-180,180,180,115,120,-125,120,217.5,230,-242.5,230,530,SBD
16,Immanuel Edouard,M,2000,,,,Raw,MR-C,79.6,83,190,205,-215,205,-102.5,105,112.5,112.5,-200,200,205,205,522.5,SBD
17,Eric Nguyen,M,2002,,,,Raw,MR-C,82.9,83,177.5,187.5,-195,187.5,95,102.5,110,110,195,-210,210,210,507.5,SBD
18,Isaiah Polanco,M,2002,,,,Raw,MR-C,82.1,83,160,170,177.5,177.5,102.5,107.5,,107.5,185,195,205,205,490,SBD
19,Aidan Martinez,M,2000,,,,Raw,MR-C,81.1,83,152.5,160,170,170,105,110,-115,110,180,190,202.5,202.5,482.5,SBD
20,Ricardo Alaniz,M,2001,,,,Raw,MR-C,82.2,83,155,165,172.5,172.5,72.5,80,-82.5,80,180,195,212.5,212.5,465,SBD
21,Hilton Lewis,M,2000,,,,Raw,MR-C,75.7,83,155,160,165,165,95,100,102.5,102.5,165,175,182.5,182.5,450,SBD
22,Enver Ogmen,M,2001,,,,Raw,MR-C,81.9,83,137.5,,,137.5,100,107.5,-122.5,107.5,200,-227.5,-227.5,200,445,SBD
23,Jonathan Rodriguez #1,M,2001,,,,Raw,MR-C,80.8,83,155,-167.5,-170,155,85,92.5,-97.5,92.5,175,182.5,190,190,437.5,SBD
24,Jacob Leo Marino,M,2001,,,,Raw,MR-C,81.6,83,140,152.5,165,165,82.5,-90,92.5,92.5,155,170,-182.5,170,427.5,SBD
25,Daniel Ramirez,M,1998,,,,Raw,MR-C,82.9,83,140,-155,-155,140,95,-102.5,-102.5,95,160,175,-187.5,175,410,SBD
26,John Hawes,M,2002,,,,Raw,MR-C,80.3,83,105,115,125,125,85,90,-95,90,140,155,170,170,385,SBD
27,Lucas Riley,M,2001,,,,Raw,MR-C,80.8,83,-117.5,117.5,-127.5,117.5,72.5,85,90,90,155,167.5,175,175,382.5,SBD
28,Payden Hoffman,M,1997,,,,Raw,MR-C,77.6,83,107.5,117.5,-130,117.5,60,70,-77.5,70,125,137.5,147.5,147.5,335,SBD
29,Michael Sanchez,M,2002,,,,Raw,MR-C,77.8,83,82.5,92.5,102.5,102.5,60,67.5,72.5,72.5,120,137.5,147.5,147.5,322.5,SBD
DQ,Noah Hinojosa,M,2001,,,,Raw,MR-C,81,83,220,-230,230,230,-135,-135,-135,,210,-227.5,,210,,SBD
DQ,Allan Ramirez,M,1999,,,,Raw,MR-C,82.2,83,-207.5,-217.5,-227.5,,-137.5,,,,,,,,,SBD
1,Jason Cambra,M,2001,,,,Raw,MR-C,90.4,93,257.5,270,280,280,170,177.5,182.5,182.5,252.5,270,-292.5,270,732.5,SBD
2,Ben Lujan,M,1999,,,,Raw,MR-C,90.8,93,255,277.5,-280,277.5,142.5,160,167.5,167.5,277.5,287.5,-292.5,287.5,732.5,SBD
3,Zachary Watson,M,2002,,,,Raw,MR-C,90.5,93,250,260,267.5,267.5,162.5,172.5,177.5,177.5,267.5,-282.5,282.5,282.5,727.5,SBD
4,Niels Levy-Thiebaut,M,2003,,,,Raw,MR-C,88.9,93,220,230,240,240,140,147.5,-155,147.5,240,255,270,270,657.5,SBD
5,Gianpaolo Garrone,M,1999,,,,Raw,MR-C,91.6,93,197.5,210,220,220,140,145,150,150,250,260,-275,260,630,SBD
6,Sebastian Gonzales,M,1999,,,,Raw,MR-C,92.1,93,210,220,230,230,120,130,135,135,237.5,257.5,265,265,630,SBD
7,Luke Li,M,2000,,,,Raw,MR-C,92.7,93,227.5,237.5,-245,237.5,-127.5,-127.5,127.5,127.5,257.5,-275,-292.5,257.5,622.5,SBD
8,Chaez Spurlock,M,2000,,,,Raw,MR-C,86.6,93,212.5,227.5,-240,227.5,132.5,-142.5,-150,132.5,230,255,-280,255,615,SBD
9,Noah Cisneros,M,1999,,,,Raw,MR-C,88.2,93,212.5,220,232.5,232.5,117.5,122.5,130,130,212.5,222.5,240,240,602.5,SBD
10,Seth Chavez,M,2002,,,,Raw,MR-C,91,93,207.5,215,-227.5,215,142.5,150,-157.5,150,225,232.5,-240,232.5,597.5,SBD
11,Andre Do,M,1999,,,,Raw,MR-C,92.9,93,187.5,-202.5,205,205,135,-145,-152.5,135,240,255,-265,255,595,SBD
12,Phillip Villalba,M,2000,,,,Raw,MR-C,88.6,93,205,215,220,220,110,127.5,-132.5,127.5,230,242.5,-255,242.5,590,SBD
13,Max Yelverton,M,1999,,,,Raw,MR-C,92.3,93,170,185,192.5,192.5,120,130,140,140,210,225,-232.5,225,557.5,SBD
14,Alex Fulco,M,1999,,,,Raw,MR-C,86,93,172.5,182.5,190,190,107.5,112.5,117.5,117.5,215,232.5,245,245,552.5,SBD
15,Jacob Eilert,M,2001,,,,Raw,MR-C,90,93,177.5,192.5,197.5,197.5,112.5,117.5,120,120,190,205,217.5,217.5,535,SBD
16,Kysar Hunt,M,2001,,,,Raw,MR-C,91.3,93,190,-202.5,202.5,202.5,-105,105,-110,105,180,192.5,200,200,507.5,SBD
17,Matthew Dumas,M,2003,,,,Raw,MR-C,90.6,93,175,182.5,190,190,102.5,107.5,110,110,180,192.5,202.5,202.5,502.5,SBD
18,Christian Robison,M,2002,,,,Raw,MR-C,92.9,93,150,160,167.5,167.5,107.5,115,120,120,175,187.5,-200,187.5,475,SBD
19,Ali Rehman,M,2000,,,,Raw,MR-C,91.3,93,137.5,147.5,160,160,102.5,110,117.5,117.5,165,185,-202.5,185,462.5,SBD
1,Preston Enriquez,M,1997,,,,Raw,MR-C,102.2,105,230,235,245,245,150,162.5,175,175,230,240,257.5,257.5,677.5,SBD
2,David Guajardo,M,2002,,,,Raw,MR-C,98.4,105,240,245,247.5,247.5,145,150,-155,150,262.5,275,277.5,277.5,675,SBD
3,Evan Green,M,1999,,,,Raw,MR-C,103.9,105,220,235,242.5,242.5,145,150,155,155,277.5,-292.5,-292.5,277.5,675,SBD
4,Logan Venegas,M,2001,,,,Raw,MR-C,101.4,105,225,242.5,250,250,130,145,152.5,152.5,225,247.5,-257.5,247.5,650,SBD
5,Keenan Riordan,M,1999,,,,Raw,MR-C,102.7,105,220,235,245,245,137.5,145,152.5,152.5,237.5,252.5,-257.5,252.5,650,SBD
6,Juan Gomez,M,1998,,,,Raw,MR-C,99.6,105,202.5,-215,215,215,160,-165,-165,160,245,255,265,265,640,SBD
7,Jacob Batson,M,2002,,,,Raw,MR-C,98,105,-217.5,217.5,225,225,-130,-130,130,130,227.5,242.5,-247.5,242.5,597.5,SBD
8,Michael May,M,1999,,,,Raw,MR-C,94.4,105,175,185,192.5,192.5,122.5,130,140,140,210,212.5,230,230,562.5,SBD
9,Hayden Franks,M,2001,,,,Raw,MR-C,101.3,105,175,185,195,195,112.5,120,130,130,190,205,220,220,545,SBD
10,Joshua Sherrod,M,2003,,,,Raw,MR-C,100.5,105,170,180,190,190,90,97.5,-102.5,97.5,190,205,217.5,217.5,505,SBD
11,Adam Samman,M,2003,,,,Raw,MR-C,98,105,142.5,152.5,165,165,102.5,107.5,110,110,200,210,212.5,212.5,487.5,SBD
12,Daniel Arenas,M,1999,,,,Raw,MR-C,95.6,105,135,147.5,152.5,152.5,107.5,117.5,127.5,127.5,160,175,190,190,470,SBD
1,Sam Pence,M,1998,,,,Raw,MR-C,113.8,120,290,300,305,305,145,152.5,160,160,275,295,310,310,775,SBD
2,Joseph Stornello,M,2000,,,,Raw,MR-C,117.7,120,247.5,262.5,272.5,272.5,152.5,162.5,167.5,167.5,242.5,260,265,265,705,SBD
3,Claudio Munoz,M,1998,,,,Raw,MR-C,119,120,232.5,242.5,252.5,252.5,162.5,-167.5,167.5,167.5,262.5,275,-287.5,275,695,SBD
4,Aaron Villalobos,M,2001,,,,Raw,MR-C,117.4,120,227.5,242.5,255,255,142.5,147.5,152.5,152.5,242.5,257.5,267.5,267.5,675,SBD
5,Ernesto Gamez,M,2000,,,,Raw,MR-C,110.8,120,187.5,200,-207.5,200,130,137.5,142.5,142.5,232.5,255,260,260,602.5,SBD
6,Cole Mills,M,1999,,,,Raw,MR-C,116.2,120,210,222.5,232.5,232.5,150,155,160,160,185,197.5,207.5,207.5,600,SBD
7,Anthony Do,M,2002,,,,Raw,MR-C,116.5,120,215,227.5,237.5,237.5,112.5,117.5,122.5,122.5,225,237.5,-250,237.5,597.5,SBD
8,Anand Pradhan,M,1997,,,,Raw,MR-C,119.9,120,170,185,190,190,137.5,145,147.5,147.5,175,185,-195,185,522.5,SBD
1,Tyler Yeck,M,2000,,,,Raw,MR-C,204.1,120+,285,305,320,320,157.5,172.5,-182.5,172.5,250,267.5,-285,267.5,760,SBD
2,Keithlyn McClelland,M,2000,,,,Raw,MR-C,131.5,120+,-285,285,302.5,302.5,180,192.5,205,205,200,220,-252.5,220,727.5,SBD
3,Gabriel Cervantez,M,2003,,,,Raw,MR-C,130.1,120+,-260,267.5,282.5,282.5,147.5,155,160,160,245,260,275,275,717.5,SBD
4,Joey Garza,M,2001,,,,Raw,MR-C,135.3,120+,255,267.5,275,275,120,127.5,-135,127.5,255,275,-287.5,275,677.5,SBD
5,Austin Culver,M,2000,,,,Raw,MR-C,133.9,120+,220,-230,-232.5,220,155,162.5,-172.5,162.5,245,255,-260,255,637.5,SBD
G,Stephen Mathison,M,2000,,,,Raw,MR-G,65.9,66,175,-185,-185,175,120,127.5,135,135,170,182.5,-200,182.5,492.5,SBD
G,Arlind Qerimi,M,1999,,,,Raw,MR-G,70.7,74,175,185,-192.5,185,115,120,127.5,127.5,175,182.5,192.5,192.5,505,SBD
G,Mathew Wood,M,2004,,,,Raw,MR-G,67.5,74,-120,120,130,130,62.5,72.5,-77.5,72.5,140,147.5,-152.5,147.5,350,SBD
G,Joshua Stark,M,2001,,,,Raw,MR-G,89.4,93,230,250,260,260,145,152.5,-157.5,152.5,235,247.5,-260,247.5,660,SBD
G,Anthony Rogers,M,2002,,,,Raw,MR-G,123.3,120+,205,215,227.5,227.5,145,152.5,-162.5,152.5,195,205,215,215,595,SBD
