Division,WeightClassKg,Place,Name,Team,BodyweightKg,Best3SquatKg,Best3BenchKg,Best3DeadliftKg,TotalKg,Equipment,Event,Sex
Boys,51.71,1,Isaac Moreno,Castroville Medina Valley,51.57,161.03,79.38,163.29,403.7,Single-ply,SBD,M
Boys,51.71,2,Erik Lopez,Castroville Medina Valley,51.35,133.81,74.84,149.69,358.34,Single-ply,SBD,M
Boys,51.71,3,Ethan Brown,Bandera,51.12,136.08,68.04,138.35,342.46,Single-ply,SBD,M
Boys,51.71,4,Adrian Churchill,Floresville,51.03,102.06,74.84,131.54,308.44,Single-ply,SBD,M
Boys,55.79,1,Edward Fonseca,San Antonio Memorial,51.94,136.08,81.65,140.61,358.34,Single-ply,SBD,M
Boys,55.79,2,Carlos Garcia Alanis,San Antonio Southwest Legacy,54.7,117.93,61.23,145.15,324.32,Single-ply,SBD,M
Boys,55.79,3,Daniel García,Floresville,53.93,113.4,70.31,131.54,315.25,Single-ply,SBD,M
Boys,59.87,1,Fabian Bazan,Castroville Medina Valley,59.69,219.99,111.13,226.8,557.92,Single-ply,SBD,M
Boys,59.87,2,Diego Morales,Castroville Medina Valley,59.6,174.63,108.86,174.63,458.13,Single-ply,SBD,M
Boys,59.87,3,Ernesto Rangel,San Antonio Southwest Legacy,57.52,149.69,86.18,167.83,403.7,Single-ply,SBD,M
Boys,59.87,4,Cristian Martinez,Hondo,58.06,149.69,83.91,158.76,392.36,Single-ply,SBD,M
Boys,59.87,5,Austin Navejas,Comfort,58.97,142.88,77.11,142.88,362.87,Single-ply,SBD,M
Boys,59.87,DQ,David Salinas,San Antonio Southwest Legacy,58.15,102.06,68.04,,,Single-ply,SBD,M
Boys,59.87,DQ,Cody Jureczki,Bandera,59.38,,,,,Single-ply,SBD,M
Boys,67.13,1,Josh Valenzuela,Castroville Medina Valley,66.22,210.92,136.08,201.85,548.85,Single-ply,SBD,M
Boys,67.13,2,Vincent Villanueva,Floresville,66.09,190.51,106.59,195.04,492.15,Single-ply,SBD,M
Boys,67.13,3,Jose Valdez,Castroville Medina Valley,65.32,183.7,104.33,192.78,480.81,Single-ply,SBD,M
Boys,67.13,4,Brian Burns,Bandera,66.13,188.24,99.79,188.24,476.27,Single-ply,SBD,M
Boys,67.13,5,Dawson J McCulley,Castroville Medina Valley,64.41,147.42,95.25,181.44,424.11,Single-ply,SBD,M
Boys,67.13,6,Andrew Garcia,Castroville Medina Valley,66.22,140.61,83.91,156.49,381.02,Single-ply,SBD,M
Boys,67.13,7,Matt Staton,Bandera,62.51,142.88,79.38,147.42,369.68,Single-ply,SBD,M
Boys,67.13,8,Emmanuel Rios,Castroville Medina Valley,65.77,129.27,95.25,124.74,349.27,Single-ply,SBD,M
Boys,67.13,9,Gonzales Issac,San Antonio Jubilee,66.59,111.13,68.04,154.22,333.39,Single-ply,SBD,M
Boys,67.13,DQ,Cecil Olivarri,Lytle,65.77,,,,,Single-ply,SBD,M
Boys,67.13,DQ,Thomas Hodges,Castroville Medina Valley,66.86,88.45,,,,Single-ply,SBD,M
Boys,74.84,1,Kevin Valdez,Castroville Medina Valley,70.31,208.65,113.4,235.87,557.92,Single-ply,SBD,M
Boys,74.84,2,Steve Mendiola,Bandera,73.89,165.56,131.54,206.38,503.49,Single-ply,SBD,M
Boys,74.84,3,Seth Bullard,Castroville Medina Valley,74.39,158.76,111.13,192.78,462.66,Single-ply,SBD,M
Boys,74.84,4,Alex Villarreal,San Antonio Memorial,70.81,172.37,106.59,174.63,453.59,Single-ply,SBD,M
Boys,74.84,5,Brady Madrid,Castroville Medina Valley,71.67,138.35,77.11,174.63,390.09,Single-ply,SBD,M
Boys,74.84,6,Gene Ratliff,Floresville,69.04,147.42,86.18,151.95,385.55,Single-ply,SBD,M
Boys,74.84,7,Dakota McDonald,Floresville,70.67,158.76,83.91,129.27,371.95,Single-ply,SBD,M
Boys,74.84,8,Adam Chavez,Castroville Medina Valley,73.03,136.08,68.04,154.22,358.34,Single-ply,SBD,M
Boys,74.84,DQ,Josh Munoz,Castroville Medina Valley,71.67,108.86,,,,Single-ply,SBD,M
Boys,82.1,1,Johnny Paredes,Lytle,81.78,219.99,102.06,206.38,528.44,Single-ply,SBD,M
Boys,82.1,2,Manuel Ortiz,San Antonio Kennedy,80.15,163.29,106.59,226.8,496.68,Single-ply,SBD,M
Boys,82.1,3,Isaiah Alvarado,San Antonio Southwest Legacy,81.15,156.49,117.93,199.58,474,Single-ply,SBD,M
Boys,82.1,4,Kyle Kroeker,Ingram Moore,78.56,151.95,106.59,174.63,433.18,Single-ply,SBD,M
Boys,82.1,5,Angel Esparza,San Antonio Kennedy,77.88,142.88,86.18,188.24,417.3,Single-ply,SBD,M
Boys,82.1,6,Erick Palma,San Antonio Kennedy,76.34,142.88,77.11,174.63,394.63,Single-ply,SBD,M
Boys,82.1,7,Colby Kennedy,Bandera,79.92,145.15,90.72,149.69,385.55,Single-ply,SBD,M
Boys,82.1,8,Timothy Rios,Castroville Medina Valley,79.15,133.81,92.99,142.88,369.68,Single-ply,SBD,M
Boys,89.81,1,Edward Zaragoza,San Antonio Memorial,87.63,244.94,158.76,242.67,646.37,Single-ply,SBD,M
Boys,89.81,2,Isaac Santos,Castroville Medina Valley,88.04,226.8,136.08,224.53,587.4,Single-ply,SBD,M
Boys,89.81,3,Zakary Widenor,Bandera,89.58,215.46,111.13,233.6,560.19,Single-ply,SBD,M
Boys,89.81,4,Eliaz Cruz,Bandera,84.73,179.17,108.86,183.7,471.74,Single-ply,SBD,M
Boys,89.81,5,Zachary Lawyer,Castroville Medina Valley,85.73,165.56,97.52,183.7,446.79,Single-ply,SBD,M
Boys,89.81,6,Kalob Son,Bandera,88.27,147.42,90.72,158.76,396.89,Single-ply,SBD,M
Boys,89.81,7,Liam Demarchi,Bandera,85.59,142.88,90.72,158.76,392.36,Single-ply,SBD,M
Boys,89.81,8,Joseph Rodriguez #7,San Antonio Kennedy,84.05,81.65,54.43,129.27,265.35,Single-ply,SBD,M
Boys,99.79,1,Nathan Cardenas,San Antonio Southwest Legacy,95.75,197.31,147.42,188.24,532.97,Single-ply,SBD,M
Boys,99.79,2,Colton Perkins,Bandera,97.75,208.65,124.74,179.17,512.56,Single-ply,SBD,M
Boys,99.79,3,Randy Piper,Comfort,99.06,165.56,83.91,154.22,403.7,Single-ply,SBD,M
Boys,99.79,4,Jonothan Rodriguez,San Antonio Kennedy,94.71,97.52,56.7,129.27,283.5,Single-ply,SBD,M
Boys,99.79,DQ,Max Eguia,San Antonio Kennedy,96.75,190.51,,,,Single-ply,SBD,M
Boys,99.79,DQ,Gianmarcos Villafane,Castroville Medina Valley,94.8,,,,,Single-ply,SBD,M
Boys,109.77,1,Spencer Payne,Castroville Medina Valley,109.45,265.35,170.1,233.6,669.05,Single-ply,SBD,M
Boys,109.77,2,Nathan Palacio,San Antonio Memorial,107,263.08,138.35,238.14,639.57,Single-ply,SBD,M
Boys,109.77,3,Angel Banderas,San Antonio Memorial,105.1,215.46,120.2,233.6,569.26,Single-ply,SBD,M
Boys,109.77,4,Tim Gomez,San Antonio Memorial,108.23,208.65,149.69,195.04,553.38,Single-ply,SBD,M
Boys,109.77,5,Genero Hernenadez,Comfort,102.24,204.12,124.74,206.38,535.24,Single-ply,SBD,M
Boys,109.77,6,Josh Pereida,San Antonio Southwest Legacy,109.18,190.51,131.54,179.17,501.22,Single-ply,SBD,M
Boys,109.77,7,Josh Serenil,Floresville,105.6,199.58,92.99,158.76,451.32,Single-ply,SBD,M
Boys,109.77,8,Manuel Belmarez,San Antonio Memorial,107.77,165.56,90.72,172.37,428.64,Single-ply,SBD,M
Boys,109.77,9,Andrew Hernandez,Lytle,108.5,102.06,83.91,149.69,335.66,Single-ply,SBD,M
Boys,109.77,10,Logan Williams #4,Bandera,107.23,206.38,108.86,,315.25,Single-ply,SB,M
Boys,124.74,1,Andrew Romero,San Antonio Kennedy,124.15,265.35,188.24,206.38,659.98,Single-ply,SBD,M
Boys,124.74,2,Jose Vazquez,San Antonio Memorial,121.2,258.55,129.27,188.24,576.06,Single-ply,SBD,M
Boys,124.74,3,Fernando Martinez #4,San Antonio Southwest Legacy,121.15,242.67,120.2,199.58,562.45,Single-ply,SBD,M
Boys,124.74,4,Martin Ramos,San Antonio Jubilee,123.1,190.51,142.88,208.65,542.04,Single-ply,SBD,M
Boys,124.74,5,Isaiah Ulibarri,San Antonio Southwest Legacy,121.61,224.53,104.33,181.44,510.29,Single-ply,SBD,M
Boys,124.74,6,Daniel Ornelas,San Antonio Southwest Legacy,110.63,188.24,113.4,190.51,492.15,Single-ply,SBD,M
Boys,124.74,7,Paul Zertuche,Castroville Medina Valley,120.2,174.63,108.86,174.63,458.13,Single-ply,SBD,M
Boys,124.74,8,Ivan Garcia #1,San Antonio Memorial,114.76,172.37,95.25,167.83,435.45,Single-ply,SBD,M
Boys,124.74+,1,Tony Melendez,Comfort,152.13,254.01,174.63,219.99,648.64,Single-ply,SBD,M
Boys,124.74+,2,Jonah Barrow,Castroville Medina Valley,135.17,249.48,192.78,192.78,635.03,Single-ply,SBD,M
Boys,124.74+,3,Danny Hernandez,Ingram Moore,134.54,238.14,149.69,240.4,628.23,Single-ply,SBD,M
Boys,124.74+,4,Jesus Borroel,San Antonio Memorial,128.68,254.01,131.54,240.4,625.96,Single-ply,SBD,M
Boys,124.74+,5,Donny Brown,Floresville,125.55,226.8,151.95,226.8,605.55,Single-ply,SBD,M
Boys,124.74+,6,Pedro Castillo,Floresville,136.21,219.99,161.03,210.92,591.94,Single-ply,SBD,M
Boys,124.74+,7,Roy Cantu,San Antonio Memorial,130.54,229.06,120.2,190.51,539.77,Single-ply,SBD,M
Boys,124.74+,8,Abraham Hernandez,Castroville Medina Valley,126.55,206.38,104.33,226.8,537.51,Single-ply,SBD,M
