Division,WeightClassKg,Place,Name,Team,BodyweightKg,Best3SquatKg,Best3BenchKg,Best3DeadliftKg,TotalKg,Equipment,Event,Sex
Boys,51.71,1,Nathan Mendiaz,Monahans,50.08,163.29,97.52,145.15,405.97,Single-ply,SBD,M
Boys,51.71,2,Israel Soto,Midland Greenwood,50.62,138.35,74.84,161.03,374.21,Single-ply,SBD,M
Boys,51.71,3,Zach Alvarez,Fort Stockton,50.89,127.01,81.65,131.54,340.19,Single-ply,SBD,M
Boys,51.71,4,Bryan Quinteros,Lamesa,49.26,120.2,70.31,133.81,324.32,Single-ply,SBD,M
Boys,51.71,5,David Hildebrand,Seminole,51.71,99.79,58.97,124.74,283.5,Single-ply,SBD,M
Boys,51.71,6,Cruz Martinez,Big Spring,51.53,97.52,54.43,124.74,276.69,Single-ply,SBD,M
Boys,51.71,7,Morris Norman,Big Spring,44,83.91,52.16,99.79,235.87,Single-ply,SBD,M
Boys,51.71,8,Andric Ramirez,Fort Stockton,45.63,88.45,49.9,90.72,229.06,Single-ply,SBD,M
Boys,51.71,9,Caleb Rei Martinez,Brownfield,41.19,68.04,38.56,77.11,183.7,Single-ply,SBD,M
Boys,51.71,10,Kelton Johnson #1,Levelland,33.57,45.36,31.75,65.77,142.88,Single-ply,SBD,M
Boys,51.71,DQ,Andrew Luna,Perryton,51.71,136.08,72.57,,,Single-ply,SBD,M
Boys,55.79,1,Ty Diaz,Andrews,55.43,163.29,88.45,185.97,437.72,Single-ply,SBD,M
Boys,55.79,2,Omar Alonso,Snyder,55.16,149.69,102.06,154.22,405.97,Single-ply,SBD,M
Boys,55.79,3,Julian Leyva,Midland Greenwood,55.16,138.35,77.11,151.95,367.41,Single-ply,SBD,M
Boys,55.79,4,Alfredo Lozano,Brownfield,55.52,131.54,70.31,158.76,360.61,Single-ply,SBD,M
Boys,55.79,5,Aaron Carroll,Big Spring,55.34,122.47,52.16,136.08,310.71,Single-ply,SBD,M
Boys,55.79,6,Gabriel Pedraza,Monahans,55.43,120.2,63.5,120.2,303.91,Single-ply,SBD,M
Boys,55.79,7,Giovanny Ortiz,Lamesa,54.7,83.91,61.23,108.86,254.01,Single-ply,SBD,M
Boys,55.79,8,Ramon Zubiate,Denver City,52.71,83.91,61.23,102.06,247.21,Single-ply,SBD,M
Boys,55.79,9,Corbin Byrd,Dalhart,53.8,70.31,68.04,72.57,210.92,Single-ply,SBD,M
Boys,55.79,DQ,Jaime Luz,Levelland,55.79,,,,,Single-ply,SBD,M
Boys,59.87,1,Justin Ormsby,Big Spring,58.97,176.9,104.33,199.58,480.81,Single-ply,SBD,M
Boys,59.87,2,Daniel Hernandez,Pecos,59.69,176.9,104.33,183.7,464.93,Single-ply,SBD,M
Boys,59.87,3,Xzavier Estrada,Andrews,59.6,176.9,115.67,163.29,455.86,Single-ply,SBD,M
Boys,59.87,4,Luke Krueger,Snyder,59.24,174.63,86.18,192.78,453.59,Single-ply,SBD,M
Boys,59.87,5,Ivan Rodriguez,Andrews,58.79,167.83,86.18,158.76,412.77,Single-ply,SBD,M
Boys,59.87,6,Juan Salgado,Fort Stockton,59.24,138.35,90.72,154.22,383.29,Single-ply,SBD,M
Boys,59.87,7,Ceasar Luther,Perryton,59.15,136.08,92.99,149.69,378.75,Single-ply,SBD,M
Boys,59.87,8,Nathan Olguin,Monahans,57.52,131.54,81.65,158.76,371.95,Single-ply,SBD,M
Boys,59.87,9,Matthew Cano,Perryton,58.42,124.74,88.45,149.69,362.87,Single-ply,SBD,M
Boys,59.87,DQ,Zachary Salazar,Lamesa,59.51,,,,,Single-ply,SBD,M
Boys,59.87,DQ,Greg Williams,Snyder,59.69,161.03,83.91,,,Single-ply,SBD,M
Boys,67.13,1,Seth Barton,Midland Greenwood,64.5,199.58,120.2,210.92,530.7,Single-ply,SBD,M
Boys,67.13,2,Abel Burciaga,Denver City,67.13,195.04,131.54,201.85,528.44,Single-ply,SBD,M
Boys,67.13,3,Alex Lugo,Perryton,65.59,199.58,117.93,201.85,519.36,Single-ply,SBD,M
Boys,67.13,4,Nick Gonzales,Andrews,63.05,197.31,117.93,190.51,505.76,Single-ply,SBD,M
Boys,67.13,5,Oscar Solis,Pecos,65.77,172.37,115.67,181.44,469.47,Single-ply,SBD,M
Boys,67.13,6,Josue Becerril,Perryton,67.13,167.83,99.79,185.97,453.59,Single-ply,SBD,M
Boys,67.13,7,Brendyn LeBlanc,Seminole,62.96,165.56,104.33,170.1,439.98,Single-ply,SBD,M
Boys,67.13,8,Jesus Garza,Brownfield,66.32,163.29,95.25,163.29,421.84,Single-ply,SBD,M
Boys,67.13,DQ,Kendal Adames,Sweetwater,65.68,156.49,,,,Single-ply,SBD,M
Boys,67.13,DQ,Tim Aynes,Lamesa,65.86,,,,,Single-ply,SBD,M
Boys,67.13,DQ,Britin Garcia,Andrews,66.04,192.78,104.33,,,Single-ply,SBD,M
Boys,74.84,1,Noah Martinez #1,Dalhart,72.76,235.87,131.54,217.72,585.13,Single-ply,SBD,M
Boys,74.84,2,Garron Weber,Borger,72.85,192.78,136.08,256.28,585.13,Single-ply,SBD,M
Boys,74.84,3,Jesus Garcia #5,Andrews,73.66,229.06,124.74,226.8,580.6,Single-ply,SBD,M
Boys,74.84,4,Steven Everett,Fort Stockton,73.39,188.24,102.06,213.19,503.49,Single-ply,SBD,M
Boys,74.84,5,Alex Rubio,Snyder,71.94,183.7,104.33,170.1,458.13,Single-ply,SBD,M
Boys,74.84,6,Ryan Orona,Pecos,69.67,151.95,117.93,181.44,451.32,Single-ply,SBD,M
Boys,74.84,DQ,Michael Flores #2,Lamesa,73.21,,,,,Single-ply,SBD,M
Boys,74.84,DQ,Zeke Bermea,Levelland,73.57,,,,,Single-ply,SBD,M
Boys,74.84,DQ,Ivan Valverde,Denver City,73.75,,,,,Single-ply,SBD,M
Boys,74.84,DQ,Taylor Hobbs #2,Denver City,74.84,,,,,Single-ply,SBD,M
Boys,74.84,DQ,Esau Flores,Andrews,73.94,,,,,Single-ply,SBD,M
Boys,74.84,DQ,Ransom Edwards,Seminole,71.49,,,,,Single-ply,SBD,M
Boys,82.1,1,Jesse Cobos,Andrews,79.92,222.26,113.4,240.4,576.06,Single-ply,SBD,M
Boys,82.1,2,Aron Dominguez,Seminole,82.1,215.46,122.47,222.26,560.19,Single-ply,SBD,M
Boys,82.1,3,Gerardo Cabrera,Snyder,79.56,217.72,108.86,226.8,553.38,Single-ply,SBD,M
Boys,82.1,4,Braden Latham,Midland Greenwood,80.65,208.65,129.27,206.38,544.31,Single-ply,SBD,M
Boys,82.1,5,Ian Alvidrez,Seminole,82.1,185.97,120.2,215.46,521.63,Single-ply,SBD,M
Boys,82.1,6,Braden Rader,Midland Greenwood,80.29,208.65,106.59,199.58,514.83,Single-ply,SBD,M
Boys,82.1,7,Josh Ealom,Vernon,80.92,188.24,131.54,195.04,514.83,Single-ply,SBD,M
Boys,82.1,8,Derick Jaso,Pecos,78.93,181.44,104.33,204.12,489.88,Single-ply,SBD,M
Boys,82.1,9,Jj Burns,Snyder,77.56,188.24,92.99,199.58,480.81,Single-ply,SBD,M
Boys,82.1,10,Gabriel Salazar,Sweetwater,78.02,158.76,113.4,204.12,476.27,Single-ply,SBD,M
Boys,82.1,11,Chris Lara,Bushland,76.84,176.9,102.06,188.24,467.2,Single-ply,SBD,M
Boys,82.1,12,Sean Meadows,Bushland,79.74,165.56,111.13,190.51,467.2,Single-ply,SBD,M
Boys,89.81,1,Dalton Richardson,Midland Greenwood,87.36,244.94,124.74,249.48,619.15,Single-ply,SBD,M
Boys,89.81,2,Emmanuel Dominguez,Seminole,86.73,222.26,108.86,213.19,544.31,Single-ply,SBD,M
Boys,89.81,3,Brandon Propst,Fort Stockton,89.27,219.99,120.2,204.12,544.31,Single-ply,SBD,M
Boys,89.81,4,Antonio Covarrubias,Perryton,87.18,199.58,113.4,224.53,537.51,Single-ply,SBD,M
Boys,89.81,5,Hayden Pipkin,Monahans,88.9,201.85,120.2,199.58,521.63,Single-ply,SBD,M
Boys,89.81,6,DJ Petties,Dalhart,85.28,197.31,102.06,217.72,517.1,Single-ply,SBD,M
Boys,89.81,7,Ignacio Camacho,Monahans,84.1,206.38,117.93,183.7,508.02,Single-ply,SBD,M
Boys,89.81,8,Angel Luther,Perryton,88.63,181.44,122.47,190.51,494.42,Single-ply,SBD,M
Boys,89.81,9,Jonathon Garcia,Pecos,85.73,170.1,117.93,170.1,458.13,Single-ply,SBD,M
Boys,89.81,DQ,Michael Marquez,Levelland,88.09,229.06,122.47,,,Single-ply,SBD,M
Boys,89.81,DQ,Juan Salazar,Vernon,83.01,,,,,Single-ply,SBD,M
Boys,99.79,1,Uriel Hernandez,Perryton,97.07,231.33,138.35,226.8,596.47,Single-ply,SBD,M
Boys,99.79,2,Christian Perez,Levelland,95.62,222.26,111.13,217.72,551.11,Single-ply,SBD,M
Boys,99.79,3,Adam Velasco,Denver City,92.8,206.38,145.15,192.78,544.31,Single-ply,SBD,M
Boys,99.79,4,Jerry Vasquez,Midland Greenwood,93.98,213.19,111.13,219.99,544.31,Single-ply,SBD,M
Boys,99.79,5,Braden Price,Levelland,95.98,192.78,106.59,238.14,537.51,Single-ply,SBD,M
Boys,99.79,6,Alex Jaimes,Snyder,99.06,215.46,111.13,201.85,528.44,Single-ply,SBD,M
Boys,99.79,7,Ariel Delgado,Seminole,94.35,199.58,106.59,215.46,521.63,Single-ply,SBD,M
Boys,99.79,8,Ivan Delgado,Big Spring,96.62,208.65,127.01,181.44,517.1,Single-ply,SBD,M
Boys,99.79,DQ,Dylan Tredaway,Big Spring,98.25,,,,,Single-ply,SBD,M
Boys,99.79,DQ,Jacob Mechler,Andrews,96.52,,,,,Single-ply,SBD,M
Boys,99.79,DQ,Eric Rinehart,Snyder,90.81,204.12,111.13,,,Single-ply,SBD,M
Boys,99.79,DQ,Alonso Corral,Fort Stockton,94.53,217.72,151.95,,,Single-ply,SBD,M
Boys,109.77,1,Gustavo Navarrete,Perryton,106.5,272.16,156.49,251.74,680.39,Single-ply,SBD,M
Boys,109.77,2,Diego Garcia,Brownfield,105.51,240.4,147.42,231.33,619.15,Single-ply,SBD,M
Boys,109.77,3,Ivan Esquivel,Denver City,108.77,247.21,149.69,222.26,619.15,Single-ply,SBD,M
Boys,109.77,4,Moses Rodriquez,Lamesa,109.77,238.14,156.49,217.72,612.35,Single-ply,SBD,M
Boys,109.77,5,Preston Newman,Vernon,108.32,238.14,149.69,208.65,596.47,Single-ply,SBD,M
Boys,109.77,6,Zach Zaccardo,Bushland,105.78,229.06,140.61,217.72,587.4,Single-ply,SBD,M
Boys,109.77,7,Jace McKee,Monahans,106.05,208.65,151.95,226.8,587.4,Single-ply,SBD,M
Boys,109.77,8,Jesus Cervantes,Perryton,107.77,226.8,136.08,219.99,582.87,Single-ply,SBD,M
Boys,109.77,9,Alex Lozano,Denver City,109.5,213.19,142.88,213.19,569.26,Single-ply,SBD,M
Boys,109.77,DQ,Alexis Gonzalez #1,Denver City,105.32,238.14,,,,Single-ply,SBD,M
Boys,109.77,DQ,Justin Rayos,Pecos,108.41,272.16,,,,Single-ply,SBD,M
Boys,109.77,DQ,Raymond Delgado,Sweetwater,102.15,192.78,136.08,,,Single-ply,SBD,M
Boys,124.74,1,Sean Humphrey,Snyder,122.65,290.3,183.7,244.94,718.94,Single-ply,SBD,M
Boys,124.74,2,Casey Stewart,Dalhart,123.29,303.91,145.15,210.92,659.98,Single-ply,SBD,M
Boys,124.74,3,Ivan Pena,Fort Stockton,120.29,249.48,140.61,254.01,644.1,Single-ply,SBD,M
Boys,124.74,4,Sebastian Enriquez,Fort Stockton,121.56,278.96,129.27,235.87,644.1,Single-ply,SBD,M
Boys,124.74,5,Ivien Gonzales,Lamesa,118.84,249.48,149.69,206.38,605.55,Single-ply,SBD,M
Boys,124.74,6,Jordan Dunn #2,Big Spring,118.66,256.28,140.61,206.38,603.28,Single-ply,SBD,M
Boys,124.74,7,Julian Gervacio,Pecos,118.3,249.48,151.95,199.58,601.01,Single-ply,SBD,M
Boys,124.74,8,Tony Cuellar,Andrews,118.84,233.6,170.1,197.31,601.01,Single-ply,SBD,M
Boys,124.74,9,Jarod Rose,Midland Greenwood,122.2,240.4,140.61,215.46,596.47,Single-ply,SBD,M
Boys,124.74,10,Carlos Gallegos,Sweetwater,118.21,233.6,133.81,219.99,587.4,Single-ply,SBD,M
Boys,124.74,11,Noah Barriga,Fort Stockton,117.84,233.6,142.88,208.65,585.13,Single-ply,SBD,M
Boys,124.74+,1,Malcolm Montez,Monahans,159.57,267.62,195.04,235.87,698.53,Single-ply,SBD,M
Boys,124.74+,2,Kobe Fahntrapp,Snyder,126.28,281.23,154.22,238.14,673.58,Single-ply,SBD,M
Boys,124.74+,3,Tytus Williams,Borger,132,258.55,136.08,244.94,639.57,Single-ply,SBD,M
Boys,124.74+,4,Chris Samaniego,Monahans,160.57,242.67,165.56,231.33,639.57,Single-ply,SBD,M
Boys,124.74+,5,Izak Leyva,Monahans,168.1,231.33,145.15,222.26,598.74,Single-ply,SBD,M
Boys,124.74+,6,Jeremiah Barrera,Sweetwater,129,231.33,111.13,226.8,569.26,Single-ply,SBD,M
Boys,124.74+,7,Jaden Massey,Dalhart,136.98,192.78,136.08,183.7,512.56,Single-ply,SBD,M
Boys,124.74+,8,Eddie Sotelo,Pecos,132,210.92,111.13,188.24,510.29,Single-ply,SBD,M
Boys,124.74+,9,Matthew Ortiz,Pecos,143.61,190.51,147.42,158.76,496.68,Single-ply,SBD,M
Boys,124.74+,10,Luis Jauregui,Monahans,127.01,190.51,117.93,172.37,480.81,Single-ply,SBD,M
Boys,124.74+,11,Albert Aguilar,Pecos,139.07,149.69,117.93,154.22,421.84,Single-ply,SBD,M
Boys,124.74+,DQ,Todd Beebe,Vernon,127.82,,,,,Single-ply,SBD,M
Boys,,NS,Gerardo Gabrera,Snyder,,,,,,Single-ply,SBD,M
Boys,,NS,Ali Mata,Snyder,,,,,,Single-ply,SBD,M
Boys,,NS,Justin Guffey,Seminole,,,,,,Single-ply,SBD,M
Boys,,NS,Joseph Jenkins,Perryton,,,,,,Single-ply,SBD,M
