Division,WeightClassKg,Place,Name,Team,BodyweightKg,Best3SquatKg,Best3BenchKg,Best3DeadliftKg,TotalKg,Equipment,Event,Sex,BirthDate
Boys,59.87,1,JR Hernandez,Brownsville Rivera,58.51,156.49,74.84,161.03,392.36,Single-ply,SBD,M,
Boys,67.13,1,Isaiah Loya,Brownsville Hanna,60.06,61.23,56.7,111.13,229.06,Single-ply,SBD,M,
Boys,74.84,1,Jose Hernandez #22,Brownsville Rivera,71.67,165.56,102.06,167.83,435.45,Single-ply,SBD,M,
Boys,74.84,2,Oscar Gonzalez,Brownsville Rivera,71.67,111.13,58.97,113.4,283.5,Single-ply,SBD,M,
Boys,89.81,1,Jose Castelan,Brownsville Hanna,86.73,265.35,183.7,219.99,669.05,Single-ply,SBD,M,
Boys,89.81,2,Guadalupe Salinas,Brownsville Rivera,87.09,181.44,102.06,190.51,474,Single-ply,SBD,M,
Boys,99.79,1,Jesus Hernandez #8,Brownsville Rivera,99.34,233.6,129.27,206.38,569.26,Single-ply,SBD,M,
Boys,109.77,1,Roli Gonzalez,Brownsville Hanna,101.42,247.21,136.08,224.53,607.81,Single-ply,SBD,M,
Boys,109.77,2,Beto Garcia,Brownsville Hanna,105.87,247.21,151.95,206.38,605.55,Single-ply,SBD,M,
Boys,109.77,3,Santos Avalos,Brownsville Hanna,100.15,242.67,129.27,179.17,551.11,Single-ply,SBD,M,
Boys,109.77,4,Hector Guerrero,Brownsville Rivera,107.95,188.24,129.27,190.51,508.02,Single-ply,SBD,M,
Boys,124.74,1,John Avila,Brownsville Hanna,118.57,254.01,145.15,208.65,607.81,Single-ply,SBD,M,
Boys,124.74,2,Ezequiel Torres,Brownsville Rivera,123.38,113.4,52.16,95.25,260.82,Single-ply,SBD,M,
Boys,139.71,1,Abraham Lozano,Brownsville Rivera,125.65,217.72,81.65,204.12,503.49,Single-ply,SBD,M,
Boys,139.71+,1,German Woo,Brownsville Hanna,142.16,251.74,156.49,210.92,619.15,Single-ply,SBD,M,
