Name,Equipment,Event,Sex,BirthDate,BodyweightKg,Age,Division,WeightClassKg,Country,Squat1Kg,Squat2Kg,Squat3Kg,Best3SquatKg,Squat4Kg,Bench1Kg,Bench2Kg,Bench3Kg,Best3BenchKg,Bench4Kg,Deadlift1Kg,Deadlift2Kg,Deadlift3Kg,Best3DeadliftKg,Deadlift4Kg,TotalKg,Place
Noemi Anaquin,Multi-ply,SBD,F,1992-08-19,54.4,27,Open,56,Argentina,145,-160,170,170,,70,77.5,-85,77.5,,145,155,160,160,,407.5,1
Maria Fernanda Godoy Cruz,Multi-ply,SBD,F,1979-12-11,81,39,Open,82.5,Argentina,150,165,170,170,,60,67.5,70,70,,140,160,-170,160,,400,1
Cristian García #1,Multi-ply,SBD,M,1989-01-02,67,30,Open,67.5,Chile,210,-230,235,235,,110,115,120,120,,210,230,-240,230,,585,1
Jose Soto,Multi-ply,SBD,M,1984-02-14,85,35,Open,90,Ecuador,210,230,260,260,,110,130,-155,130,,190,210,-230,210,,600,1
Enzo Castro,Multi-ply,SBD,M,1984-09-02,108,35,Open,110,Chile,-300,325,-340,325,,195,-210,210,210,,230,250,-260,250,,785,1
Ricardo Bael Dellavale,Multi-ply,SBD,M,,104.1,,Open,110,Brazil,260,-285,-300,260,,205,217.5,-227.5,217.5,,250,262.5,-270,262.5,,740,2
Luiz Maiato,Multi-ply,SBD,M,,104.5,,Open,110,Brazil,230,-250,-272.5,230,,-110,-120,120,120,,230,250,-262.5,250,,600,3
Amelia Osorio Macias,Wraps,SBD,F,,42.4,,Open,44,Bolivia,80,90,-95,90,,40,42.5,45,45,,100,110,-115,110,,245,1
Carolina González De León,Wraps,SBD,F,1985-05-08,47.5,34,Open,48,Argentina,105,112.5,120,120,,47.5,50,52.5,52.5,,115,125,132.5,132.5,,305,2
Karina Garcés Herrera,Wraps,SBD,F,1993-07-24,47.9,26,Open,48,Chile,117.5,122.5,125,125,,52.5,55,57.5,57.5,,127.5,132.5,137.5,137.5,,320,1
Monica Guayasca,Wraps,SBD,F,,51.9,,Open,52,Ecuador,100,105,-110,105,,50,-60,60,60,,100,105,115,115,,280,2
Carolina Ramos #1,Wraps,SBD,F,1991-11-25,50.1,27,Open,52,Argentina,135,-145,-145,135,,65,70,72.5,72.5,,140,150,160,160,,367.5,1
Mariana Miguez,Wraps,SBD,F,1983-08-29,55.7,36,Open,56,Argentina,135,145,155,155,,75,80,82.5,82.5,,165,175,-180.5,175,,412.5,1
Alejandra Zeballos,Wraps,SBD,F,1970-03-06,55.5,49,Masters 40-49,56,Argentina,-110,110,120,120,,55,60,-65,60,,120,140,-150,140,,320,1
Melaany Fischmann,Wraps,SBD,F,1999-03-15,60,20,Juniors 20-23,60,Chile,107.5,117.5,125,125,,50,57.5,60,60,,112.5,125,-135,125,,310,2
Solana Chasampi,Wraps,SBD,F,1998-02-28,58.3,21,Juniors 20-23,60,Argentina,125,-135,135,135,,60,65,-70,65,,150,-160,160,160,,360,1
Gabriela Flores,Wraps,SBD,F,1989-03-01,57.6,30,Open,60,Bolivia,87.5,95,102.5,102.5,,42.5,-45,-45,42.5,,95,100,107.5,107.5,,252.5,2
Yasnna Riffo,Wraps,SBD,F,1973-11-01,57.9,46,Open,60,Chile,135,-145,,135,,72.5,77.5,82.5,82.5,,132.5,147.5,-161,147.5,,365,1
Yasnna Riffo,Wraps,SBD,F,1973-11-01,57.9,46,Masters 40-49,60,Chile,135,-145,,135,,72.5,77.5,82.5,82.5,,132.5,147.5,-161,147.5,,365,1
Francesca Gellona,Wraps,SBD,F,1996-12-27,65.1,22,Juniors 20-23,67.5,Chile,115,125,-135,125,,70,80,82.5,82.5,-85,115,125,130,130,,337.5,1
Lorena Rojas,Wraps,SBD,F,1979-03-06,64.7,40,Masters 40-49,67.5,Argentina,150,160,170,170,,60,70,75,75,,150,167.5,175,175,,420,1
Germaine Eblen,Wraps,SBD,F,1986-01-05,75,33,Open,75,Chile,-120,125,-127.5,125,,55,-60,60,60,,120,130,-140,130,,315,3
Jazmin Navarro Romero,Wraps,SBD,F,1987-09-15,71.6,32,Open,75,Peru,105,-120,125,125,,50,55,-60,55,,110,-135,145,145,,325,2
Daniela Ricail,Wraps,SBD,F,1991-12-03,74.4,27,Open,75,Argentina,195,205,-215,205,,90,100,-105,100,,185,195,-205,195,,500,1
Cecília Isicke,Wraps,SBD,F,,88.2,,Open,90,Brazil,135,150,-170,150,,60,-65,67.5,67.5,,145,160,-170,160,,377.5,1
Stephanie Barriga Neira,Wraps,SBD,F,1996-01-07,104.7,23,Open,90+,Chile,-140,190,-200,190,,95,105,110,110,,190,-200,200,200,,500,1
Stephanie Barriga Neira,Wraps,SBD,F,1996-01-07,104.7,23,Juniors 20-23,90+,Chile,-140,190,-200,190,,95,105,110,110,,190,-200,200,200,,500,1
Cristian Mateluna Nuñez,Wraps,SBD,M,1986-07-14,53.3,33,Open,56,Chile,120,130,135,135,,80,85,-90,85,,160,170,,170,,390,1
Rodrigo Bolivar,Wraps,SBD,M,1989-05-18,58.1,30,Open,60,Chile,160,170,175,175,,-95,95,100,100,,180,190,200,200,,475,1
Ariel Arce,Wraps,SBD,M,1998-09-05,67,21,Juniors 20-23,67.5,Chile,180,195,207.5,207.5,,87.5,92.5,-97.5,92.5,,220,235,250,250,,550,3
Jose Ledesma,Wraps,SBD,M,1997-03-17,67,22,Open,67.5,Bolivia,-202.5,202.5,205,205,,135,142.5,-150,142.5,,215,-232.5,-232.5,215,,562.5,2
Ariel Villalba,Wraps,SBD,M,1996-03-16,66.8,23,Open,67.5,Argentina,200,210,220,220,,115,120,122.5,122.5,,250,-261,261,261,,603.5,1
Jose Ledesma,Wraps,SBD,M,1997-03-17,67,22,Juniors 20-23,67.5,Bolivia,-202.5,202.5,205,205,,135,142.5,-150,142.5,,215,-232.5,-232.5,215,,562.5,2
Ariel Villalba,Wraps,SBD,M,1996-03-16,66.8,23,Juniors 20-23,67.5,Argentina,200,210,220,220,,115,120,122.5,122.5,,250,-261,261,261,,603.5,1
Jorge González #6,Wraps,SBD,M,2003-06-08,67.4,16,Teen 16-17,67.5,Chile,150,-165,-180,150,,-90,90,-105,90,,150,-165,,150,,390,1
Benjamin Meza,Wraps,SBD,M,2002-11-05,68.3,17,Teen 16-17,75,Chile,160,-180,-180,160,,95,-105,-105,95,,170,-180,,170,,425,1
Carlos Omar Cadenas,Wraps,SBD,M,2004-06-04,67.5,15,Teen 13-15,67.5,Mexico,160,175,177.5,177.5,185,75,82.5,90,90,,160,175,-185,175,,442.5,1
Adrián Arce,Wraps,SBD,M,1997-03-14,68.5,22,Open,75,Bolivia,210,225,-240,225,,120,132.5,-137.5,132.5,,205,-220,-220,205,,562.5,4
Adrián Arce,Wraps,SBD,M,1997-03-14,68.5,22,Juniors 20-23,75,Bolivia,210,225,-240,225,,120,132.5,-137.5,132.5,,205,-220,-220,205,,562.5,1
Marco Salinas Castro,Wraps,SBD,M,1992-05-23,69.5,27,Open,75,Bolivia,190,205,-220,205,,120,127.5,135,135,,200,225,240,240,,580,3
Pablo Asorey,Wraps,SBD,M,1990-06-13,70.5,29,Open,75,Argentina,250,-260,260,260,,120,130,135,135,,-260,260,-270,260,,655,2
Arnaldo Salinas Sepúlveda,Wraps,SBD,M,1983-04-01,74.4,36,Open,75,Chile,240,280,-302.5,280,,130,137.5,142.5,142.5,,250,265,-290,265,,687.5,1
Rodrigo Zabalaga,Wraps,SBD,M,1997-10-30,80.4,22,Juniors 20-23,82.5,Bolivia,190,210,-222.5,210,,120,125,130,130,,220,240,-252.5,240,,580,3
Diego Carrasco,Wraps,SBD,M,2000-06-08,79.3,19,Teen 18-19,82.5,Chile,225,240,250,250,,110,120,-125,120,,250,265,280,280,,650,2
Gianfranco Slepetis,Wraps,SBD,M,2001-05-02,81.9,18,Teen 18-19,82.5,Argentina,-100,245,260,260,-270,137.5,145,152.5,152.5,,250,260,-277.5,260,,672.5,1
Felipe Hernández #3,Wraps,SBD,M,1998-04-03,81.2,21,Juniors 20-23,82.5,Chile,187.5,200,210,210,,110,112.5,120,120,,190,200,210,210,,540,4
Nicolas Giglio,Wraps,SBD,M,1997-05-21,79.8,22,Juniors 20-23,82.5,Argentina,170,190,195,195,,130,140,-145,140,,230,245,-257.5,245,,580,2
Roberto Guzman,Wraps,SBD,M,1996-02-16,82.1,23,Open,82.5,Bolivia,275,290,-302.5,290,,150,-155,-155,150,,270,285,-301.5,285,,725,1
Roberto Guzman,Wraps,SBD,M,1996-02-16,82.1,23,Juniors 20-23,82.5,Bolivia,275,290,-302.5,290,,150,-155,-155,150,,270,285,-301.5,285,,725,1
Diego Guichapan Cardenas,Wraps,SBD,M,1993-02-16,82.5,26,Open,82.5,Chile,210,225,-240,225,,137.5,145,150,150,,230,-245,-245,230,,605,3
Ezequiel Uget,Wraps,SBD,M,1993-03-03,82.2,26,Open,82.5,Argentina,245,260,270,270,,140,150,160,160,,245,255,-260,255,,685,2
Damian Palazzo,Wraps,SBD,M,2002-01-03,86.7,17,Teen 16-17,90,Argentina,210,220,230,230,,117.5,125,-130,125,,235,247.5,-257.5,247.5,,602.5,1
Lucas Bosch,Wraps,SBD,M,1998-02-17,89.4,21,Juniors 20-23,90,Chile,225,235,-240,235,,120,130,140,140,,265,280,-285,280,,655,2
Carlos Cesar Cadenas,Wraps,SBD,M,1999-03-01,88.8,20,Juniors 20-23,90,Mexico,-255,265,275,275,,110,120,-130,120,,230,240,-245,240,,635,3
Andres Albornoz,Wraps,SBD,M,1966-08-19,88.4,53,Masters 50-59,90,Peru,200,225,-242,225,,112.5,117.5,-125,117.5,,150,,,150,,492.5,1
Guido Gola,Wraps,SBD,M,1996-11-05,89.4,23,Juniors 20-23,90,Argentina,240,-255,255,255,,160,170,180,180,,255,270,280,280,,715,1
Elber Dos Passos,Wraps,SBD,M,1990-05-21,88.7,29,Open,90,Brazil,265,282.5,-292.5,282.5,,155,-160,-160,155,,280,290,-300,290,,727.5,1
Brian Rabko,Wraps,SBD,M,1994-01-10,89.9,25,Open,90,Argentina,240,-255,255,255,,160,170,-180,170,,230,240,250,250,,675,2
Humberto Guillen,Wraps,SBD,M,1979-01-26,85.5,40,Masters 40-49,90,Peru,190,200,210,210,,110,120,125,125,,200,225,-230,225,,560,1
José Luis Oviedo,Wraps,SBD,M,1993-09-23,90.6,26,Open,100,Paraguay,250,260,-270,260,,-150,150,-160,150,,230,250,260,260,,670,2
Joaquin Zaldaña Diaz,Wraps,SBD,M,1996-01-15,98.7,23,Juniors 20-23,100,Mexico,-260,265,280,280,,125,132.5,137.5,137.5,,230,-240,-240,230,,647.5,2
Alan Aparicio,Wraps,SBD,M,1996-04-08,97.2,23,Juniors 20-23,100,Argentina,260,270,280,280,,130,140,150,150,,270,290,305,305,,735,1
Franco Quijanes Hurtubia,Wraps,SBD,M,1990-10-17,99.3,29,Open,100,Chile,230,-250,265,265,,122.5,132.5,140,140,,190,210,232.5,232.5,,637.5,3
Jean Piero Picchus,Wraps,SBD,M,1990-02-21,97.8,29,Open,100,Peru,260,280,300,300,,140,150,160,160,,260,-270,-270,260,,720,1
Fernando Vargas dos Santos,Wraps,SBD,M,,97,,Open,100,Brazil,220,240,-260,240,,140,152.5,160,160,,200,220,235,235,,635,4
Luis Zerpa,Wraps,SBD,M,1965-12-17,97.4,53,Masters 50-59,100,Peru,-210,212.5,232.5,232.5,,115,-125,,115,,180,210,-230,210,,557.5,3
Gregory Gritzman,Wraps,SBD,M,1965-09-05,92.2,54,Masters 50-59,100,Paraguay,200,-210,212.5,212.5,,120,122.5,125,125,,220,230,-232.5,230,,567.5,2
Javier Villaverde,Wraps,SBD,M,1969-03-11,98.8,50,Masters 50-59,100,Argentina,215,230,240,240,,120,130,135,135,,230,242.5,252.5,252.5,,627.5,1
Eduardo Peloso,Wraps,SBD,M,1956-10-20,97.4,63,Masters 60-69,100,Argentina,170,-180,-180,170,,95,105,115,115,,180,195,205,205,,490,1
Serafim Rocha,Multi-ply,SBD,M,1948-04-27,98.4,71,Masters 70-79,100,Brazil,-100,100,120,120,,90,110,115,115,,120,140,,140,,375,1
Rodrigo Aravena,Wraps,SBD,M,1996-03-06,99.4,23,Juniors 20-23,100,Chile,-260,260,280,280,,160,180,-185,180,,-250,-250,-250,,,,DQ
Israel Hernandez Laguna,Wraps,SBD,M,1996-05-07,109.9,23,Open,110,Mexico,305,325,335,335,,170,177.5,182.5,182.5,,300,310,320,320,,837.5,1
Israel Hernandez Laguna,Wraps,SBD,M,1996-05-07,109.9,23,Juniors 20-23,110,Mexico,305,325,335,335,,170,177.5,182.5,182.5,,300,310,320,320,,837.5,1
Felipe Salas,Wraps,SBD,M,1995-06-17,107.3,24,Open,110,Chile,260,275,282.5,282.5,,170,177.5,182.5,182.5,,280,295,-302.5,295,,760,3
Andres Guzman Sandi,Wraps,SBD,M,1988-06-15,109.33,31,Open,110,Bolivia,262.5,275,282.5,282.5,,160,170,-175,170,,265,-280,-280,265,,717.5,5
Hugo Quinteiro,Wraps,SBD,M,,107.9,,Open,110,Portugal,270,285,-302.5,285,,155,165,-175,165,,330,-332.5,-370.5,330,,780,2
Facundo Presta,Wraps,SBD,M,1993-07-07,109.8,26,Open,110,Argentina,-255,255,270,270,,170,180,-190,180,,280,-295,,280,,730,4
Alejandro Acuña González,Wraps,SBD,M,1985-03-13,117.3,34,Open,125,Chile,270,300,-330,300,,155,165,172.5,172.5,,310,-332.5,,310,,782.5,3
Javier Melgar Henrich,Wraps,SBD,M,1982-01-21,123.1,37,Open,125,Bolivia,315,335,345,345,,170,182.5,190,190,,270,285,300,300,,835,2
Mauro Spinardi,Wraps,SBD,M,1980-02-28,123.6,39,Open,125,Argentina,365,385,,385,,200,-210,210,210,,305,320,-330,320,,915,1
Ricardo Lucas,Wraps,SBD,M,,116.2,,Open,125,Brazil,240,260,290,290,,170,185,-202.5,185,,-200,200,,200,,675,4
Leonardo Cavaglia,Wraps,SBD,M,1976-01-12,124.5,43,Masters 40-49,125,Argentina,315,335,,335,,180,190,-200,190,,300,315,-325,315,,840,1
Enrique Barrionuevo,Wraps,SBD,M,1968-11-01,120,51,Masters 50-59,125,Argentina,230,250,260,260,,150,-170,-170,150,,140,180,220,220,,630,1
Abrahan Quiroz,Wraps,SBD,M,,138.7,,Open,140,Bolivia,235,255,265,265,,135,142.5,150,150,,210,220,-225,220,,635,5
Mohamed Bouafia,Wraps,SBD,M,1976-12-15,137,42,Open,140,Algeria,380,410,427.5,427.5,,200,210,220,220,,320,352.5,,352.5,,1000,1
Mohamed Bouafia,Wraps,SBD,M,1976-12-15,137,42,Masters 40-49,140,Algeria,380,410,427.5,427.5,,200,210,220,220,,320,352.5,,352.5,,1000,1
Adrian Lopez #3,Wraps,SBD,M,1986-08-07,134.2,33,Open,140,Argentina,280,300,320,320,,165,-180,180,180,,270,290,300,300,,800,4
Sergio Mardones Meza,Wraps,SBD,M,,156.8,,Open,140+,Chile,340,370,,370,,190,-205,205,205,,280,-307.5,,280,,855,3
Jaime Barrezueta,Wraps,SBD,M,,146.4,,Open,140+,Ecuador,320,350,370,370,,210,-230,-230,210,,300,320,,320,,900,2
Clotário Portugal Neto,Multi-ply,B,M,1953-02-11,73.7,66,Masters 60-69,75,Brazil,,,,,,140,142.5,144,144,,,,,,,144,1
Carlos Barreto Cabral,Multi-ply,B,M,1982-03-29,88.4,37,Open,90,Paraguay,,,,,,-180,180,,180,,,,,,,180,1
Jose Aguirre,Multi-ply,B,M,1970-11-17,98.9,48,Open,100,Argentina,,,,,,130,150,160,160,,,,,,,160,1
Jose Aguirre,Multi-ply,B,M,1970-11-17,98.9,48,Masters 40-49,100,Argentina,,,,,,130,150,160,160,,,,,,,160,1
Tiago dos Santos,Multi-ply,B,M,1982-12-29,120.1,36,Open,125,Brazil,,,,,,170,180,190,190,,,,,,,190,1
Flávia Portugal,Raw,B,F,1985-11-05,52.4,34,Open,56,Brazil,,,,,,60,65,67.5,67.5,,,,,,,67.5,1
Gregor Hocher,Raw,B,M,2002-07-11,55,17,Teen 16-17,56,Brazil,,,,,,90,95,97.5,97.5,-100,,,,,,97.5,1
André Marcus Salla,Raw,B,M,1995-05-26,73.5,24,Open,75,Brazil,,,,,,110,115,120,120,,,,,,,120,1
Guilherme White,Raw,B,M,1982-10-05,75.1,37,Open,82.5,Brazil,,,,,,120,127.5,130,130,,,,,,,130,2
Fernando Avila Villaba,Raw,B,M,1997-06-05,79.2,22,Juniors 20-23,82.5,Paraguay,,,,,,-160,160,-190,160,,,,,,,160,1
Jussie França,Raw,B,M,1984-12-20,81.9,34,Open,82.5,Brazil,,,,,,130,145,162.5,162.5,,,,,,,162.5,1
Hector Loaiza,Raw,B,M,1977-09-15,87.1,42,Masters 40-49,90,Peru,,,,,,125,135,-140,135,,,,,,,135,1
Carlos Barreto Cabral,Raw,B,M,1982-03-29,88.3,37,Open,90,Paraguay,,,,,,170,185,-200,185,,,,,,,185,2
Claudio Coelho,Raw,B,M,1982-02-04,87.8,37,Open,90,Brazil,,,,,,170,190,202.5,202.5,,,,,,,202.5,1
Carlos Porta,Raw,B,M,1933-02-03,88.6,86,Masters 80+,90,Argentina,,,,,,70,-75,-75,70,,,,,,,70,1
Lucas Ellera,Raw,B,M,1981-06-18,92,38,Open,100,Brazil,,,,,,155,165,170,170,,,,,,,170,2
Rodrigo Antonio Gonçalves,Raw,B,M,1981-04-16,98.6,38,Open,100,Brazil,,,,,,150,160,-167.5,160,,,,,,,160,3
Enrique Miranda,Raw,B,M,2001-05-30,107.2,18,Teen 18-19,110,Chile,,,,,,130,140,-142.5,140,,,,,,,140,1
Nicolas Pato,Raw,B,M,1984-04-16,110,35,Open,110,Argentina,,,,,,190,-227.5,-227.5,190,,,,,,,190,2
Vlastimil Kusel,Raw,B,M,1977-10-15,110,42,Open,110,Czechia,,,,,,230,240,250,250,,,,,,,250,1
Vlastimil Kusel,Raw,B,M,1977-10-15,110,42,Masters 40-49,110,Czechia,,,,,,230,240,250,250,,,,,,,250,1
Tiago dos Santos,Raw,B,M,1982-12-29,118,36,Open,125,Brazil,,,,,,175,185,195,195,,,,,,,195,1
Oldřich Procházka,Raw,B,M,1970-12-23,100,48,Masters 40-49,100,Czechia,,,,,,185,190,200,200,,,,,,,200,1
Marcelo Schneider,Raw,B,M,1967-02-25,108.8,52,Masters 50-59,110,Brazil,,,,,,150,160,-170.5,160,,,,,,,160,1
Jan Křivka,Raw,B,M,1988-09-27,123.2,31,Open,125,Czechia,,,,,,180,190,-195,190,,,,,,,190,2
Wissam Esber Musa,Raw,B,M,1986-02-17,122.9,33,Open,125,Chile,,,,,,170,180,-190,180,,,,,,,180,3
Martin Paez Cariboni,Raw,B,M,2000-04-03,133,19,Teen 18-19,140,Paraguay,,,,,,-160,160,-170,160,,,,,,,160,1
Carlos Aldabó,Raw,B,M,1991-09-10,139.6,28,Open,140,Brazil,,,,,,-220,,,,,,,,,,,DQ
Radek Filipi,Raw,B,M,1983-07-04,125.1,36,Open,140,Czechia,,,,,,170,185,190,190,,,,,,,190,1
Christian Sepúlveda Jaque,Raw,B,M,1995-02-10,99,24,Open,100,Chile,,,,,,160,167.5,172.5,172.5,,,,,,,172.5,1
Abdelghani Ammar Khodja,Raw,B,M,1981-03-12,140.1,38,Open,140+,Algeria,,,,,,-190,-190,-190,,,,,,,,,DQ
Uronal Zancan,Multi-ply,BD,M,1951-05-21,72.3,68,Masters 60-69,75,Brazil,,,,,,-65,65,-70,65,,110,120,132.5,132.5,135,197.5,1
Miguel Aguirre,Multi-ply,BD,M,1974-04-09,98,45,Masters 40-49,100,Argentina,,,,,,110,150,,150,,160,200,220,220,,370,1
Raul Olivieri,Multi-ply,BD,M,1983-11-30,101.6,35,Open,110,Argentina,,,,,,150,160,170,170,,180,200,220,220,,390,1
Cesar Casarotto,Multi-ply,BD,M,1983-02-20,123.3,36,Open,125,Brazil,,,,,,170,190,195,195,,290,310,335,335,,530,1
Maryorie Valenzuela,Raw,BD,F,1995-12-01,55,23,Open,56,Chile,,,,,,-60,62.5,-67.5,62.5,,137.5,145,-150,145,,207.5,1
Maryorie Valenzuela,Raw,BD,F,1995-12-01,55,23,Juniors 20-23,56,Chile,,,,,,-60,62.5,-67.5,62.5,,137.5,145,-150,145,,207.5,1
Clara Mallorquin,Raw,BD,F,1997-07-02,68.6,22,Juniors 20-23,75,Paraguay,,,,,,50,-60,-60,50,,105,130,-140,130,,180,1
Angelica Otharan,Raw,BD,F,1991-05-05,70.2,28,Open,75,Brazil,,,,,,65,75,77.5,77.5,,140,150,160,160,,237.5,2
Irina Petrovich,Raw,BD,F,1984-04-04,70.7,35,Open,75,Belarus,,,,,,110,120,125,125,,170,190,-195,190,,315,1
Cristian Mateluna Nuñez,Raw,BD,M,1986-07-14,53.9,33,Open,56,Chile,,,,,,80,86,87.5,87.5,,160,-170,-170,160,,247.5,1
Felippe Portugal,Raw,BD,M,1983-08-24,67.3,36,Open,67.5,Brazil,,,,,,100,107.5,110,110,,120,,,120,,230,1
Guilherme White,Raw,BD,M,1982-10-05,74.3,37,Open,75,Brazil,,,,,,130,,,130,,65,,,65,,195,1
Leandro Fillipini,Raw,BD,M,1998-02-23,70.2,21,Juniors 20-23,75,Argentina,,,,,,110,125,-132.5,125,,150,167.5,180,180,,305,1
Marco Percivaldi,Raw,BD,M,2001-04-16,80.7,18,Teen 18-19,82.5,Argentina,,,,,,95,107.5,112.5,112.5,,170,190,-200,190,,302.5,1
Carlos Torrico,Raw,BD,M,1996-02-01,87.8,23,Open,90,Bolivia,,,,,,120,130,140,140,,240,-257.5,-257.5,240,,380,3
Carlos Torrico,Raw,BD,M,1996-02-01,87.8,23,Juniors 20-23,90,Bolivia,,,,,,120,130,140,140,,240,-257.5,-257.5,240,,380,1
Mauricio Rodríguez Cid,Raw,BD,M,1988-07-06,88.9,31,Open,90,Chile,,,,,,132.5,140,-142.5,140,,-247.5,247.5,-260,247.5,,387.5,2
José Luis Oviedo,Raw,BD,M,1993-09-23,89.8,26,Open,90,Paraguay,,,,,,140,-155,-155,140,,245,260,-270,260,,400,1
Sebastián Jara Pérez,Raw,BD,M,1988-12-27,97.4,30,Open,100,Chile,,,,,,150,160,170,170,,290,310,-315,310,,480,1
Eduardo Grumann,Raw,BD,M,,95.8,,Open,100,Brazil,,,,,,145,151,157.5,157.5,160,225,235,,235,,392.5,2
Nicolas Villalobos,Raw,BD,M,1996-02-24,107.8,23,Juniors 20-23,110,Chile,,,,,,160,167.5,-175,167.5,,290,302.5,-310,302.5,,470,2
Felix Gabriel Perotto,Raw,BD,M,1996-08-24,106.8,23,Juniors 20-23,110,Brazil,,,,,,160,170,-180,170,,280,300,-310,300,,470,1
Ricardo Cardozo,Raw,BD,M,1995-05-07,106,24,Open,110,Paraguay,,,,,,150,-160,-160,150,,-305,305,-312.5,305,,455,1
Marcelo Schneider,Raw,BD,M,1967-02-25,108.8,52,Masters 50-59,110,Brazil,,,,,,150,160,-170.5,160,,220,,,220,,380,1
Aldo Cornejo,Raw,BD,M,1971-01-05,123.2,48,Open,125,Chile,,,,,,145,155,-160,155,,270,290,,290,,445,1
Aldo Cornejo,Raw,BD,M,1971-01-05,123.2,48,Masters 40-49,125,Chile,,,,,,145,155,-160,155,,270,290,,290,,445,1
Mohamed Bouafia,Raw,BD,M,1976-12-15,137.8,42,Open,140,Algeria,,,,,,200,210,220,220,,320,352.5,,352.5,,572.5,1
Mohamed Bouafia,Raw,BD,M,1976-12-15,137.8,42,Masters 40-49,140,Algeria,,,,,,200,210,220,220,,320,352.5,,352.5,,572.5,1
Edson da Silva Rubert,Multi-ply,D,M,1990-02-05,81.6,29,Open,82.5,Brazil,,,,,,,,,,,180,200,210,210,,210,1
Igor Serafin,Multi-ply,D,M,1982-03-25,116.1,37,Open,125,Brazil,,,,,,,,,,,280,300,320,320,,320,1
Natalia Canorio Chavez,Raw,D,F,1987-03-03,47.7,32,Open,48,Peru,,,,,,,,,,,80,92.5,-107.5,92.5,,92.5,1
Yasnna Riffo,Raw,D,F,1973-11-01,59.5,46,Open,60,Chile,,,,,,,,,,,145,-155,-155,145,,145,1
Yasnna Riffo,Raw,D,F,1973-11-01,59.5,46,Masters 40-49,60,Chile,,,,,,,,,,,145,-155,-155,145,,145,1
Douglas Casarotto,Raw,D,M,2011-01-11,30.7,8,Youth,52,Brazil,,,,,,,,,,,30,45,60,60,,60,1
Cristian Mateluna Nuñez,Raw,D,M,1986-07-14,53.9,33,Open,56,Chile,,,,,,,,,,,160,165,-170,165,,165,1
Uronal Zancan,Raw,D,M,1951-05-21,73,68,Masters 60-69,75,Brazil,,,,,,,,,,,115,125,137.5,137.5,,137.5,1
Samuel Soto González,Raw,D,M,2001-10-17,79.6,18,Teen 18-19,82.5,Chile,,,,,,,,,,,-232.5,232.5,-240,232.5,,232.5,1
Rodrigo Montes,Raw,D,M,1995-12-14,89.2,23,Juniors 20-23,90,Argentina,,,,,,,,,,,220,235,-250,235,,235,1
Mathias Ziegler,Raw,D,M,1992-12-22,88.8,26,Open,90,Brazil,,,,,,,,,,,240,250,-255,250,,250,1
Carlos Tadeu Trelles,Raw,D,M,1951-11-29,99.6,67,Open,100,Brazil,,,,,,,,,,,180,190,200,200,,200,3
Carlos Tadeu Trelles,Raw,D,M,1951-11-29,99.6,67,Masters 60-69,100,Brazil,,,,,,,,,,,180,190,200,200,,200,1
Jonatan Batista dos Santos,Raw,D,M,1991-06-12,93,28,Open,100,Brazil,,,,,,,,,,,180,200,220,220,,220,2
Elika Santos,Raw,D,F,2010-08-24,35,9,Youth,44,Brazil,,,,,,,,,,,40,50,55,55,,55,1
Emiliano Barrionuevo,Raw,D,M,1991-12-24,100,27,Open,100,Argentina,,,,,,,,,,,280,300,,300,,300,1
Felipe Salla,Raw,D,M,1986-11-28,115,32,Open,125,Brazil,,,,,,,,,,,270,300,-305,300,,300,1
Marcelo Schneider,Raw,D,M,1967-02-25,108.8,52,Masters 50-59,110,Brazil,,,,,,,,,,,220,,,220,,220,1
Pedro Fogaça,Raw,D,M,1980-10-18,102.4,39,Open,110,Brazil,,,,,,,,,,,260,280,305,305,,305,1
